EMP_001,POS_CODE,POS_TITLE,YOUR_TITLE,YOUR_CODE,YOUR_LEVEL,YOUR_GRADE,EMP_026,POS_CLASS,EMP_032,EMP_034,EMP_036,EMP_037,EMP_038,EMP_039,EMP_043,EMP_044,EMP_049,EMP_054,EMP_055,EMP_058A,EMP_061,EMP_067,EMP_096,EMP_097,EMP_098,EMP_099,EMP_100,EMP_109,EMP_114,EMP_116,EMP_117,EMP_118,EMP_119,EMP_122,YOUR_EEID,EMP_129,EMP_123,EMP_134,EMP_136,EMP_233,EMP_234,EMP_236,EMP_238,EMP_239,EMP_240,EMP_242,EMP_244,EMP_260,EMP_261,EMP_273,EMP_278,EMP_279,EMP_280,EMP_281,EMP_282,EMP_283,EMP_284,EMP_285,EMP_290
Entity name ,Mercer Benchmark Code,Mercer Position Title,Organization Job Title,Organization Job Code,Organization Job Level,Organization Job Grade,Organization's  Reports to Position Title,IPE Position Class (current year) (only for IPE users),Incumbent Annual Revenue,Assets Under Management,Geographic Scope of Role,Year of Birth,Employee Year of Hire,Year Entered Into Position,Same Incumbent 12 Months Prior,Gender,Postal Code (Zip Code) job is located,Line of Business (P&C Insurance positions only),Market Segment (P&C Insurance positions only),SSO/BPO Employee,Union Status,License Required,Overtime Pay Eligibility, Salary Effective Date,Contact Center Number (Contact Centre Module Participants Only) See Guide for Explanation,Last Performance Rating,Quality of Position Match ,100% Virtual Agent,Sales Incentive Status for Non-Receivers,Discipline Code (Financial Operations positions only),FLSA Status,Industry Segment (Consumer Finance positions only),Sub-Industry Segment (Consumer Finance positions only),Pay Type,Employee Identifier,Annual Base Salary (Equivalent to Full Time Employment),Standard Work Week (Hours),Salary Range Minimum. Do Not Report Broadband Ranges,Salary Range Maximum. Do Not Report Broadband Ranges,Short-term Incentive (Variable Bonus) Eligibility,Short-term Incentive (Variable Bonus) (Actual),Short-term Incentive (Target) as Percentage of Base Salary,Short-term Incentive (Maximum) as Percentage of Base,Short-term Incentive (Threshold) as Percent of Base,Sales Incentive Eligibility,Sales Incentive Annual Amount (Actual),Sales Incentive (Target) as Percentage of Base,Profit Sharing Plan Eligibility,Profit Sharing (Actual),Short-term Incentive Status for Non-Receivers,Long-term Incentive Eligible,LTI Plan Types Offered. Enter all that apply ,LTI Plan Award #1. Organization LTI Plan Identifier (identifiers provided on the LTI Plans section),Number of Granted Options/Shares/Performance Units or value of Granted Cash Award,LTI Plan Award #2. Organization LTI Plan Identifier (identifiers provided on the LTI Plans section),Number of granted Options/ Shares/ Performance Units or value of granted Cash Award,LTI Plan Award #3. Organization LTI Plan Identifier (identifiers provided on the LTI Plans section),Number of granted Options/ Shares/ Performance Units or value of granted Cash Award,Stock/Share Ownership Guidelines
MK TEST,XYZ.123.X.456,,,AAA10,,,,,,,,,,,,,,1,1,,,,,,,,,,,,,,,,ASD132,24500,,,,Yes,999,,,,,,,,1000,,,,,,,,,,
