{
  "entities": [
    {
      "otherSectionsData": {},
      "contextData": {
        "campaignId": "5a703104b58e2f0017da6296",
        "companyId": "5a7b11c7d3539b7c81c53796",
        "orgSize": null,
        "companyName": "ABC",
        "ctryCode": "SG",
        "sectionId": "Yes_No_Formatter_Section",
        "grpCode": "",
        "cpyCode": "",
        "uniqueIdColumnCode": "YOUR_EEID",
        "industry": {
          "superSector": "CH",
          "sector": "209",
          "subSector": "2550"
        }
      },
      "sectionStructure": {
        "columns": [
          {
            "code": "Yes_No_Formatter",
            "dataType": "string",
            "questionType": "dropdown",
            "validations": [],
            "options": {
              "items": [
                {
                  "value": "Y",
                  "displayName": "Yes"
                },
                {
                  "value": "N",
                  "displayName": "No"
                },
                {
                  "value": "NA",
                  "displayName": "Not applicable"
                }
              ]
            }
          },
          {
            "code": "YOUR_EEID",
            "dataType": "string",
            "questionType": "text",
            "validations": [
              {
                "mda": "exclude_row",
                "parameter": "",
                "expression": "ISBLANK(this.YOUR_EEID);",
                "errorType": "ERROR",
                "validationType": "expression",
                "_id": "5a6c69823a51580018605a78",
                "category": "input_data",
                "dependentColumns": []
              }
            ]
          },
          {
            "code": "YOUR_CODE",
            "dataType": "string",
            "questionType": "text",
            "validations": []
          },
          {
            "code": "POS_CODE",
            "dataType": "string",
            "questionType": "text",
            "validations": [
              {
                "mda": "",
                "parameter": "",
                "expression": "ISBLANK(this.YOUR_TITLE) && ISBLANK(this.POS_CODE);",
                "errorType": "ERROR",
                "validationType": "expression",
                "_id": "5a704c350819f80017f0d08c",
                "category": "file_acceptance",
                "dependentColumns": []
              }
            ]
          },
          {
            "code": "YOUR_TITLE",
            "dataType": "string",
            "questionType": "text",
            "validations": []
          },
          {
            "code": "RandomQuesCode1",
            "dataType": "int",
            "questionType": "integer",
            "validations": [
              {
                "mda": "",
                "parameter": "",
                "expression": "this.RandomQuesCode1<10;",
                "errorType": "ERROR",
                "validationType": "expression",
                "_id": "5a671aa71f1d39001606c8cf",
                "category": "input_data",
                "dependentColumns": []
              },
              {
                "mda": "",
                "parameter": "",
                "expression": "ISBLANK(this.RandomQuesCode1);",
                "errorType": "ALERT",
                "validationType": "expression",
                "_id": "5a71ba82ce685b00183e3eaf",
                "category": "input_data",
                "dependentColumns": []
              }
            ]
          },
          {
            "code": "autodata_8032_001",
            "dataType": "string",
            "questionType": "text",
            "validations": [
              {
                "mda": "autodata_8032_001 = \"Value1\";",
                "parameter": "",
                "expression": "ISBLANK(this.autodata_8032_001);",
                "errorType": "ERROR",
                "validationType": "expression",
                "_id": "5a6d57b2b00a9f0017a12663",
                "category": "input_data",
                "dependentColumns": []
              }
            ]
          }
        ]
      }
    }
  ]
}