timeStamp,elapsed,label,responseCode,threadName,success,bytes,grpThreads,allThreads,Latency,SampleCount,ErrorCount,Hostname,Connect
1519140607178,4874,FileUpload F1_PE-8157_Ignore,200,Thread Group_Prod1 1-1,false,6313,1,1,4873,1,1,infpu013335,330
1519140612077,1034,FileUpload F1_PE-8110_ErrorCell,200,Thread Group_Prod1 1-1,true,1571,1,1,1034,1,0,infpu013335,250
1519140613129,4887,FileUpload F2_PE-8110_ErrorCell_Ignore,422,Thread Group_Prod1 1-1,false,650879,1,1,1876,1,1,infpu013335,0
1519140618055,2287,FileUpload F3_PE-8110_ErrorCell_Ignore,400,Thread Group_Prod1 1-1,false,385,1,1,2287,1,1,infpu013335,244
1519140620350,808,FileUpload F4_PE-5678_SequentialWithOtherValidations,200,Thread Group_Prod1 1-1,true,5471,1,1,807,1,0,infpu013335,262
1519140621176,270,NoFileUpload N1_PE-5678_LOOK_UP_CHECK1,200,Thread Group_Prod1 1-1,false,1072,1,1,269,1,1,infpu013335,0
1519140621467,268,NoFileUpload N1_PE-5678_SequentialWithOtherValidations,200,Thread Group_Prod1 1-1,true,994,1,1,268,1,0,infpu013335,0
1519140621762,268,NoFileUpload N2_PE-5678_SequentialWithOtherValidations,200,Thread Group_Prod1 1-1,true,959,1,1,268,1,0,infpu013335,0
1519140622070,824,"NoFileUpload_Null Validation_crossSectionChecks_LPALL_566 is """"",200,Thread Group_Prod1 1-1,true,6764,1,1,822,1,0,infpu013335,0
1519140622923,1917,NoFileUpload_Null Validation_crossSectionChecks_LPALL_566 is null,200,Thread Group_Prod1 1-1,true,6760,1,1,1916,1,0,infpu013335,282
1519140624852,306,"NoFileUpload_Null Validation_crossSectionChecks_LPALL_566 is ""null""",200,Thread Group_Prod1 1-1,true,6903,1,1,306,1,0,infpu013335,0
1519140625168,1757,"NoFileUpload_Null Validation_crossSectionChecks_LPALL_566 is ""   """,200,Thread Group_Prod1 1-1,true,6767,1,1,1756,1,0,infpu013335,246
1519140626943,252,NoFileUpload N3_PE-7172MDA,200,Thread Group_Prod1 1-1,true,664,1,1,252,1,0,infpu013335,0
1519140627209,906,FileUpload F5_PE7172_Fix,200,Thread Group_Prod1 1-1,true,4873,1,1,905,1,0,infpu013335,253
1519140628130,510,NoFileUpload N4_PE-8032MDA,200,Thread Group_Prod1 1-1,true,664,1,1,510,1,0,infpu013335,0
1519140628672,784,NoFileUpload N5_PE-8070,200,Thread Group_Prod1 1-1,true,881,1,1,784,1,0,infpu013335,0
1519140629480,1268,NoFileUpload N73_PE5668 T2_Temp,200,Thread Group_Prod1 1-1,true,609,1,1,1268,1,0,infpu013335,253
1519140630765,261,NoFileUpload N74_PE5668 T3_Temp,200,Thread Group_Prod1 1-1,true,753,1,1,261,1,0,infpu013335,0
1519140631040,260,NoFileUpload N75_PE5668 T4_Temp,200,Thread Group_Prod1 1-1,true,706,1,1,260,1,0,infpu013335,0
1519140631320,259,NoFileUpload N76_PE5668 T5_Temp,200,Thread Group_Prod1 1-1,true,720,1,1,259,1,0,infpu013335,0
1519140631593,1246,NoFileUpload N78_PE5668 T7_Temp,200,Thread Group_Prod1 1-1,true,705,1,1,1246,1,0,infpu013335,249
1519140632860,254,NoFileUpload N79_PE5668 T8_Temp,200,Thread Group_Prod1 1-1,true,607,1,1,254,1,0,infpu013335,0
1519140633121,1965,FileUpload F6_PE-7257_US_CSV_Shuffle,200,Thread Group_Prod1 1-1,false,5517,1,1,1964,1,1,infpu013335,0
1519140635104,2746,FileUpload F7_PE-7257_US_Excel_Shuffle,200,Thread Group_Prod1 1-1,false,5699,1,1,2745,1,1,infpu013335,252
1519140637901,1831,NoFileUpload N6_PE7978,200,Thread Group_Prod1 1-1,true,6632,1,1,1830,1,0,infpu013335,257
1519140639755,261,NoFileUpload N7_PE7954,200,Thread Group_Prod1 1-1,true,727,1,1,261,1,0,infpu013335,0
1519140640023,1338,NoFileUpload N77_PE5668 T6,200,Thread Group_Prod1 1-1,true,716,1,1,1338,1,0,infpu013335,267
1519140641386,273,FileUpload F8_PE7999_Ignore since files are identical,422,Thread Group_Prod1 1-1,false,1282,1,1,273,1,1,infpu013335,0
1519140641673,274,NoFileUpload N8_ PE7795,200,Thread Group_Prod1 1-1,true,722,1,1,274,1,0,infpu013335,0
1519140641965,279,NoFileUpload N9_PE7046_AU_Comp2,200,Thread Group_Prod1 1-1,true,914,1,1,279,1,0,infpu013335,0
1519140642263,781,NoFileUpload N10_PE7046_US_Comp1,200,Thread Group_Prod1 1-1,true,910,1,1,780,1,0,infpu013335,257
1519140643068,265,NoFileUpload N11_PE7046_IN_Comp1,200,Thread Group_Prod1 1-1,true,910,1,1,265,1,0,infpu013335,0
1519140643342,262,NoFileUpload N12_PE7046_ZA_Comp2,200,Thread Group_Prod1 1-1,true,914,1,1,262,1,0,infpu013335,0
1519140643619,815,NoFileUpload N13_PE7773_NUM_EMP is 7_Fix,200,Thread Group_Prod1 1-1,false,1099,1,1,815,1,1,infpu013335,0
1519140644466,1575,NoFileUpload N14_PE7773_NUM_EMP is 8.1_boundry is 8,200,Thread Group_Prod1 1-1,true,1100,1,1,1575,1,0,infpu013335,260
1519140646050,286,NoFileUpload N15_PE7773_NUM_EMP is 9_boundry is 8,200,Thread Group_Prod1 1-1,true,1099,1,1,286,1,0,infpu013335,0
1519140646364,353,FileUpload F9_PE5216_ImpactedbyComment,200,Thread Group_Prod1 1-1,true,1345,1,1,353,1,0,infpu013335,0
1519140646758,779,NoFileUpload N16_PE7044_expression,200,Thread Group_Prod1 1-1,true,674,1,1,779,1,0,infpu013335,259
1519140647538,532,NoFileUpload N17_PE7044_range,200,Thread Group_Prod1 1-1,true,917,1,1,532,1,0,infpu013335,0
1519140648119,272,NoFileUpload N18_PE7044_rangeValidationRefTable,200,Thread Group_Prod1 1-1,true,912,1,1,272,1,0,infpu013335,0
1519140648419,275,NoFileUpload N19_PE7044_rangeValidationRefTable_dimensions,200,Thread Group_Prod1 1-1,true,942,1,1,275,1,0,infpu013335,0
1519140648705,1586,FileUpload F10_PE5691_1Record_Ignore,400,Thread Group_Prod1 1-1,false,327,1,1,1586,1,1,infpu013335,0
1519140650305,2025,FileUpload F11_PE5691_1Record_Ignore,400,Thread Group_Prod1 1-1,false,327,1,1,2024,1,1,infpu013335,251
1519140652348,1028,FileUpload F12_PE6027_Ref Table,200,Thread Group_Prod1 1-1,true,2193,1,1,1028,1,0,infpu013335,258
1519140653404,518,FileUpload F13_PE6030,200,Thread Group_Prod1 1-1,true,3289,1,1,518,1,0,infpu013335,0
1519140653945,254,NoFileUpload N20_PE7033,200,Thread Group_Prod1 1-1,true,910,1,1,254,1,0,infpu013335,0
1519140654199,254,NoFileUpload N21_PE7314,200,Thread Group_Prod1 1-1,true,771,1,1,254,1,0,infpu013335,0
1519140654471,2820,FileUpload F14_PE7071_1Record_Shuffle,200,Thread Group_Prod1 1-1,false,5782,1,1,2820,1,1,infpu013335,253
1519140657320,2816,FileUpload F15_PE7071_1Record,200,Thread Group_Prod1 1-1,true,5780,1,1,2815,1,0,infpu013335,251
1519140660181,2618,FileUpload F16_PE7071_1Record,200,Thread Group_Prod1 1-1,true,6381,1,1,2617,1,0,infpu013335,266
1519140662826,2806,FileUpload F17_PE7071_1Record,200,Thread Group_Prod1 1-1,true,4601,1,1,2805,1,0,infpu013335,253
1519140665659,2690,FileUpload F18_PE7611,200,Thread Group_Prod1 1-1,true,1989,1,1,2690,1,0,infpu013335,256
1519140668364,2758,FileUpload F19_PE7611,200,Thread Group_Prod1 1-1,true,2070,1,1,2758,1,0,infpu013335,332
1519140671138,2999,FileUpload F20_PE7611,200,Thread Group_Prod1 1-1,true,1913,1,1,2999,1,0,infpu013335,263
1519140674152,2614,FileUpload F21_PE7611,200,Thread Group_Prod1 1-1,true,1989,1,1,2613,1,0,infpu013335,245
1519140676789,2706,FileUpload F22_PE7611,200,Thread Group_Prod1 1-1,true,2398,1,1,2706,1,0,infpu013335,257
1519140679515,3574,FileUpload F23_PE7611,200,Thread Group_Prod1 1-1,true,2275,1,1,3573,1,0,infpu013335,254
1519140683115,3530,FileUpload F24_PE7611,200,Thread Group_Prod1 1-1,true,2275,1,1,3529,1,0,infpu013335,252
1519140686664,4550,FileUpload F25_PE7611,200,Thread Group_Prod1 1-1,true,2163,1,1,4549,1,0,infpu013335,250
1519140691223,2731,FileUpload F26_PE7611,200,Thread Group_Prod1 1-1,true,2164,1,1,2731,1,0,infpu013335,261
1519140693974,2702,FileUpload F27_PE7611,200,Thread Group_Prod1 1-1,true,2119,1,1,2702,1,0,infpu013335,259
1519140696697,767,FileUpload F28_6713CSV_SkipLastBlankRow,200,Thread Group_Prod1 1-1,true,1752,1,1,767,1,0,infpu013335,252
1519140697463,266,FileUpload F29_6713CSV_SkipInitialRow,200,Thread Group_Prod1 1-1,true,1461,1,1,266,1,0,infpu013335,0
1519140697755,267,FileUpload F30_6713CSV_SkipMiddleBlankRows,200,Thread Group_Prod1 1-1,true,2055,1,1,267,1,0,infpu013335,0
1519140698035,522,FileUpload F31_6713Excel_SkipInitialRow,200,Thread Group_Prod1 1-1,true,1461,1,1,522,1,0,infpu013335,0
1519140698578,530,FileUpload F32_6713Excel_SkipLastBlankRow,200,Thread Group_Prod1 1-1,true,1752,1,1,530,1,0,infpu013335,0
1519140699120,1014,FileUpload F33_6713Excel_SkipMiddleRow,200,Thread Group_Prod1 1-1,true,2055,1,1,1014,1,0,infpu013335,249
1519140700157,252,NoFileUpload N22_PE7631_metaData,200,Thread Group_Prod1 1-1,true,609,1,1,252,1,0,infpu013335,0
1519140700420,252,NoFileUpload N23_PE7631_metaData,200,Thread Group_Prod1 1-1,true,604,1,1,252,1,0,infpu013335,0
1519140700695,252,NoFileUpload N24_PE7631_Autocorrect,200,Thread Group_Prod1 1-1,true,836,1,1,252,1,0,infpu013335,0
1519140700957,255,NoFileUpload N25_PE7631,200,Thread Group_Prod1 1-1,true,835,1,1,255,1,0,infpu013335,0
1519140701236,746,NoFileUpload N26_7045RawJson_NonNumerciData,200,Thread Group_Prod1 1-1,true,846,1,1,746,1,0,infpu013335,248
1519140702002,251,NoFileUpload N27_7045RawJson_SkipBlankCols,200,Thread Group_Prod1 1-1,true,771,1,1,251,1,0,infpu013335,0
1519140702260,251,NoFileUpload N28_7045RawJson_SkipNonNumericCols,200,Thread Group_Prod1 1-1,true,680,1,1,251,1,0,infpu013335,0
1519140702518,252,NoFileUpload N29_7045RawJson_WithDimesion,200,Thread Group_Prod1 1-1,true,853,1,1,252,1,0,infpu013335,0
1519140702800,251,NoFileUpload N30_7045RawJson_SingleNonBlankValue,200,Thread Group_Prod1 1-1,true,615,1,1,251,1,0,infpu013335,0
1519140703070,257,NoFileUpload N31_7045RawJson_WithOtherValidation,200,Thread Group_Prod1 1-1,true,903,1,1,256,1,0,infpu013335,0
1519140703345,764,FileUpload F34_PE7045_7045CSV_SimpleSequentialCheck,200,Thread Group_Prod1 1-1,true,2040,1,1,764,1,0,infpu013335,252
1519140704126,527,FileUpload F35_PE7045_7045Excel_SimpleSequentialCheck,200,Thread Group_Prod1 1-1,true,2028,1,1,527,1,0,infpu013335,0
1519140704680,264,FileUpload F36_PE7045_7045CSV_SkipBlankColumn,200,Thread Group_Prod1 1-1,true,1727,1,1,264,1,0,infpu013335,0
1519140704972,528,FileUpload F37_PE7045_7045EXCEL_SkipBlankColumn,200,Thread Group_Prod1 1-1,true,2070,1,1,527,1,0,infpu013335,0
1519140705510,776,FileUpload F38_PE7045_7045CSV_SkipNonNumericData,200,Thread Group_Prod1 1-1,true,1628,1,1,776,1,0,infpu013335,254
1519140706306,1433,FileUpload F39_PE7045_7045EXCEL_SkipNonNumericData,200,Thread Group_Prod1 1-1,true,2584,1,1,1432,1,0,infpu013335,0
1519140707755,768,NoFileUpload N32_PE7474_Testcase1,200,Thread Group_Prod1 1-1,true,900,1,1,768,1,0,infpu013335,253
1519140708542,262,NoFileUpload N33_PE7474_Testcase2,200,Thread Group_Prod1 1-1,true,903,1,1,262,1,0,infpu013335,0
1519140708824,259,NoFileUpload N34_PE7474_Testcase3,200,Thread Group_Prod1 1-1,true,815,1,1,259,1,0,infpu013335,0
1519140709102,264,NoFileUpload N35_PE7474_Testcase4,200,Thread Group_Prod1 1-1,true,881,1,1,264,1,0,infpu013335,0
1519140709392,266,NoFileUpload N36_PE7474_Testcase5,200,Thread Group_Prod1 1-1,true,905,1,1,266,1,0,infpu013335,0
1519140709666,263,NoFileUpload N37_PE7474_Testcase6,200,Thread Group_Prod1 1-1,true,900,1,1,263,1,0,infpu013335,0
1519140709953,5507,FileUpload F40_PE7474,200,Thread Group_Prod1 1-1,true,4224,1,1,5506,1,0,infpu013335,250
1519140715477,763,NoFileUpload N38_PE7689_RefTable,200,Thread Group_Prod1 1-1,true,942,1,1,763,1,0,infpu013335,252
1519140716266,761,NoFileUpload N39_PE7440_ISBLANK_ImpactedbyComment,200,Thread Group_Prod1 1-1,true,1070,1,1,761,1,0,infpu013335,0
1519140717051,512,NoFileUpload N40_PE7440_ISNOTBLANK_LENGTH_ImpactedbyComment,200,Thread Group_Prod1 1-1,true,954,1,1,512,1,0,infpu013335,0
1519140717579,808,FileUpload F41_PE5679_EqualToWithAllBlank_POSCODE=2,200,Thread Group_Prod1 1-1,false,2838,1,1,808,1,1,infpu013335,247
1519140718414,340,FileUpload F42_PE5679_3 Null string and 1 Blank_POSCODE=2,200,Thread Group_Prod1 1-1,false,2669,1,1,339,1,1,infpu013335,0
1519140718784,314,FileUpload F43_PE5679_2 Null String and 2 Blank_POSCODE=2,200,Thread Group_Prod1 1-1,true,2871,1,1,313,1,0,infpu013335,0
1519140719114,312,FileUpload F44_PE5679_1 Null String_1Data_2 Blank_POSCODE=2,200,Thread Group_Prod1 1-1,false,1746,1,1,312,1,1,infpu013335,0
1519140719441,314,FileUpload F45_PE5679_NoBlanksNoNullAllUnique_POSCODE=2,200,Thread Group_Prod1 1-1,false,3240,1,1,314,1,1,infpu013335,0
1519140719771,800,FileUpload F46_PE5679_3samedata_1Blank_POSCODE=2,200,Thread Group_Prod1 1-1,false,2662,1,1,800,1,1,infpu013335,245
1519140720588,315,FileUpload F47_PE5679_POSCODEGreaterThan2,200,Thread Group_Prod1 1-1,false,2841,1,1,315,1,1,infpu013335,0
1519140720924,310,FileUpload F48_PE5679_POSCODEGreaterThanEqualTo2,200,Thread Group_Prod1 1-1,false,1747,1,1,310,1,1,infpu013335,0
1519140721244,312,FileUpload F49_PE5679_LessThan,200,Thread Group_Prod1 1-1,false,2461,1,1,311,1,1,infpu013335,0
1519140721566,311,FileUpload F50_PE5679_LessThanEqualTo1,200,Thread Group_Prod1 1-1,false,2838,1,1,310,1,1,infpu013335,0
1519140721899,7097,FileUpload F52_PE7724_CSV_ref,200,Thread Group_Prod1 1-1,true,21368,1,1,6845,1,0,infpu013335,252
1519140729023,9755,FileUpload F52_PE7724_Excel_ValidationMsg,200,Thread Group_Prod1 1-1,false,18485,1,1,9500,1,1,infpu013335,254
1519140738814,3849,FileUpload F53_PE7056_uploadMultipleFile_TBC for strict or loose_Shuffle,200,Thread Group_Prod1 1-1,false,5155,1,1,3848,1,1,infpu013335,326
1519140742689,735,NoFileUpload N41_PE7056_validateAggregates_Fix,200,Thread Group_Prod1 1-1,false,807,1,1,735,1,1,infpu013335,243
1519140743445,249,NoFileUpload N42_7056_performDefaultActions_Correct as per new code,200,Thread Group_Prod1 1-1,true,674,1,1,249,1,0,infpu013335,0
1519140743720,492,NoFileUpload N43_7056_crossSectionChecks,200,Thread Group_Prod1 1-1,true,1316,1,1,492,1,0,infpu013335,0
1519140744225,250,NoFileUpload N44_PE7241_EmailValidation -withInvalidAndValidEmailIdInDimension,200,Thread Group_Prod1 1-1,true,858,1,1,250,1,0,infpu013335,0
1519140744488,247,NoFileUpload N45_PE7241_EmailValidation-withAllInvalidEmailIdInDimension,200,Thread Group_Prod1 1-1,true,889,1,1,247,1,0,infpu013335,0
1519140744748,518,NoFileUpload N46_PE7241_EmailValidation -withNullStringAndBlankEmailIdInDimension,200,Thread Group_Prod1 1-1,true,853,1,1,518,1,0,infpu013335,257
1519140745282,261,NoFileUpload N47_PE7241_EmailValidation_withAllBlankEmailIdInDimension,200,Thread Group_Prod1 1-1,true,832,1,1,261,1,0,infpu013335,0
1519140745571,264,NoFileUpload N48_PE7241_EmailValidation_withAllEmailIdAsNullStringInDimension,200,Thread Group_Prod1 1-1,true,853,1,1,264,1,0,infpu013335,0
1519140745842,261,NoFileUpload N49_PE7241_EmailValidation_withAllValidEmailIdInDimension,200,Thread Group_Prod1 1-1,true,876,1,1,261,1,0,infpu013335,0
1519140746110,262,NoFileUpload N50_PE7241_PhoneValidation_withAllBlankPhoneNumberInDimension,200,Thread Group_Prod1 1-1,true,795,1,1,262,1,0,infpu013335,0
1519140746379,260,NoFileUpload N51_PE7241_PhoneValidation_withAllInvalidPhoneNumberInDimension,200,Thread Group_Prod1 1-1,true,897,1,1,260,1,0,infpu013335,0
1519140746657,262,NoFileUpload N52_PE7241_PhoneValidation_withAllNullStringAndBlankPhoneNumberInDimension,200,Thread Group_Prod1 1-1,true,813,1,1,262,1,0,infpu013335,0
1519140746927,508,NoFileUpload N53_PE7241_PhoneValidation_withAllNullStringPhoneNumberInDimension,200,Thread Group_Prod1 1-1,true,836,1,1,508,1,0,infpu013335,251
1519140747456,258,NoFileUpload N54_PE7241_PhoneValidation_withAllValidPhoneNumberInDimension,200,Thread Group_Prod1 1-1,true,879,1,1,258,1,0,infpu013335,0
1519140747735,256,NoFileUpload N55_PE7241_PhoneValidation_withValidAndInvalidPhoneNumberInDimension,200,Thread Group_Prod1 1-1,true,872,1,1,256,1,0,infpu013335,0
1519140748003,256,NoFileUpload N56_PE7241_RequiredValidation__withAllNullStringInDimension,200,Thread Group_Prod1 1-1,true,872,1,1,256,1,0,infpu013335,0
1519140748268,256,NoFileUpload N57_PE7241_RequiredValidation__withAllValidValuesInDimension,200,Thread Group_Prod1 1-1,true,858,1,1,256,1,0,infpu013335,0
1519140748537,258,NoFileUpload N58_PE7241_RequiredValidation_withAllblankValuesInDimension ,200,Thread Group_Prod1 1-1,true,869,1,1,258,1,0,infpu013335,0
1519140748807,256,"NoFileUpload N59_PE7241_RequiredValidation_WithNullString,BlankAndValuesInDimension",200,Thread Group_Prod1 1-1,true,884,1,1,256,1,0,infpu013335,0
1519140749080,1250,NoFileUpload N60_PE7241_RequiredValidation_WithNullStringlAndBlankInDimension,200,Thread Group_Prod1 1-1,true,875,1,1,1250,1,0,infpu013335,245
1519140750354,250,NoFileUpload N61_PE7241_RequiredValidation_WithValidAndInvalidValue,200,Thread Group_Prod1 1-1,true,879,1,1,250,1,0,infpu013335,0
1519140750614,249,NoFileUpload N62_PE7241_CheckBoxes_UploadMultipleFile,200,Thread Group_Prod1 1-1,true,805,1,1,249,1,0,infpu013335,0
1519140750878,254,NoFileUpload N63_PE7241_Dimension_CrossSection,200,Thread Group_Prod1 1-1,true,870,1,1,254,1,0,infpu013335,0
1519140751145,749,NoFileUpload N64_PE7241_MDA_Dimension,200,Thread Group_Prod1 1-1,true,857,1,1,749,1,0,infpu013335,248
1519140751905,2616,FileUpload F54_PE-7257_AllValidDateAndDoubleValue(Positive scenario),200,Thread Group_Prod1 1-1,true,22958,1,1,2366,1,0,infpu013335,0
1519140754521,3236,FileUpload F55_PE-7257_AllValidAndInvalidDateAndDoubleValue(Negative scenario),200,Thread Group_Prod1 1-1,true,25917,1,1,2990,1,0,infpu013335,245
1519140757757,1020,NoFileUpload N65_PE7506_crosssection_with multiple combination for LPALL_399A,200,Thread Group_Prod1 1-1,true,1319,1,1,1020,1,0,infpu013335,254
1519140758795,262,NoFileUpload N66_PE7506_crosssection_with 3 Dimensions for LPALL_399A,200,Thread Group_Prod1 1-1,true,1264,1,1,262,1,0,infpu013335,0
1519140759074,262,"NoFileUpload N67_PE7506_crosssection_13LATAM_01"": ""Y""",200,Thread Group_Prod1 1-1,true,1235,1,1,262,1,0,infpu013335,0
1519140759352,262,"NoFileUpload N68_PE7506_crosssection_ EE_group_13LATAM_01"": ""N""",200,Thread Group_Prod1 1-1,true,1060,1,1,262,1,0,infpu013335,0
1519140759651,262,NoFileUpload N69_PE7506_crosssection_when  EE_group_13LATAM is not present,200,Thread Group_Prod1 1-1,true,1032,1,1,262,1,0,infpu013335,0
1519140759934,999,NoFileUpload N70_PE7506_crosssection_with Dimension for LPALL_399A,200,Thread Group_Prod1 1-1,true,1316,1,1,999,1,0,infpu013335,248
1519140760962,1397,NoFileUpload N71_PE7506_crosssection_with Dimension for LPALL_399A 1 as Y others as N,200,Thread Group_Prod1 1-1,true,1264,1,1,1397,1,0,infpu013335,0
1519140762379,1880,FileUpload F56_PE5415_MultiSheetSuccess,200,Thread Group_Prod1 1-1,true,3621,1,1,1879,1,0,infpu013335,256
1519140764280,522,FileUpload F57_PE5415_MultiSheetBadRequest_Ignore,400,Thread Group_Prod1 1-1,false,327,1,1,522,1,1,infpu013335,0
1519140764803,1042,FileUpload F58_PE5415_MultiSheetCorrectRequest,200,Thread Group_Prod1 1-1,true,3494,1,1,1041,1,0,infpu013335,253
1519140765855,515,FileUpload F59_PE5415_Step1SingleSheetBadReq_Ignore,422,Thread Group_Prod1 1-1,false,1282,1,1,515,1,1,infpu013335,0
1519140766388,1084,FileUpload F60_PE5415_Step1SingleSheetCorrectReq,200,Thread Group_Prod1 1-1,true,4665,1,1,1083,1,0,infpu013335,0
1519140767502,756,FileUpload F61_PE5415_Step3MappingCompanyJson,200,Thread Group_Prod1 1-1,true,1611,1,1,756,1,0,infpu013335,248
1519140768266,1582,FileUpload F62_PE5415_Step3MappingCompanyExcel,200,Thread Group_Prod1 1-1,true,1625,1,1,1582,1,0,infpu013335,0
1519140769873,1946,FileUpload F63_PE5415_Step3MappingColumnExcel,200,Thread Group_Prod1 1-1,true,4466,1,1,1946,1,0,infpu013335,261
1519140771847,272,FileUpload F64_PE5415_Step3MappingColumnJson,200,Thread Group_Prod1 1-1,true,4418,1,1,272,1,0,infpu013335,0
1519140772135,1024,FileUpload F65_PE5415_Step3MappingColumnJsonWithoutCountry,200,Thread Group_Prod1 1-1,true,2131,1,1,1024,1,0,infpu013335,250
1519140773191,265,FileUpload F66_PE5415_Step3MappingColumnJsonWithCountry,200,Thread Group_Prod1 1-1,true,1611,1,1,264,1,0,infpu013335,0
1519140773477,4743,FileUpload F67_PE8315_Fix,200,Thread Group_Prod1 1-1,false,34221,1,1,4489,1,1,infpu013335,0
1519140778250,2158,FileUpload F68_PE8037_Fix,200,Thread Group_Prod1 1-1,false,2156,1,1,2158,1,1,infpu013335,254
1519140780420,1222,NoFileUpload N72_ PE5668 T1,200,Thread Group_Prod1 1-1,true,702,1,1,1222,1,0,infpu013335,243
1519140781670,249,NoFileUpload N80_PE7989_Req_NonNumericData_withAllwrongcolumn_MDA,200,Thread Group_Prod1 1-1,true,678,1,1,249,1,0,infpu013335,0
1519140781950,249,NoFileUpload N81_PE7989_Req_NonNumericData_withAllrightcolumn_MDA,200,Thread Group_Prod1 1-1,true,846,1,1,249,1,0,infpu013335,0
1519140782219,248,NoFileUpload N82_PE7989_Req_NonNumericData_with1wrongcolumn_MDA,200,Thread Group_Prod1 1-1,true,849,1,1,248,1,0,infpu013335,0
1519140782474,788,NoFileUpload N83_PE7989_uploadMultipleFile,200,Thread Group_Prod1 1-1,true,835,1,1,788,1,0,infpu013335,261
1519140783276,266,NoFileUpload N84_400 and 500 Error_crossSectionChecks,200,Thread Group_Prod1 1-1,true,619,1,1,266,1,0,infpu013335,0
1519140783556,269,NoFileUpload N85_400 and 500 Error_crossSectionChecks,200,Thread Group_Prod1 1-1,true,648,1,1,269,1,0,infpu013335,0
1519140783848,268,NoFileUpload N86_400 and 500 Error_crossSectionChecks,200,Thread Group_Prod1 1-1,true,647,1,1,268,1,0,infpu013335,0
1519140784124,266,NoFileUpload N87_400 and 500 Error_crossSectionChecks,200,Thread Group_Prod1 1-1,true,501,1,1,266,1,0,infpu013335,0
1519140784406,266,NoFileUpload N88_400 and 500 Error_crossSectionChecks,200,Thread Group_Prod1 1-1,true,619,1,1,266,1,0,infpu013335,0
1519140784693,741,NoFileUpload N89_PE8186_to Add assertion,200,Thread Group_Prod1 1-1,true,944,1,1,741,1,0,infpu013335,245
1519140785454,251,NoFileUpload N90_PE8032_SyntaxError1_Fix,200,Thread Group_Prod1 1-1,false,679,1,1,251,1,1,infpu013335,0
1519140785724,251,NoFileUpload N91_PE8032_SyntaxError2_Fix,200,Thread Group_Prod1 1-1,false,674,1,1,251,1,1,infpu013335,0
1519140785995,251,NoFileUpload N92_PE8032_InvalidColumn,200,Thread Group_Prod1 1-1,true,758,1,1,251,1,0,infpu013335,0
1519140786274,250,NoFileUpload N93_PE7771_Exp,200,Thread Group_Prod1 1-1,true,674,1,1,250,1,0,infpu013335,0
1519140786546,251,NoFileUpload N94_PE7771_Range,200,Thread Group_Prod1 1-1,true,922,1,1,251,1,0,infpu013335,0
1519140786821,1998,NoFileUpload N94_PE7771_Added Scenario,200,Thread Group_Prod1 1-1,true,6106,1,1,1996,1,0,infpu013335,246
1519140788851,1013,NoFileUpload N95_PE8269 and 8397_CSC_MDA_ClearValue_Fix,200,Thread Group_Prod1 1-1,false,582,1,1,1013,1,1,infpu013335,252
1519140789872,257,NoFileUpload N96_PE8269 and 8397_CSC_OtherThanClearValue,200,Thread Group_Prod1 1-1,true,792,1,1,257,1,0,infpu013335,0
1519140790138,264,NoFileUpload N97_PE8269 and 8397_UMF_NonMDA,200,Thread Group_Prod1 1-1,true,838,1,1,264,1,0,infpu013335,0
1519140790410,258,NoFileUpload N98_PE8269 and 8397_PDA_MDA_ClearValue_Fix,200,Thread Group_Prod1 1-1,false,581,1,1,258,1,1,infpu013335,0
1519140790687,258,NoFileUpload N99_PE8269 and 8397_PDA_OtherThanClearValue,200,Thread Group_Prod1 1-1,true,789,1,1,258,1,0,infpu013335,0
1519140790973,10171,FileUpload F69_PE8584_Null Issue ,200,Thread Group_Prod1 1-1,false,14513,1,1,10169,1,1,infpu013335,250
1519140801156,1278,FileUpload F70_PE8584,200,Thread Group_Prod1 1-1,false,16701,1,1,1030,1,1,infpu013335,358
1519140802461,355,FileUpload F71_PE8584,200,Thread Group_Prod1 1-1,true,2020,1,1,355,1,0,infpu013335,0
1519140802835,357,FileUpload F72_PE8584,200,Thread Group_Prod1 1-1,true,2020,1,1,357,1,0,infpu013335,0
1519140803218,12614,FileUpload F72_PE8584,200,Thread Group_Prod1 1-1,false,14374,1,1,12613,1,1,infpu013335,255
1519140815846,25228,FileUpload F72_PE8584,200,Thread Group_Prod1 1-1,false,14378,1,1,25228,1,1,infpu013335,252
