timeStamp,elapsed,label,responseCode,threadName,success,bytes,grpThreads,allThreads,Latency,SampleCount,ErrorCount,Hostname,Connect
1514387873470,2491,FileUpload D15_PE-7257_US_CSV,200,Thread Group_Prod1 1-1,true,11256,1,1,2448,1,0,INFPU07042,596
1514387876246,3664,FileUpload D15_PE-7257_US_Excel,200,Thread Group_Prod1 1-1,false,50324,1,1,2975,1,1,INFPU07042,311
1514387880109,2558,NoFileUpload PE7978,200,Thread Group_Prod1 1-1,true,6955,1,1,2481,1,0,INFPU07042,317
1514387882721,642,NoFileUpload PE7954,200,Thread Group_Prod1 1-1,true,713,1,1,642,1,0,INFPU07042,317
1514387883415,321,FileUpload D15_PE7999,422,Thread Group_Prod1 1-1,false,1258,1,1,321,1,1,INFPU07042,0
1514387883789,675,NoFileUpload PE7795,200,Thread Group_Prod1 1-1,true,750,1,1,675,1,0,INFPU07042,0
1514387884515,610,NoFileUpload B17_PE7046_AU_Comp2,200,Thread Group_Prod1 1-1,true,901,1,1,609,1,0,INFPU07042,0
1514387885168,979,NoFileUpload B17_PE7046_US_Comp1,200,Thread Group_Prod1 1-1,true,897,1,1,979,1,0,INFPU07042,308
1514387886200,346,NoFileUpload B17_PE7046_IN_Comp1,200,Thread Group_Prod1 1-1,true,898,1,1,345,1,0,INFPU07042,0
1514387886592,343,NoFileUpload B17_PE7046_ZA_Comp2,200,Thread Group_Prod1 1-1,true,901,1,1,343,1,0,INFPU07042,0
1514387886984,1086,NoFileUpload B17_PE7773_NUM_EMP is 7,200,Thread Group_Prod1 1-1,true,1192,1,1,1086,1,0,INFPU07042,0
1514387888138,2017,NoFileUpload B17_PE7773_NUM_EMP is 8.1_boundry is 8,200,Thread Group_Prod1 1-1,true,1093,1,1,2017,1,0,INFPU07042,309
1514387890212,1984,NoFileUpload B17_PE7773_NUM_EMP is 9_boundry is 8,200,Thread Group_Prod1 1-1,true,1092,1,1,1984,1,0,INFPU07042,314
1514387892272,1005,FileUpload D10_PE5216_ImpactedbyComment,200,Thread Group_Prod1 1-1,true,1364,1,1,1004,1,0,INFPU07042,315
1514387893427,361,NoFileUpload B17_PE7044_expression,200,Thread Group_Prod1 1-1,true,516,1,1,361,1,0,INFPU07042,0
1514387893790,356,NoFileUpload B17_PE7044_range,200,Thread Group_Prod1 1-1,true,934,1,1,355,1,0,INFPU07042,0
1514387894247,374,NoFileUpload B17_PE7044_rangeValidationRefTable,200,Thread Group_Prod1 1-1,true,922,1,1,374,1,0,INFPU07042,0
1514387894693,1273,NoFileUpload B17_PE7044_rangeValidationRefTable_dimensions,200,Thread Group_Prod1 1-1,true,963,1,1,1272,1,0,INFPU07042,310
1514387896101,1829,FileUpload D13_PE5691_1Record_Ignore,400,Thread Group_Prod1 1-1,false,322,1,1,1829,1,1,INFPU07042,0
1514387897989,2636,FileUpload D15_PE5691_1Record_Ignore,400,Thread Group_Prod1 1-1,false,322,1,1,2635,1,1,INFPU07042,312
1514387900678,1305,FileUpload D12_PE6027_Ref Table,200,Thread Group_Prod1 1-1,true,2169,1,1,1304,1,0,INFPU07042,304
1514387902113,679,FileUpload D11_PE6030,200,Thread Group_Prod1 1-1,true,3265,1,1,678,1,0,INFPU07042,0
1514387902890,954,NoFileUpload B17_PE7033,200,Thread Group_Prod1 1-1,true,897,1,1,954,1,0,INFPU07042,302
1514387903845,331,NoFileUpload B18_PE7314,200,Thread Group_Prod1 1-1,true,531,1,1,330,1,0,INFPU07042,0
1514387904315,1730,FileUpload D16_PE7071_1Record,200,Thread Group_Prod1 1-1,true,6392,1,1,1692,1,0,INFPU07042,0
1514387906129,4018,FileUpload D17_PE7071_1Record,200,Thread Group_Prod1 1-1,true,7144,1,1,3998,1,0,INFPU07042,2018
1514387910253,2343,FileUpload D18_PE7071_1Record,200,Thread Group_Prod1 1-1,true,6991,1,1,2324,1,0,INFPU07042,315
1514387912663,2653,FileUpload D20_PE7071_1Record,200,Thread Group_Prod1 1-1,true,5211,1,1,2634,1,0,INFPU07042,314
1514387915362,2362,FileUpload D12_PE7611,200,Thread Group_Prod1 1-1,true,1568,1,1,2362,1,0,INFPU07042,311
1514387917779,3406,FileUpload D12_PE7611,200,Thread Group_Prod1 1-1,true,1619,1,1,3406,1,0,INFPU07042,316
1514387921234,3327,FileUpload D12_PE7611,200,Thread Group_Prod1 1-1,true,1516,1,1,3326,1,0,INFPU07042,458
1514387924614,3429,FileUpload D12_PE7611,200,Thread Group_Prod1 1-1,true,1568,1,1,3429,1,0,INFPU07042,354
1514387928093,3919,FileUpload D12_PE7611,200,Thread Group_Prod1 1-1,true,1799,1,1,3919,1,0,INFPU07042,358
1514387932064,4817,FileUpload D12_PE7611,200,Thread Group_Prod1 1-1,true,1839,1,1,4816,1,0,INFPU07042,381
1514387936938,4330,FileUpload D12_PE7611,200,Thread Group_Prod1 1-1,true,1839,1,1,4322,1,0,INFPU07042,525
1514387941325,4404,FileUpload D12_PE7611,200,Thread Group_Prod1 1-1,true,2024,1,1,4403,1,0,INFPU07042,1462
1514387945781,3777,FileUpload D12_PE7611,200,Thread Group_Prod1 1-1,true,2025,1,1,3775,1,0,INFPU07042,489
1514387949607,3214,FileUpload D12_PE7611,200,Thread Group_Prod1 1-1,true,1520,1,1,3214,1,0,INFPU07042,346
1514387952835,1421,FileUpload B21_6713CSV_SkipLastBlankRow,200,Thread Group_Prod1 1-1,true,1728,1,1,1421,1,0,INFPU07042,407
1514387954257,614,FileUpload B21_6713CSV_SkipInitialRow,200,Thread Group_Prod1 1-1,true,1437,1,1,613,1,0,INFPU07042,0
1514387954915,1184,FileUpload B21_6713CSV_SkipMiddleBlankRows,200,Thread Group_Prod1 1-1,true,2031,1,1,1184,1,0,INFPU07042,364
1514387956152,1034,FileUpload B21_6713Excel_SkipInitialRow,200,Thread Group_Prod1 1-1,true,1437,1,1,1034,1,0,INFPU07042,0
1514387957236,1937,FileUpload B21_6713Excel_SkipLastBlankRow,200,Thread Group_Prod1 1-1,true,1728,1,1,1936,1,0,INFPU07042,501
1514387959219,975,FileUpload B21_6713Excel_SkipMiddleRow,200,Thread Group_Prod1 1-1,true,2031,1,1,975,1,0,INFPU07042,0
1514387960245,1179,NoFileUpload B17_PE7631_metaData,200,Thread Group_Prod1 1-1,true,590,1,1,1178,1,0,INFPU07042,358
1514387961472,567,NoFileUpload B17_PE7631_metaData,200,Thread Group_Prod1 1-1,true,590,1,1,567,1,0,INFPU07042,0
1514387962086,371,NoFileUpload B17_PE7631_Autocorrect,200,Thread Group_Prod1 1-1,true,828,1,1,371,1,0,INFPU07042,0
1514387962521,1155,NoFileUpload B17_PE7631,200,Thread Group_Prod1 1-1,true,818,1,1,1155,1,0,INFPU07042,336
1514387963695,388,NoFileUpload B21_7045RawJson_NonNumerciData,200,Thread Group_Prod1 1-1,true,838,1,1,388,1,0,INFPU07042,0
1514387964145,557,NoFileUpload B21_7045RawJson_SkipBlankCols,200,Thread Group_Prod1 1-1,true,757,1,1,556,1,0,INFPU07042,0
1514387964752,1240,NoFileUpload B21_7045RawJson_SkipNonNumericCols,200,Thread Group_Prod1 1-1,true,661,1,1,1240,1,0,INFPU07042,357
1514387966018,535,NoFileUpload B21_7045RawJson_WithDimesion,200,Thread Group_Prod1 1-1,true,845,1,1,535,1,0,INFPU07042,0
1514387966588,502,NoFileUpload B21_7045RawJson_SingleNonBlankValue,200,Thread Group_Prod1 1-1,true,601,1,1,502,1,0,INFPU07042,0
1514387967102,1490,NoFileUpload B21_7045RawJson_WithOtherValidation,200,Thread Group_Prod1 1-1,true,895,1,1,1490,1,0,INFPU07042,464
1514387968663,618,FileUpload D20_PE7045_7045CSV_SimpleSequentialCheck,200,Thread Group_Prod1 1-1,true,2016,1,1,617,1,0,INFPU07042,0
1514387969325,1774,FileUpload D20_PE7045_7045Excel_SimpleSequentialCheck,200,Thread Group_Prod1 1-1,true,2004,1,1,1772,1,0,INFPU07042,494
1514387971151,513,FileUpload D20_PE7045_7045CSV_SkipBlankColumn,200,Thread Group_Prod1 1-1,true,1728,1,1,512,1,0,INFPU07042,0
1514387971714,1793,FileUpload D20_PE7045_7045EXCEL_SkipBlankColumn,200,Thread Group_Prod1 1-1,true,2046,1,1,1793,1,0,INFPU07042,332
1514387973558,505,FileUpload D20_PE7045_7045CSV_SkipNonNumericData,200,Thread Group_Prod1 1-1,true,1610,1,1,505,1,0,INFPU07042,0
1514387974109,1958,FileUpload D20_PE7045_7045EXCEL_SkipNonNumericData,200,Thread Group_Prod1 1-1,true,2552,1,1,1958,1,0,INFPU07042,625
1514387976123,1275,NoFileUpload B24_PE7474_Testcase1,200,Thread Group_Prod1 1-1,true,890,1,1,1275,1,0,INFPU07042,455
1514387977444,479,NoFileUpload B24_PE7474_Testcase2,200,Thread Group_Prod1 1-1,true,891,1,1,478,1,0,INFPU07042,0
1514387977976,446,NoFileUpload B24_PE7474_Testcase3,200,Thread Group_Prod1 1-1,true,798,1,1,446,1,0,INFPU07042,0
1514387978471,1182,NoFileUpload B24_PE7474_Testcase4,200,Thread Group_Prod1 1-1,true,869,1,1,1182,1,0,INFPU07042,361
1514387979699,604,NoFileUpload B24_PE7474_Testcase5,200,Thread Group_Prod1 1-1,true,895,1,1,604,1,0,INFPU07042,0
1514387980353,528,NoFileUpload B24_PE7474_Testcase6,200,Thread Group_Prod1 1-1,true,889,1,1,528,1,0,INFPU07042,0
1514387980933,9366,FileUpload D12_PE7474,200,Thread Group_Prod1 1-1,true,4272,1,1,9366,1,0,INFPU07042,355
1514387990351,1586,NoFileUpload B17_PE7689_RefTable,200,Thread Group_Prod1 1-1,true,963,1,1,1585,1,0,INFPU07042,355
1514387992066,1306,NoFileUpload D20_PE7440_ISBLANK_ImpactedbyComment,200,Thread Group_Prod1 1-1,true,1171,1,1,1306,1,0,INFPU07042,0
1514387993403,2429,NoFileUpload D20_PE7440_ISNOTBLANK_LENGTH_ImpactedbyComment,200,Thread Group_Prod1 1-1,true,1176,1,1,2428,1,0,INFPU07042,307
1514387995901,1158,FileUpload D14_PE5679_EqualToWithAllBlank_POSCODE=2,200,Thread Group_Prod1 1-1,true,2890,1,1,1158,1,0,INFPU07042,302
1514387997106,567,FileUpload D14_PE5679_3 Null string and 1 Blank_POSCODE=2,200,Thread Group_Prod1 1-1,true,3071,1,1,567,1,0,INFPU07042,0
1514387997729,558,FileUpload D14_PE5679_2 Null String and 2 Blank_POSCODE=2,200,Thread Group_Prod1 1-1,true,2885,1,1,558,1,0,INFPU07042,0
1514387998345,1173,FileUpload D14_PE5679_1 Null String_1Data_2 Blank_POSCODE=2,200,Thread Group_Prod1 1-1,true,1760,1,1,1173,1,0,INFPU07042,351
1514387999567,563,FileUpload D14_PE5679_NoBlanksNoNullAllUnique_POSCODE=2,200,Thread Group_Prod1 1-1,true,3216,1,1,563,1,0,INFPU07042,0
1514388000186,608,FileUpload D14_PE5679_3samedata_1Blank_POSCODE=2,200,Thread Group_Prod1 1-1,true,3062,1,1,600,1,0,INFPU07042,0
1514388000845,1333,FileUpload D14_PE5679_POSCODEGreaterThan2,200,Thread Group_Prod1 1-1,true,3259,1,1,1333,1,0,INFPU07042,513
1514388002230,564,FileUpload D14_PE5679_POSCODEGreaterThanEqualTo2,200,Thread Group_Prod1 1-1,true,1761,1,1,564,1,0,INFPU07042,0
1514388002845,1176,FileUpload D14_PE5679_LessThan,200,Thread Group_Prod1 1-1,true,2885,1,1,1176,1,0,INFPU07042,356
1514388004075,561,FileUpload D14_PE5679_LessThanEqualTo1,200,Thread Group_Prod1 1-1,true,2852,1,1,560,1,0,INFPU07042,0
1514388004688,4275,FileUpload D20_PE7724_CSV_ref,200,Thread Group_Prod1 1-1,true,39131,1,1,3735,1,0,INFPU07042,0
1514388009035,7074,FileUpload D20_PE7724_Excel_ref_ImpactedbyComment,200,Thread Group_Prod1 1-1,true,77696,1,1,5942,1,0,INFPU07042,657
1514388016165,1610,7056_crossSectionChecks,200,Thread Group_Prod1 1-1,false,1352,1,1,1610,1,1,INFPU07042,349
1514388017821,2380,FileUpload D15_PE7056_uploadMultipleFile_impactedbyComment,200,Thread Group_Prod1 1-1,true,5765,1,1,2380,1,0,INFPU07042,0
1514388020250,1385,NoFileUpload B17_PE7056_validateAggregates,200,Thread Group_Prod1 1-1,true,790,1,1,1384,1,0,INFPU07042,359
1514388021677,397,7056_performDefaultActions,200,Thread Group_Prod1 1-1,true,515,1,1,396,1,0,INFPU07042,0
1514388022123,535,NoFileUpload B25_PE7241_EmailValidation -withInvalidAndValidEmailIdInDimension,200,Thread Group_Prod1 1-1,true,850,1,1,535,1,0,INFPU07042,0
1514388022711,1381,NoFileUpload B25_PE7241_EmailValidation-withAllInvalidEmailIdInDimension,200,Thread Group_Prod1 1-1,true,876,1,1,1381,1,0,INFPU07042,356
1514388024147,559,NoFileUpload B25_PE7241_EmailValidation -withNullStringAndBlankEmailIdInDimension,200,Thread Group_Prod1 1-1,true,845,1,1,559,1,0,INFPU07042,0
1514388024760,765,NoFileUpload B25_PE7241_EmailValidation_withAllBlankEmailIdInDimension,200,Thread Group_Prod1 1-1,true,823,1,1,765,1,0,INFPU07042,354
1514388025577,563,NoFileUpload B25_PE7241_EmailValidation_withAllEmailIdAsNullStringInDimension,200,Thread Group_Prod1 1-1,true,840,1,1,562,1,0,INFPU07042,0
1514388026194,356,NoFileUpload B25_PE7241_EmailValidation_withAllValidEmailIdInDimension,200,Thread Group_Prod1 1-1,true,868,1,1,356,1,0,INFPU07042,0
1514388026596,363,NoFileUpload B25_PE7241_PhoneValidation_withAllBlankPhoneNumberInDimension,200,Thread Group_Prod1 1-1,true,781,1,1,363,1,0,INFPU07042,0
1514388027000,1188,NoFileUpload B25_PE7241_PhoneValidation_withAllInvalidPhoneNumberInDimension,200,Thread Group_Prod1 1-1,true,889,1,1,1188,1,0,INFPU07042,368
1514388028240,563,NoFileUpload B25_PE7241_PhoneValidation_withAllNullStringAndBlankPhoneNumberInDimension,200,Thread Group_Prod1 1-1,true,799,1,1,563,1,0,INFPU07042,0
1514388028849,364,NoFileUpload B25_PE7241_PhoneValidation_withAllNullStringPhoneNumberInDimension,200,Thread Group_Prod1 1-1,true,828,1,1,364,1,0,INFPU07042,0
1514388029255,778,NoFileUpload B25_PE7241_PhoneValidation_withAllValidPhoneNumberInDimension,200,Thread Group_Prod1 1-1,true,874,1,1,778,1,0,INFPU07042,365
1514388030078,365,NoFileUpload B25_PE7241_PhoneValidation_withValidAndInvalidPhoneNumberInDimension,200,Thread Group_Prod1 1-1,true,864,1,1,365,1,0,INFPU07042,0
1514388030494,359,NoFileUpload B25_PE7241_RequiredValidation__withAllNullStringInDimension,200,Thread Group_Prod1 1-1,true,867,1,1,359,1,0,INFPU07042,0
1514388030901,365,NoFileUpload B25_PE7241_RequiredValidation__withAllValidValuesInDimension,200,Thread Group_Prod1 1-1,true,850,1,1,364,1,0,INFPU07042,0
1514388031339,741,NoFileUpload B25_PE7241_RequiredValidation_withAllblankValuesInDimension ,200,Thread Group_Prod1 1-1,true,864,1,1,741,1,0,INFPU07042,329
1514388032129,564,"NoFileUpload B25_PE7241_RequiredValidation_WithNullString,BlankAndValuesInDimension",200,Thread Group_Prod1 1-1,true,881,1,1,564,1,0,INFPU07042,0
1514388032738,365,NoFileUpload B25_PE7241_RequiredValidation_WithNullStringlAndBlankInDimension,200,Thread Group_Prod1 1-1,true,870,1,1,365,1,0,INFPU07042,0
1514388033156,564,NoFileUpload B25_PE7241_RequiredValidation_WithValidAndInvalidValue,200,Thread Group_Prod1 1-1,true,874,1,1,564,1,0,INFPU07042,0
1514388033766,771,NoFileUpload B25_PE7241_CheckBoxes_UploadMultipleFile,200,Thread Group_Prod1 1-1,true,795,1,1,771,1,0,INFPU07042,360
1514388034585,397,NoFileUpload B25_PE7241_Dimension_CrossSection,200,Thread Group_Prod1 1-1,true,865,1,1,397,1,0,INFPU07042,0
1514388035038,524,NoFileUpload B25_PE7241_MDA_Dimension,200,Thread Group_Prod1 1-1,true,790,1,1,524,1,0,INFPU07042,0
1514388035609,2614,FileUpload D15_PE-7257_AllValidDateAndDoubleValue(Positive scenario),200,Thread Group_Prod1 1-1,true,17395,1,1,2047,1,0,INFPU07042,0
1514388038225,3683,FileUpload D15_PE-7257_AllValidAndInvalidDateAndDoubleValue(Negative scenario),200,Thread Group_Prod1 1-1,true,20385,1,1,3299,1,0,INFPU07042,406
1514388041910,1843,NoFileUpload D20_PE7506_crosssection_with multiple combination for LPALL_399A,200,Thread Group_Prod1 1-1,false,1274,1,1,1842,1,1,INFPU07042,612
1514388043807,402,NoFileUpload D20_PE7506_crosssection_with 3 Dimensions for LPALL_399A,200,Thread Group_Prod1 1-1,false,1301,1,1,402,1,1,INFPU07042,0
1514388044259,1745,"NoFileUpload D20_PE7506_crosssection_13LATAM_01"": ""Y""",200,Thread Group_Prod1 1-1,false,1286,1,1,1745,1,1,INFPU07042,518
1514388046040,538,"NoFileUpload D20_PE7506_crosssection_ EE_group_13LATAM_01"": ""N""",200,Thread Group_Prod1 1-1,false,1145,1,1,538,1,1,INFPU07042,0
1514388046632,1631,NoFileUpload D20_PE7506_crosssection_when  EE_group_13LATAM is not present,200,Thread Group_Prod1 1-1,true,1024,1,1,1628,1,0,INFPU07042,397
1514388048317,408,NoFileUpload D20_PE7506_crosssection_with Dimension for LPALL_399A,200,Thread Group_Prod1 1-1,false,1352,1,1,408,1,1,INFPU07042,0
1514388048771,1741,NoFileUpload D20_PE7506_crosssection_with Dimension for LPALL_399A 1 as Y others as N,200,Thread Group_Prod1 1-1,false,1286,1,1,1740,1,1,INFPU07042,408
1514388050564,712,FileUpload D22_PE5415_MultiSheetSuccess,200,Thread Group_Prod1 1-1,true,3597,1,1,690,1,0,INFPU07042,0
1514388051324,1384,FileUpload D22_PE5415_MultiSheetBadRequest_Ignore,400,Thread Group_Prod1 1-1,false,322,1,1,1381,1,1,INFPU07042,319
1514388052709,1492,FileUpload D22_PE5415_MultiSheetCorrectRequest,200,Thread Group_Prod1 1-1,true,3470,1,1,1491,1,0,INFPU07042,323
1514388054256,763,FileUpload D23_PE5415_Step1SingleSheetBadReq_Ignore,422,Thread Group_Prod1 1-1,false,1258,1,1,763,1,1,INFPU07042,0
1514388055062,1599,FileUpload D22_PE5415_Step1SingleSheetCorrectReq,200,Thread Group_Prod1 1-1,true,4641,1,1,1599,1,0,INFPU07042,364
1514388056716,426,FileUpload D22_PE5415_Step3MappingCompanyJson,200,Thread Group_Prod1 1-1,true,1587,1,1,425,1,0,INFPU07042,0
1514388057160,1717,FileUpload D22_PE5415_Step3MappingCompanyExcel,200,Thread Group_Prod1 1-1,true,1601,1,1,1717,1,0,INFPU07042,519
1514388058930,665,FileUpload D22_PE5415_Step3MappingColumnExcel,200,Thread Group_Prod1 1-1,true,4442,1,1,654,1,0,INFPU07042,0
1514388059649,1144,FileUpload D22_PE5415_Step3MappingColumnJson,200,Thread Group_Prod1 1-1,true,4394,1,1,1125,1,0,INFPU07042,489
1514388060847,352,FileUpload D22_PE5415_Step3MappingColumnJsonWithoutCountry,200,Thread Group_Prod1 1-1,true,2853,1,1,351,1,0,INFPU07042,0
1514388061237,372,FileUpload D22_PE5415_Step3MappingColumnJsonWithCountry,200,Thread Group_Prod1 1-1,true,1587,1,1,372,1,0,INFPU07042,0
1514456749050,1161,NoFileUpload D20_PE7506_crosssection_with multiple combination for LPALL_399A,200,Thread Group_Prod1 1-1,false,1274,1,1,1161,1,1,INFPU07042,370
1514466257198,1316,NoFileUpload PE5668 T1,200,Thread Group_Prod1 1-1,true,740,1,1,1316,1,0,INFPU07042,318
1514466258534,254,NoFileUpload PE5668 T2,200,Thread Group_Prod1 1-1,true,644,1,1,254,1,0,INFPU07042,0
1514466258809,255,NoFileUpload PE5668 T3,200,Thread Group_Prod1 1-1,true,790,1,1,254,1,0,INFPU07042,0
1514466259081,253,NoFileUpload PE5668 T4,200,Thread Group_Prod1 1-1,true,741,1,1,253,1,0,INFPU07042,0
1514466259346,1259,NoFileUpload PE5668 T5,200,Thread Group_Prod1 1-1,true,755,1,1,1259,1,0,INFPU07042,251
1514466260622,256,NoFileUpload PE5668 T6,200,Thread Group_Prod1 1-1,true,753,1,1,256,1,0,INFPU07042,0
1514466260891,258,NoFileUpload PE5668 T7,200,Thread Group_Prod1 1-1,true,741,1,1,258,1,0,INFPU07042,0
1514466261173,257,NoFileUpload PE5668 T8,200,Thread Group_Prod1 1-1,true,642,1,1,257,1,0,INFPU07042,0
