timeStamp,elapsed,label,responseCode,threadName,success,bytes,grpThreads,allThreads,Latency,SampleCount,ErrorCount,Hostname,Connect
1520504755602,3898,FileUpload F1_PE-8157_Ignore,200,Thread Group_Prod1 1-1,false,6260,1,1,3896,1,1,INFPU07042,332
1520504759536,1119,FileUpload F1_PE-8110_ErrorCell,200,Thread Group_Prod1 1-1,true,1571,1,1,1119,1,0,INFPU07042,271
1520504760717,6858,FileUpload F2_PE-8110_ErrorCell_Ignore,422,Thread Group_Prod1 1-1,false,650879,1,1,1717,1,1,INFPU07042,0
1520504767628,2405,FileUpload F3_PE-8110_ErrorCell_Ignore,400,Thread Group_Prod1 1-1,false,385,1,1,2405,1,1,INFPU07042,258
1520504770058,832,FileUpload F4_PE-5678_SequentialWithOtherValidations,200,Thread Group_Prod1 1-1,true,5471,1,1,830,1,0,INFPU07042,271
1520504770932,274,NoFileUpload N1_PE-5678_LOOK_UP_CHECK1,200,Thread Group_Prod1 1-1,true,1072,1,1,274,1,0,INFPU07042,0
1520504771239,278,NoFileUpload N1_PE-5678_SequentialWithOtherValidations,200,Thread Group_Prod1 1-1,true,994,1,1,276,1,0,INFPU07042,0
1520504771557,279,NoFileUpload N2_PE-5678_SequentialWithOtherValidations,200,Thread Group_Prod1 1-1,true,959,1,1,279,1,0,INFPU07042,0
1520504771910,832,"NoFileUpload_Null Validation_crossSectionChecks_LPALL_566 is """"",200,Thread Group_Prod1 1-1,true,6764,1,1,830,1,0,INFPU07042,0
1520504772782,1892,NoFileUpload_Null Validation_crossSectionChecks_LPALL_566 is null,200,Thread Group_Prod1 1-1,true,6760,1,1,1891,1,0,INFPU07042,262
1520504774713,318,"NoFileUpload_Null Validation_crossSectionChecks_LPALL_566 is ""null""",200,Thread Group_Prod1 1-1,true,6903,1,1,315,1,0,INFPU07042,0
1520504775071,4214,"NoFileUpload_Null Validation_crossSectionChecks_LPALL_566 is ""   """,200,Thread Group_Prod1 1-1,true,6767,1,1,4212,1,0,INFPU07042,272
1520504779327,1088,NoFileUpload N3_PE-7172MDA,200,Thread Group_Prod1 1-1,true,664,1,1,1088,1,0,INFPU07042,265
1520504780461,375,FileUpload F5_PE7172_Fix,200,Thread Group_Prod1 1-1,false,4477,1,1,374,1,1,INFPU07042,0
1520504780867,296,NoFileUpload N4_PE-8032MDA,200,Thread Group_Prod1 1-1,true,664,1,1,296,1,0,INFPU07042,0
1520504781213,566,NoFileUpload N5_PE-8070,200,Thread Group_Prod1 1-1,true,881,1,1,566,1,0,INFPU07042,0
1520504781816,1299,NoFileUpload N73_PE5668 T2_Temp,200,Thread Group_Prod1 1-1,true,609,1,1,1299,1,0,INFPU07042,258
1520504783141,265,NoFileUpload N74_PE5668 T3_Temp,200,Thread Group_Prod1 1-1,true,753,1,1,265,1,0,INFPU07042,0
1520504783443,271,NoFileUpload N75_PE5668 T4_Temp,200,Thread Group_Prod1 1-1,true,706,1,1,271,1,0,INFPU07042,0
1520504783743,265,NoFileUpload N76_PE5668 T5_Temp,200,Thread Group_Prod1 1-1,true,720,1,1,265,1,0,INFPU07042,0
1520504784048,1317,NoFileUpload N78_PE5668 T7_Temp,200,Thread Group_Prod1 1-1,true,705,1,1,1316,1,0,INFPU07042,263
1520504785399,271,NoFileUpload N79_PE5668 T8_Temp,200,Thread Group_Prod1 1-1,true,607,1,1,271,1,0,INFPU07042,0
1520504785709,1216,FileUpload F6_PE-7257_US_CSV_Shuffle,200,Thread Group_Prod1 1-1,false,4161,1,1,1215,1,1,INFPU07042,0
1520504786958,2251,FileUpload F7_PE-7257_US_Excel_Shuffle,200,Thread Group_Prod1 1-1,false,4343,1,1,2250,1,1,INFPU07042,270
1520504789252,1966,NoFileUpload N6_PE7978,200,Thread Group_Prod1 1-1,true,6632,1,1,1964,1,0,INFPU07042,286
1520504791263,818,NoFileUpload N7_PE7954,200,Thread Group_Prod1 1-1,true,727,1,1,818,1,0,INFPU07042,270
1520504792116,812,NoFileUpload N77_PE5668 T6,200,Thread Group_Prod1 1-1,true,716,1,1,811,1,0,INFPU07042,0
1520504792966,284,FileUpload F8_PE7999_Ignore since files are identical,422,Thread Group_Prod1 1-1,false,1282,1,1,283,1,1,INFPU07042,0
1520504793283,1292,NoFileUpload N8_ PE7795,200,Thread Group_Prod1 1-1,true,717,1,1,1292,1,0,INFPU07042,267
1520504794601,270,NoFileUpload N9_PE7046_AU_Comp2,200,Thread Group_Prod1 1-1,true,914,1,1,270,1,0,INFPU07042,0
1520504794903,264,NoFileUpload N10_PE7046_US_Comp1,200,Thread Group_Prod1 1-1,true,915,1,1,263,1,0,INFPU07042,0
1520504795196,272,NoFileUpload N11_PE7046_IN_Comp1,200,Thread Group_Prod1 1-1,true,910,1,1,272,1,0,INFPU07042,0
1520504795501,789,NoFileUpload N12_PE7046_ZA_Comp2,200,Thread Group_Prod1 1-1,true,914,1,1,789,1,0,INFPU07042,259
1520504796319,1066,NoFileUpload N13_PE7773_NUM_EMP is 7_Fix,200,Thread Group_Prod1 1-1,false,1099,1,1,1065,1,1,INFPU07042,0
1520504797432,287,NoFileUpload N14_PE7773_NUM_EMP is 8.1_boundry is 8,200,Thread Group_Prod1 1-1,true,1100,1,1,287,1,0,INFPU07042,0
1520504797752,1601,NoFileUpload N15_PE7773_NUM_EMP is 9_boundry is 8,200,Thread Group_Prod1 1-1,true,1099,1,1,1601,1,0,INFPU07042,262
1520504799380,376,FileUpload F9_PE5216_ImpactedbyComment,200,Thread Group_Prod1 1-1,true,1345,1,1,376,1,0,INFPU07042,0
1520504799797,769,NoFileUpload N16_PE7044_expression,200,Thread Group_Prod1 1-1,true,674,1,1,768,1,0,INFPU07042,255
1520504800566,518,NoFileUpload N17_PE7044_range,200,Thread Group_Prod1 1-1,true,917,1,1,518,1,0,INFPU07042,0
1520504801149,282,NoFileUpload N18_PE7044_rangeValidationRefTable,200,Thread Group_Prod1 1-1,true,912,1,1,282,1,0,INFPU07042,0
1520504801527,262,NoFileUpload N19_PE7044_rangeValidationRefTable_dimensions,200,Thread Group_Prod1 1-1,true,942,1,1,261,1,0,INFPU07042,0
1520504801816,2216,FileUpload F10_PE5691_1Record_Ignore,400,Thread Group_Prod1 1-1,false,327,1,1,2216,1,1,INFPU07042,260
1520504804060,2730,FileUpload F11_PE5691_1Record_Ignore,400,Thread Group_Prod1 1-1,false,327,1,1,2729,1,1,INFPU07042,268
1520504806817,1051,FileUpload F12_PE6027_Ref Table,200,Thread Group_Prod1 1-1,true,2193,1,1,1050,1,0,INFPU07042,256
1520504807928,891,FileUpload F13_PE6030,200,Thread Group_Prod1 1-1,true,3289,1,1,890,1,0,INFPU07042,0
1520504808906,780,NoFileUpload N20_PE7033,200,Thread Group_Prod1 1-1,true,910,1,1,780,1,0,INFPU07042,257
1520504809687,264,NoFileUpload N21_PE7314,200,Thread Group_Prod1 1-1,true,771,1,1,264,1,0,INFPU07042,0
1520504810011,1788,FileUpload F14_PE7071_1Record_Shuffle,200,Thread Group_Prod1 1-1,false,4188,1,1,1787,1,1,INFPU07042,0
1520504811827,2504,FileUpload F15_PE7071_1Record,200,Thread Group_Prod1 1-1,false,4749,1,1,2503,1,1,INFPU07042,259
1520504814378,2487,FileUpload F16_PE7071_1Record,200,Thread Group_Prod1 1-1,false,4188,1,1,2486,1,1,INFPU07042,252
1520504816903,2065,FileUpload F17_PE7071_1Record,400,Thread Group_Prod1 1-1,false,360,1,1,2065,1,1,INFPU07042,260
1520504819004,3515,FileUpload F18_PE7611,200,Thread Group_Prod1 1-1,true,1989,1,1,3513,1,0,INFPU07042,340
1520504822540,4863,FileUpload F19_PE7611,200,Thread Group_Prod1 1-1,false,1790,1,1,4863,1,1,INFPU07042,276
1520504827431,6663,FileUpload F20_PE7611,200,Thread Group_Prod1 1-1,true,1913,1,1,6663,1,0,INFPU07042,265
1520504834111,8310,FileUpload F21_PE7611,200,Thread Group_Prod1 1-1,true,1989,1,1,8310,1,0,INFPU07042,265
1520504842456,10016,FileUpload F22_PE7611,200,Thread Group_Prod1 1-1,false,2118,1,1,10015,1,1,INFPU07042,273
1520504852508,9205,FileUpload F23_PE7611,200,Thread Group_Prod1 1-1,false,1995,1,1,9204,1,1,INFPU07042,266
1520504861728,5917,FileUpload F24_PE7611,200,Thread Group_Prod1 1-1,false,1995,1,1,5917,1,1,INFPU07042,260
1520504867679,2920,FileUpload F25_PE7611,200,Thread Group_Prod1 1-1,false,1883,1,1,2920,1,1,INFPU07042,272
1520504870637,3013,FileUpload F26_PE7611,200,Thread Group_Prod1 1-1,false,1884,1,1,3013,1,1,INFPU07042,262
1520504873683,3135,FileUpload F27_PE7611,200,Thread Group_Prod1 1-1,true,2119,1,1,3134,1,0,INFPU07042,265
1520504876858,812,FileUpload F28_6713CSV_SkipLastBlankRow,200,Thread Group_Prod1 1-1,true,1752,1,1,812,1,0,INFPU07042,263
1520504877671,292,FileUpload F29_6713CSV_SkipInitialRow,200,Thread Group_Prod1 1-1,true,1461,1,1,292,1,0,INFPU07042,0
1520504878000,282,FileUpload F30_6713CSV_SkipMiddleBlankRows,200,Thread Group_Prod1 1-1,true,2055,1,1,282,1,0,INFPU07042,0
1520504878329,547,FileUpload F31_6713Excel_SkipInitialRow,200,Thread Group_Prod1 1-1,true,1461,1,1,547,1,0,INFPU07042,0
1520504878895,1074,FileUpload F32_6713Excel_SkipLastBlankRow,200,Thread Group_Prod1 1-1,true,1752,1,1,1073,1,0,INFPU07042,266
1520504879993,544,FileUpload F33_6713Excel_SkipMiddleRow,200,Thread Group_Prod1 1-1,true,2055,1,1,543,1,0,INFPU07042,0
1520504880575,266,NoFileUpload N22_PE7631_metaData,200,Thread Group_Prod1 1-1,true,604,1,1,265,1,0,INFPU07042,0
1520504880891,795,NoFileUpload N23_PE7631_metaData,200,Thread Group_Prod1 1-1,true,604,1,1,795,1,0,INFPU07042,265
1520504881719,267,NoFileUpload N24_PE7631_Autocorrect,200,Thread Group_Prod1 1-1,true,836,1,1,267,1,0,INFPU07042,0
1520504882020,269,NoFileUpload N25_PE7631,200,Thread Group_Prod1 1-1,true,830,1,1,269,1,0,INFPU07042,0
1520504882324,268,NoFileUpload N26_7045RawJson_NonNumerciData,200,Thread Group_Prod1 1-1,true,851,1,1,268,1,0,INFPU07042,0
1520504882656,267,NoFileUpload N27_7045RawJson_SkipBlankCols,200,Thread Group_Prod1 1-1,true,776,1,1,267,1,0,INFPU07042,0
1520504882954,853,NoFileUpload N28_7045RawJson_SkipNonNumericCols,200,Thread Group_Prod1 1-1,true,675,1,1,853,1,0,INFPU07042,332
1520504883845,278,NoFileUpload N29_7045RawJson_WithDimesion,200,Thread Group_Prod1 1-1,true,853,1,1,278,1,0,INFPU07042,0
1520504884157,263,NoFileUpload N30_7045RawJson_SingleNonBlankValue,200,Thread Group_Prod1 1-1,true,615,1,1,262,1,0,INFPU07042,0
1520504884453,433,NoFileUpload N31_7045RawJson_WithOtherValidation,200,Thread Group_Prod1 1-1,true,903,1,1,432,1,0,INFPU07042,0
1520504884931,285,FileUpload F34_PE7045_7045CSV_SimpleSequentialCheck,200,Thread Group_Prod1 1-1,true,2040,1,1,284,1,0,INFPU07042,0
1520504885254,1057,FileUpload F35_PE7045_7045Excel_SimpleSequentialCheck,200,Thread Group_Prod1 1-1,true,2028,1,1,1055,1,0,INFPU07042,255
1520504886341,273,FileUpload F36_PE7045_7045CSV_SkipBlankColumn,200,Thread Group_Prod1 1-1,true,1727,1,1,272,1,0,INFPU07042,0
1520504886629,539,FileUpload F37_PE7045_7045EXCEL_SkipBlankColumn,200,Thread Group_Prod1 1-1,true,2070,1,1,538,1,0,INFPU07042,0
1520504887191,275,FileUpload F38_PE7045_7045CSV_SkipNonNumericData,200,Thread Group_Prod1 1-1,true,1628,1,1,274,1,0,INFPU07042,0
1520504887502,1051,FileUpload F39_PE7045_7045EXCEL_SkipNonNumericData,200,Thread Group_Prod1 1-1,true,2584,1,1,1050,1,0,INFPU07042,253
1520504888586,266,NoFileUpload N32_PE7474_Testcase1,200,Thread Group_Prod1 1-1,true,900,1,1,266,1,0,INFPU07042,0
1520504888888,263,NoFileUpload N33_PE7474_Testcase2,200,Thread Group_Prod1 1-1,true,903,1,1,263,1,0,INFPU07042,0
1520504889179,258,NoFileUpload N34_PE7474_Testcase3,200,Thread Group_Prod1 1-1,true,815,1,1,257,1,0,INFPU07042,0
1520504889471,265,NoFileUpload N35_PE7474_Testcase4,200,Thread Group_Prod1 1-1,true,881,1,1,265,1,0,INFPU07042,0
1520504889772,808,NoFileUpload N36_PE7474_Testcase5,200,Thread Group_Prod1 1-1,true,905,1,1,808,1,0,INFPU07042,262
1520504890606,309,NoFileUpload N37_PE7474_Testcase6,200,Thread Group_Prod1 1-1,true,895,1,1,309,1,0,INFPU07042,0
1520504890951,291,FileUpload F64_PE5415_Step3MappingColumnJson,200,Thread Group_Prod1 1-1,true,2585,1,1,290,1,0,INFPU07042,0
1520505259742,4300,FileUpload F1_PE-8157_Ignore,200,Thread Group_Prod1 1-1,false,6260,1,1,4299,1,1,INFPU07042,338
1520505264086,1069,FileUpload F1_PE-8110_ErrorCell,200,Thread Group_Prod1 1-1,true,1571,1,1,1068,1,0,INFPU07042,256
1520505265219,7068,FileUpload F2_PE-8110_ErrorCell_Ignore,422,Thread Group_Prod1 1-1,false,650879,1,1,1895,1,1,INFPU07042,0
1520505272337,2410,FileUpload F3_PE-8110_ErrorCell_Ignore,400,Thread Group_Prod1 1-1,false,385,1,1,2410,1,1,INFPU07042,258
1520505274792,1342,FileUpload F4_PE-5678_SequentialWithOtherValidations,200,Thread Group_Prod1 1-1,true,5471,1,1,1340,1,0,INFPU07042,266
1520505276170,282,NoFileUpload N1_PE-5678_LOOK_UP_CHECK1,200,Thread Group_Prod1 1-1,true,1077,1,1,282,1,0,INFPU07042,0
1520505276484,265,NoFileUpload N1_PE-5678_SequentialWithOtherValidations,200,Thread Group_Prod1 1-1,true,994,1,1,265,1,0,INFPU07042,0
1520505276786,264,NoFileUpload N2_PE-5678_SequentialWithOtherValidations,200,Thread Group_Prod1 1-1,true,959,1,1,264,1,0,INFPU07042,0
1520505277097,1865,"NoFileUpload_Null Validation_crossSectionChecks_LPALL_566 is """"",200,Thread Group_Prod1 1-1,true,6764,1,1,1863,1,0,INFPU07042,262
1520505278995,306,NoFileUpload_Null Validation_crossSectionChecks_LPALL_566 is null,200,Thread Group_Prod1 1-1,true,6760,1,1,303,1,0,INFPU07042,0
1520505279338,1921,"NoFileUpload_Null Validation_crossSectionChecks_LPALL_566 is ""null""",200,Thread Group_Prod1 1-1,true,6903,1,1,1918,1,0,INFPU07042,265
1520505281303,339,"NoFileUpload_Null Validation_crossSectionChecks_LPALL_566 is ""   """,200,Thread Group_Prod1 1-1,true,6767,1,1,336,1,0,INFPU07042,0
1520505281684,1062,NoFileUpload N3_PE-7172MDA,200,Thread Group_Prod1 1-1,true,664,1,1,1062,1,0,INFPU07042,261
1520505282796,665,FileUpload F5_PE7172_Fix,200,Thread Group_Prod1 1-1,false,4477,1,1,662,1,1,INFPU07042,0
1520505283492,275,NoFileUpload N4_PE-8032MDA,200,Thread Group_Prod1 1-1,true,664,1,1,274,1,0,INFPU07042,0
1520505283826,1623,NoFileUpload N5_PE-8070,200,Thread Group_Prod1 1-1,true,881,1,1,1623,1,0,INFPU07042,261
1520505285483,291,NoFileUpload N73_PE5668 T2_Temp,200,Thread Group_Prod1 1-1,true,609,1,1,290,1,0,INFPU07042,0
1520505285796,293,NoFileUpload N74_PE5668 T3_Temp,200,Thread Group_Prod1 1-1,true,753,1,1,293,1,0,INFPU07042,0
1520505286124,1291,NoFileUpload N75_PE5668 T4_Temp,200,Thread Group_Prod1 1-1,true,706,1,1,1291,1,0,INFPU07042,255
1520505287449,267,NoFileUpload N76_PE5668 T5_Temp,200,Thread Group_Prod1 1-1,true,720,1,1,267,1,0,INFPU07042,0
1520505287744,265,NoFileUpload N78_PE5668 T7_Temp,200,Thread Group_Prod1 1-1,true,705,1,1,264,1,0,INFPU07042,0
1520505288038,266,NoFileUpload N79_PE5668 T8_Temp,200,Thread Group_Prod1 1-1,true,607,1,1,266,1,0,INFPU07042,0
1520505288334,1331,FileUpload F6_PE-7257_US_CSV_Shuffle,Non HTTP response code: java.io.FileNotFoundException,Thread Group_Prod1 1-1,false,2734,1,1,0,1,1,INFPU07042,265
1520505289697,2191,FileUpload F7_PE-7257_US_Excel_Shuffle,200,Thread Group_Prod1 1-1,false,4343,1,1,2191,1,1,INFPU07042,254
1520505291913,1868,NoFileUpload N6_PE7978,200,Thread Group_Prod1 1-1,true,6632,1,1,1867,1,0,INFPU07042,265
1520505293804,264,NoFileUpload N7_PE7954,200,Thread Group_Prod1 1-1,true,727,1,1,264,1,0,INFPU07042,0
1520505294104,1303,NoFileUpload N77_PE5668 T6,200,Thread Group_Prod1 1-1,true,716,1,1,1303,1,0,INFPU07042,259
1520505295442,264,FileUpload F8_PE7999_Ignore since files are identical,422,Thread Group_Prod1 1-1,false,1282,1,1,264,1,1,INFPU07042,0
1520505295735,266,NoFileUpload N8_ PE7795,200,Thread Group_Prod1 1-1,true,717,1,1,266,1,0,INFPU07042,0
1520505296032,268,NoFileUpload N9_PE7046_AU_Comp2,200,Thread Group_Prod1 1-1,true,914,1,1,268,1,0,INFPU07042,0
1520505296337,790,NoFileUpload N10_PE7046_US_Comp1,200,Thread Group_Prod1 1-1,true,910,1,1,789,1,0,INFPU07042,260
1520505297155,267,NoFileUpload N11_PE7046_IN_Comp1,200,Thread Group_Prod1 1-1,true,910,1,1,267,1,0,INFPU07042,0
1520505297454,268,NoFileUpload N12_PE7046_ZA_Comp2,200,Thread Group_Prod1 1-1,true,914,1,1,267,1,0,INFPU07042,0
1520505297759,786,NoFileUpload N13_PE7773_NUM_EMP is 7_Fix,200,Thread Group_Prod1 1-1,false,1099,1,1,785,1,1,INFPU07042,0
1520505298600,1561,NoFileUpload N14_PE7773_NUM_EMP is 8.1_boundry is 8,200,Thread Group_Prod1 1-1,true,1105,1,1,1561,1,0,INFPU07042,257
1520505300186,281,NoFileUpload N15_PE7773_NUM_EMP is 9_boundry is 8,200,Thread Group_Prod1 1-1,true,1099,1,1,281,1,0,INFPU07042,0
1520505300506,609,FileUpload F9_PE5216_ImpactedbyComment,200,Thread Group_Prod1 1-1,true,1345,1,1,608,1,0,INFPU07042,0
1520505301148,765,NoFileUpload N16_PE7044_expression,200,Thread Group_Prod1 1-1,true,674,1,1,764,1,0,INFPU07042,254
1520505301914,514,NoFileUpload N17_PE7044_range,200,Thread Group_Prod1 1-1,true,917,1,1,514,1,0,INFPU07042,0
1520505302515,266,NoFileUpload N18_PE7044_rangeValidationRefTable,200,Thread Group_Prod1 1-1,true,912,1,1,266,1,0,INFPU07042,0
1520505302844,263,NoFileUpload N19_PE7044_rangeValidationRefTable_dimensions,200,Thread Group_Prod1 1-1,true,942,1,1,263,1,0,INFPU07042,0
1520505303148,2074,FileUpload F10_PE5691_1Record_Ignore,400,Thread Group_Prod1 1-1,false,327,1,1,2074,1,1,INFPU07042,256
1520505305254,2122,FileUpload F11_PE5691_1Record_Ignore,400,Thread Group_Prod1 1-1,false,327,1,1,2122,1,1,INFPU07042,263
1520505307412,1036,FileUpload F12_PE6027_Ref Table,200,Thread Group_Prod1 1-1,true,2193,1,1,1035,1,0,INFPU07042,253
1520505308507,526,FileUpload F13_PE6030,200,Thread Group_Prod1 1-1,true,3289,1,1,525,1,0,INFPU07042,0
1520505309083,263,NoFileUpload N20_PE7033,200,Thread Group_Prod1 1-1,true,910,1,1,263,1,0,INFPU07042,0
1520505309347,263,NoFileUpload N21_PE7314,200,Thread Group_Prod1 1-1,true,771,1,1,263,1,0,INFPU07042,0
1520505309661,2756,FileUpload F14_PE7071_1Record_Shuffle,200,Thread Group_Prod1 1-1,false,4188,1,1,2755,1,1,INFPU07042,257
1520505312449,2821,FileUpload F15_PE7071_1Record,200,Thread Group_Prod1 1-1,false,4749,1,1,2818,1,1,INFPU07042,264
1520505315336,2556,FileUpload F16_PE7071_1Record,200,Thread Group_Prod1 1-1,false,4188,1,1,2556,1,1,INFPU07042,255
1520505317927,2059,FileUpload F17_PE7071_1Record,400,Thread Group_Prod1 1-1,false,365,1,1,2059,1,1,INFPU07042,258
1520505320025,2384,FileUpload F18_PE7611,200,Thread Group_Prod1 1-1,true,1989,1,1,2383,1,0,INFPU07042,254
1520505322448,2445,FileUpload F19_PE7611,200,Thread Group_Prod1 1-1,false,1790,1,1,2444,1,1,INFPU07042,333
1520505324935,2478,FileUpload F20_PE7611,200,Thread Group_Prod1 1-1,true,1913,1,1,2478,1,0,INFPU07042,264
1520505327444,2401,FileUpload F21_PE7611,200,Thread Group_Prod1 1-1,true,1989,1,1,2401,1,0,INFPU07042,255
1520505329880,2436,FileUpload F22_PE7611,200,Thread Group_Prod1 1-1,false,2118,1,1,2435,1,1,INFPU07042,257
1520505332358,2396,FileUpload F23_PE7611,200,Thread Group_Prod1 1-1,false,1995,1,1,2395,1,1,INFPU07042,254
1520505334787,2435,FileUpload F24_PE7611,200,Thread Group_Prod1 1-1,false,1995,1,1,2434,1,1,INFPU07042,253
1520505337246,2379,FileUpload F25_PE7611,200,Thread Group_Prod1 1-1,false,1883,1,1,2378,1,1,INFPU07042,253
1520505339656,2427,FileUpload F26_PE7611,200,Thread Group_Prod1 1-1,false,1884,1,1,2427,1,1,INFPU07042,258
1520505342116,2385,FileUpload F27_PE7611,200,Thread Group_Prod1 1-1,true,2119,1,1,2384,1,0,INFPU07042,254
1520505344535,1051,FileUpload F28_6713CSV_SkipLastBlankRow,200,Thread Group_Prod1 1-1,true,1752,1,1,1051,1,0,INFPU07042,254
1520505345586,6,FileUpload F29_6713CSV_SkipInitialRow,Non HTTP response code: java.io.FileNotFoundException,Thread Group_Prod1 1-1,false,2768,1,1,0,1,1,INFPU07042,0
1520505345622,1064,FileUpload F30_6713CSV_SkipMiddleBlankRows,200,Thread Group_Prod1 1-1,true,2055,1,1,1064,1,0,INFPU07042,260
1520505346725,542,FileUpload F31_6713Excel_SkipInitialRow,200,Thread Group_Prod1 1-1,true,1461,1,1,542,1,0,INFPU07042,0
1520505347295,542,FileUpload F32_6713Excel_SkipLastBlankRow,200,Thread Group_Prod1 1-1,true,1752,1,1,542,1,0,INFPU07042,0
1520505347867,1034,FileUpload F33_6713Excel_SkipMiddleRow,200,Thread Group_Prod1 1-1,true,2055,1,1,1033,1,0,INFPU07042,252
1520505348934,257,NoFileUpload N22_PE7631_metaData,200,Thread Group_Prod1 1-1,true,604,1,1,257,1,0,INFPU07042,0
1520505349217,258,NoFileUpload N23_PE7631_metaData,200,Thread Group_Prod1 1-1,true,609,1,1,258,1,0,INFPU07042,0
1520505349512,257,NoFileUpload N24_PE7631_Autocorrect,200,Thread Group_Prod1 1-1,true,836,1,1,257,1,0,INFPU07042,0
1520505349808,257,NoFileUpload N25_PE7631,200,Thread Group_Prod1 1-1,true,830,1,1,257,1,0,INFPU07042,0
1520505350093,770,NoFileUpload N26_7045RawJson_NonNumerciData,200,Thread Group_Prod1 1-1,true,846,1,1,770,1,0,INFPU07042,254
1520505350913,260,NoFileUpload N27_7045RawJson_SkipBlankCols,200,Thread Group_Prod1 1-1,true,776,1,1,260,1,0,INFPU07042,0
1520505351205,258,NoFileUpload N28_7045RawJson_SkipNonNumericCols,200,Thread Group_Prod1 1-1,true,675,1,1,258,1,0,INFPU07042,0
1520505351495,259,NoFileUpload N29_7045RawJson_WithDimesion,200,Thread Group_Prod1 1-1,true,858,1,1,259,1,0,INFPU07042,0
1520505351798,261,NoFileUpload N30_7045RawJson_SingleNonBlankValue,200,Thread Group_Prod1 1-1,true,615,1,1,260,1,0,INFPU07042,0
1520505352093,800,NoFileUpload N31_7045RawJson_WithOtherValidation,200,Thread Group_Prod1 1-1,true,903,1,1,800,1,0,INFPU07042,264
1520505352928,552,FileUpload F34_PE7045_7045CSV_SimpleSequentialCheck,200,Thread Group_Prod1 1-1,true,2040,1,1,552,1,0,INFPU07042,0
1520505353527,564,FileUpload F35_PE7045_7045Excel_SimpleSequentialCheck,200,Thread Group_Prod1 1-1,true,2028,1,1,563,1,0,INFPU07042,0
1520505354128,1040,FileUpload F36_PE7045_7045CSV_SkipBlankColumn,200,Thread Group_Prod1 1-1,false,1748,1,1,1039,1,1,INFPU07042,252
1520505355201,536,FileUpload F37_PE7045_7045EXCEL_SkipBlankColumn,200,Thread Group_Prod1 1-1,true,2070,1,1,535,1,0,INFPU07042,0
1520505355777,519,FileUpload F38_PE7045_7045CSV_SkipNonNumericData,200,Thread Group_Prod1 1-1,false,1640,1,1,519,1,1,INFPU07042,0
1520505356313,1048,FileUpload F39_PE7045_7045EXCEL_SkipNonNumericData,200,Thread Group_Prod1 1-1,true,2584,1,1,1047,1,0,INFPU07042,253
1520505357397,260,NoFileUpload N32_PE7474_Testcase1,200,Thread Group_Prod1 1-1,true,900,1,1,260,1,0,INFPU07042,0
1520505357693,264,NoFileUpload N33_PE7474_Testcase2,200,Thread Group_Prod1 1-1,true,903,1,1,264,1,0,INFPU07042,0
1520505357994,258,NoFileUpload N34_PE7474_Testcase3,200,Thread Group_Prod1 1-1,true,815,1,1,258,1,0,INFPU07042,0
1520505358270,267,NoFileUpload N35_PE7474_Testcase4,200,Thread Group_Prod1 1-1,true,886,1,1,267,1,0,INFPU07042,0
1520505358575,777,NoFileUpload N36_PE7474_Testcase5,200,Thread Group_Prod1 1-1,true,905,1,1,777,1,0,INFPU07042,253
1520505359384,263,NoFileUpload N37_PE7474_Testcase6,200,Thread Group_Prod1 1-1,true,895,1,1,263,1,0,INFPU07042,0
1520505359677,269,FileUpload F64_PE5415_Step3MappingColumnJson,200,Thread Group_Prod1 1-1,true,2585,1,1,268,1,0,INFPU07042,0
1520505616756,1087,FileUpload F29_6713CSV_SkipInitialRow,200,Thread Group_Prod1 1-1,true,1461,1,1,1087,1,0,INFPU07042,321
1520505617874,518,FileUpload F30_6713CSV_SkipMiddleBlankRows,200,Thread Group_Prod1 1-1,true,2055,1,1,517,1,0,INFPU07042,0
1520505618428,515,FileUpload F31_6713Excel_SkipInitialRow,200,Thread Group_Prod1 1-1,true,1461,1,1,515,1,0,INFPU07042,0
1520505618970,1039,FileUpload F32_6713Excel_SkipLastBlankRow,200,Thread Group_Prod1 1-1,true,1752,1,1,1038,1,0,INFPU07042,254
1520505620023,529,FileUpload F33_6713Excel_SkipMiddleRow,200,Thread Group_Prod1 1-1,true,2055,1,1,529,1,0,INFPU07042,0
1520505620584,258,NoFileUpload N22_PE7631_metaData,200,Thread Group_Prod1 1-1,true,604,1,1,258,1,0,INFPU07042,0
1520505620868,259,NoFileUpload N23_PE7631_metaData,200,Thread Group_Prod1 1-1,true,604,1,1,259,1,0,INFPU07042,0
1520505621165,799,NoFileUpload N24_PE7631_Autocorrect,200,Thread Group_Prod1 1-1,true,836,1,1,799,1,0,INFPU07042,270
1520505621989,268,NoFileUpload N25_PE7631,200,Thread Group_Prod1 1-1,true,830,1,1,267,1,0,INFPU07042,0
1520505622292,269,NoFileUpload N26_7045RawJson_NonNumerciData,200,Thread Group_Prod1 1-1,true,846,1,1,269,1,0,INFPU07042,0
1520505622613,266,NoFileUpload N27_7045RawJson_SkipBlankCols,200,Thread Group_Prod1 1-1,true,771,1,1,265,1,0,INFPU07042,0
1520505622899,266,NoFileUpload N28_7045RawJson_SkipNonNumericCols,200,Thread Group_Prod1 1-1,true,675,1,1,265,1,0,INFPU07042,0
1520505623185,774,NoFileUpload N29_7045RawJson_WithDimesion,200,Thread Group_Prod1 1-1,true,853,1,1,774,1,0,INFPU07042,256
1520505624011,68,NoFileUpload N30_7045RawJson_SingleNonBlankValue,Non HTTP response code: java.net.SocketException,Thread Group_Prod1 1-1,false,2675,1,1,0,1,1,INFPU07042,0
