{  
   "entities":[  
      {  
         "sections":[  
            {  
               "sectionCode":"incumbent_data",
               "data":[  
                  {  
                     "BIRTH_YEAR":""
                  },
                  {  
                     "BIRTH_YEAR":"2010"
                  }
               ]
            },
            {  
               "sectionCode":"company_data",
               "data":[  
                  {  
                     "POS_CODE":"",
                     "EXCLUDE_FLAG":"Y"
                  }
               ]
            }
         ],
         "contextData":{  
            "grpCode":"1435",
            "campaignId":"11111",
            "ctryCode":"PL",
            "cpyCode":"4444",
            "companyId":"12345",
            "industry":{  
               "sector":"100",
               "subSector":"101",
               "superSector":"CG"
            },
            "orgSize":123
         }
      }
   ]
}