mysql> select * from mercerdb.jobinversion;
+--------------------------------------+------------+----------+------------+
| id                                   | careerFrom | careerTo | comparison |
+--------------------------------------+------------+----------+------------+
| 852b2628-b002-11e7-9439-000d3a731e3e | E05        | E04      | GT         |
| 852b279c-b002-11e7-9439-000d3a731e3e | E05        | E03      | GT         |
| 852b27d5-b002-11e7-9439-000d3a731e3e | E05        | E02      | GT         |
| 852b27f2-b002-11e7-9439-000d3a731e3e | E05        | E01      | GT         |
| 852b280b-b002-11e7-9439-000d3a731e3e | E05        | M50      | GT         |
| 852b2826-b002-11e7-9439-000d3a731e3e | E05        | M40      | GT         |
| 852b2842-b002-11e7-9439-000d3a731e3e | E05        | M30      | GT         |
| 852b285a-b002-11e7-9439-000d3a731e3e | E05        | M20      | GT         |
| 852b2878-b002-11e7-9439-000d3a731e3e | E05        | M10      | GT         |
| 852b2890-b002-11e7-9439-000d3a731e3e | E05        | P60      | GT         |
| 852b28ab-b002-11e7-9439-000d3a731e3e | E05        | P50      | GT         |
| 852b28c1-b002-11e7-9439-000d3a731e3e | E05        | P40      | GT         |
| 852b28d8-b002-11e7-9439-000d3a731e3e | E05        | P30      | GT         |
| 852b28ef-b002-11e7-9439-000d3a731e3e | E05        | P20      | GT         |
| 852b2905-b002-11e7-9439-000d3a731e3e | E05        | P10      | GT         |
| 852b291e-b002-11e7-9439-000d3a731e3e | E05        | S40      | GT         |
| 852b2935-b002-11e7-9439-000d3a731e3e | E05        | S30      | GT         |
| 852b294c-b002-11e7-9439-000d3a731e3e | E05        | S20      | GT         |
| 852b2965-b002-11e7-9439-000d3a731e3e | E05        | S10      | GT         |
| 852b297c-b002-11e7-9439-000d3a731e3e | E50        | E40      | GT         |
| 852b2994-b002-11e7-9439-000d3a731e3e | E50        | E41      | GT         |
| 852b29ab-b002-11e7-9439-000d3a731e3e | E50        | E42      | GT         |
| 852b29c0-b002-11e7-9439-000d3a731e3e | E50        | E43      | GT         |
| 852b29d9-b002-11e7-9439-000d3a731e3e | E50        | E44      | GT         |
| 852b29f1-b002-11e7-9439-000d3a731e3e | E50        | E30      | GT         |
| 852b2a08-b002-11e7-9439-000d3a731e3e | E50        | E31      | GT         |
| 852b2a1e-b002-11e7-9439-000d3a731e3e | E50        | E32      | GT         |
| 852b2a35-b002-11e7-9439-000d3a731e3e | E50        | E33      | GT         |
| 852b2a4c-b002-11e7-9439-000d3a731e3e | E50        | E34      | GT         |
| 852b2a63-b002-11e7-9439-000d3a731e3e | E50        | E35      | GT         |
| 852b2a79-b002-11e7-9439-000d3a731e3e | E50        | E36      | GT         |
| 852b2a90-b002-11e7-9439-000d3a731e3e | E50        | E37      | GT         |
| 852b2aa7-b002-11e7-9439-000d3a731e3e | E50        | E38      | GT         |
| 852b2abe-b002-11e7-9439-000d3a731e3e | E50        | E39      | GT         |
| 852b2ad4-b002-11e7-9439-000d3a731e3e | E50        | E20      | GT         |
| 852b2aec-b002-11e7-9439-000d3a731e3e | E50        | E21      | GT         |
| 852b2b1d-b002-11e7-9439-000d3a731e3e | E50        | E22      | GT         |
| 852b2b31-b002-11e7-9439-000d3a731e3e | E50        | E23      | GT         |
| 852b2b45-b002-11e7-9439-000d3a731e3e | E50        | E24      | GT         |
| 852b2b58-b002-11e7-9439-000d3a731e3e | E50        | E25      | GT         |
| 852b2b6d-b002-11e7-9439-000d3a731e3e | E50        | E27      | GT         |
| 852b2b80-b002-11e7-9439-000d3a731e3e | E50        | E28      | GT         |
| 852b2b94-b002-11e7-9439-000d3a731e3e | E50        | E29      | GT         |
| 852b2ba8-b002-11e7-9439-000d3a731e3e | E50        | E10      | GT         |
| 852b2bbd-b002-11e7-9439-000d3a731e3e | E50        | E11      | GT         |
| 852b2bd0-b002-11e7-9439-000d3a731e3e | E50        | E12      | GT         |
| 852b2be4-b002-11e7-9439-000d3a731e3e | E50        | E13      | GT         |
| 852b2bf8-b002-11e7-9439-000d3a731e3e | E50        | M50      | GT         |
| 852b2c0e-b002-11e7-9439-000d3a731e3e | E50        | M40      | GT         |
| 852b2c22-b002-11e7-9439-000d3a731e3e | E50        | M30      | GT         |
| 852b2c36-b002-11e7-9439-000d3a731e3e | E50        | M20      | GT         |
| 852b2c4a-b002-11e7-9439-000d3a731e3e | E50        | M10      | GT         |
| 852b2c5f-b002-11e7-9439-000d3a731e3e | E50        | P60      | GT         |
| 852b2c72-b002-11e7-9439-000d3a731e3e | E50        | P50      | GT         |
| 852b2c87-b002-11e7-9439-000d3a731e3e | E50        | P40      | GT         |
| 852b2c9b-b002-11e7-9439-000d3a731e3e | E50        | P30      | GT         |
| 852b2cb1-b002-11e7-9439-000d3a731e3e | E50        | P20      | GT         |
| 852b2cc5-b002-11e7-9439-000d3a731e3e | E50        | P10      | GT         |
| 852b2cd9-b002-11e7-9439-000d3a731e3e | E50        | S40      | GT         |
| 852b2ced-b002-11e7-9439-000d3a731e3e | E50        | S30      | GT         |
| 852b2d02-b002-11e7-9439-000d3a731e3e | E50        | S20      | GT         |
| 852b2d16-b002-11e7-9439-000d3a731e3e | E50        | S10      | GT         |
| 852b2d29-b002-11e7-9439-000d3a731e3e | E04        | E03      | GT         |
| 852b2d3d-b002-11e7-9439-000d3a731e3e | E04        | E02      | GT         |
| 852b2d52-b002-11e7-9439-000d3a731e3e | E04        | E01      | GT         |
| 852b2d67-b002-11e7-9439-000d3a731e3e | E04        | M50      | GE         |
| 852b2d7b-b002-11e7-9439-000d3a731e3e | E04        | M40      | GT         |
| 852b2d8f-b002-11e7-9439-000d3a731e3e | E04        | M30      | GT         |
| 852b2da4-b002-11e7-9439-000d3a731e3e | E04        | M20      | GT         |
| 852b2db9-b002-11e7-9439-000d3a731e3e | E04        | M10      | GT         |
| 852b2dcd-b002-11e7-9439-000d3a731e3e | E04        | P60      | GT         |
| 852b2de1-b002-11e7-9439-000d3a731e3e | E04        | P50      | GT         |
| 852b2df6-b002-11e7-9439-000d3a731e3e | E04        | P40      | GT         |
| 852b2e0b-b002-11e7-9439-000d3a731e3e | E04        | P30      | GT         |
| 852b2e20-b002-11e7-9439-000d3a731e3e | E04        | P20      | GT         |
| 852b2e33-b002-11e7-9439-000d3a731e3e | E04        | P10      | GT         |
| 852b2e47-b002-11e7-9439-000d3a731e3e | E04        | S40      | GT         |
| 852b2e5b-b002-11e7-9439-000d3a731e3e | E04        | S30      | GT         |
| 852b2e6e-b002-11e7-9439-000d3a731e3e | E04        | S20      | GT         |
| 852b2e82-b002-11e7-9439-000d3a731e3e | E04        | S10      | GT         |
| 852b2e96-b002-11e7-9439-000d3a731e3e | E40        | E30      | GT         |
| 852b2eab-b002-11e7-9439-000d3a731e3e | E40        | E31      | GT         |
| 852b2ebe-b002-11e7-9439-000d3a731e3e | E40        | E32      | GT         |
| 852b2ed2-b002-11e7-9439-000d3a731e3e | E40        | E33      | GT         |
| 852b2ee7-b002-11e7-9439-000d3a731e3e | E40        | E34      | GT         |
| 852b2efb-b002-11e7-9439-000d3a731e3e | E40        | E35      | GT         |
| 852b2f0f-b002-11e7-9439-000d3a731e3e | E40        | E36      | GT         |
| 852b2f24-b002-11e7-9439-000d3a731e3e | E40        | E37      | GT         |
| 852b2f39-b002-11e7-9439-000d3a731e3e | E40        | E38      | GT         |
| 852b2f4d-b002-11e7-9439-000d3a731e3e | E40        | E39      | GT         |
| 852b2f63-b002-11e7-9439-000d3a731e3e | E40        | E20      | GT         |
| 852b2f76-b002-11e7-9439-000d3a731e3e | E40        | E21      | GT         |
| 852b2f8b-b002-11e7-9439-000d3a731e3e | E40        | E22      | GT         |
| 852b2f9e-b002-11e7-9439-000d3a731e3e | E40        | E23      | GT         |
| 852b2fb3-b002-11e7-9439-000d3a731e3e | E40        | E24      | GT         |
| 852b2fc6-b002-11e7-9439-000d3a731e3e | E40        | E25      | GT         |
| 852b2fda-b002-11e7-9439-000d3a731e3e | E40        | E27      | GT         |
| 852b2fee-b002-11e7-9439-000d3a731e3e | E40        | E28      | GT         |
| 852b3002-b002-11e7-9439-000d3a731e3e | E40        | E29      | GT         |
| 852b3016-b002-11e7-9439-000d3a731e3e | E40        | E10      | GT         |
| 852b302a-b002-11e7-9439-000d3a731e3e | E40        | E11      | GT         |
| 852b303d-b002-11e7-9439-000d3a731e3e | E40        | E12      | GT         |
| 852b3051-b002-11e7-9439-000d3a731e3e | E40        | E13      | GT         |
| 852b3065-b002-11e7-9439-000d3a731e3e | E40        | M50      | GE         |
| 852b3079-b002-11e7-9439-000d3a731e3e | E40        | M40      | GT         |
| 852b308c-b002-11e7-9439-000d3a731e3e | E40        | M30      | GT         |
| 852b3106-b002-11e7-9439-000d3a731e3e | E40        | M20      | GT         |
| 852b3121-b002-11e7-9439-000d3a731e3e | E40        | M10      | GT         |
| 852b3135-b002-11e7-9439-000d3a731e3e | E40        | P60      | GT         |
| 852b3149-b002-11e7-9439-000d3a731e3e | E40        | P50      | GT         |
| 852b315d-b002-11e7-9439-000d3a731e3e | E40        | P40      | GT         |
| 852b3170-b002-11e7-9439-000d3a731e3e | E40        | P30      | GT         |
| 852b3184-b002-11e7-9439-000d3a731e3e | E40        | P20      | GT         |
| 852b3197-b002-11e7-9439-000d3a731e3e | E40        | P10      | GT         |
| 852b31ab-b002-11e7-9439-000d3a731e3e | E40        | S40      | GT         |
| 852b31bf-b002-11e7-9439-000d3a731e3e | E40        | S30      | GT         |
| 852b31d2-b002-11e7-9439-000d3a731e3e | E40        | S20      | GT         |
| 852b31e7-b002-11e7-9439-000d3a731e3e | E40        | S10      | GT         |
| 852b31fd-b002-11e7-9439-000d3a731e3e | E41        | E30      | GT         |
| 852b324b-b002-11e7-9439-000d3a731e3e | E41        | E31      | GT         |
| 852b326a-b002-11e7-9439-000d3a731e3e | E41        | E32      | GT         |
| 852b3280-b002-11e7-9439-000d3a731e3e | E41        | E33      | GT         |
| 852b3312-b002-11e7-9439-000d3a731e3e | E41        | E34      | GT         |
| 852b3329-b002-11e7-9439-000d3a731e3e | E41        | E35      | GT         |
| 852b333f-b002-11e7-9439-000d3a731e3e | E41        | E36      | GT         |
| 852b3352-b002-11e7-9439-000d3a731e3e | E41        | E37      | GT         |
| 852b3365-b002-11e7-9439-000d3a731e3e | E41        | E38      | GT         |
| 852b337b-b002-11e7-9439-000d3a731e3e | E41        | E39      | GT         |
| 852b338f-b002-11e7-9439-000d3a731e3e | E41        | E20      | GT         |
| 852b33a3-b002-11e7-9439-000d3a731e3e | E41        | E21      | GT         |
| 852b33b5-b002-11e7-9439-000d3a731e3e | E41        | E22      | GT         |
| 852b33c9-b002-11e7-9439-000d3a731e3e | E41        | E23      | GT         |
| 852b33dd-b002-11e7-9439-000d3a731e3e | E41        | E24      | GT         |
| 852b33f0-b002-11e7-9439-000d3a731e3e | E41        | E25      | GT         |
| 852b3403-b002-11e7-9439-000d3a731e3e | E41        | E27      | GT         |
| 852b3416-b002-11e7-9439-000d3a731e3e | E41        | E28      | GT         |
| 852b342c-b002-11e7-9439-000d3a731e3e | E41        | E29      | GT         |
| 852b3440-b002-11e7-9439-000d3a731e3e | E41        | E10      | GT         |
| 852b3454-b002-11e7-9439-000d3a731e3e | E41        | E11      | GT         |
| 852b3469-b002-11e7-9439-000d3a731e3e | E41        | E12      | GT         |
| 852b347d-b002-11e7-9439-000d3a731e3e | E41        | E13      | GT         |
| 852b3490-b002-11e7-9439-000d3a731e3e | E41        | M50      | GE         |
| 852b34a3-b002-11e7-9439-000d3a731e3e | E41        | M40      | GT         |
| 852b34b7-b002-11e7-9439-000d3a731e3e | E41        | M30      | GT         |
| 852b34ca-b002-11e7-9439-000d3a731e3e | E41        | M20      | GT         |
| 852b34df-b002-11e7-9439-000d3a731e3e | E41        | M10      | GT         |
| 852b34f4-b002-11e7-9439-000d3a731e3e | E41        | P60      | GT         |
| 852b3507-b002-11e7-9439-000d3a731e3e | E41        | P50      | GT         |
| 852b3525-b002-11e7-9439-000d3a731e3e | E41        | P40      | GT         |
| 852b3538-b002-11e7-9439-000d3a731e3e | E41        | P30      | GT         |
| 852b354b-b002-11e7-9439-000d3a731e3e | E41        | P20      | GT         |
| 852b3562-b002-11e7-9439-000d3a731e3e | E41        | P10      | GT         |
| 852b3579-b002-11e7-9439-000d3a731e3e | E41        | S40      | GT         |
| 852b3592-b002-11e7-9439-000d3a731e3e | E41        | S30      | GT         |
| 852b35a6-b002-11e7-9439-000d3a731e3e | E41        | S20      | GT         |
| 852b35bd-b002-11e7-9439-000d3a731e3e | E41        | S10      | GT         |
| 852b35d2-b002-11e7-9439-000d3a731e3e | E42        | E30      | GT         |
| 852b35e7-b002-11e7-9439-000d3a731e3e | E42        | E31      | GT         |
| 852b35fd-b002-11e7-9439-000d3a731e3e | E42        | E32      | GT         |
| 852b3612-b002-11e7-9439-000d3a731e3e | E42        | E33      | GT         |
| 852b3625-b002-11e7-9439-000d3a731e3e | E42        | E34      | GT         |
| 852b3639-b002-11e7-9439-000d3a731e3e | E42        | E35      | GT         |
| 852b364d-b002-11e7-9439-000d3a731e3e | E42        | E36      | GT         |
| 852b3660-b002-11e7-9439-000d3a731e3e | E42        | E37      | GT         |
| 852b3673-b002-11e7-9439-000d3a731e3e | E42        | E38      | GT         |
| 852b3686-b002-11e7-9439-000d3a731e3e | E42        | E39      | GT         |
| 852b4e7f-b002-11e7-9439-000d3a731e3e | E42        | E20      | GT         |
| 852b4ef8-b002-11e7-9439-000d3a731e3e | E42        | E21      | GT         |
| 852b4f14-b002-11e7-9439-000d3a731e3e | E42        | E22      | GT         |
| 852b4f2d-b002-11e7-9439-000d3a731e3e | E42        | E23      | GT         |
| 852b4f43-b002-11e7-9439-000d3a731e3e | E42        | E24      | GT         |
| 852b4f58-b002-11e7-9439-000d3a731e3e | E42        | E25      | GT         |
| 852b4f70-b002-11e7-9439-000d3a731e3e | E42        | E27      | GT         |
| 852b4f85-b002-11e7-9439-000d3a731e3e | E42        | E28      | GT         |
| 852b4f99-b002-11e7-9439-000d3a731e3e | E42        | E29      | GT         |
| 852b4fad-b002-11e7-9439-000d3a731e3e | E42        | E10      | GT         |
| 852b4fc4-b002-11e7-9439-000d3a731e3e | E42        | E11      | GT         |
| 852b4fd9-b002-11e7-9439-000d3a731e3e | E42        | E12      | GT         |
| 852b4fee-b002-11e7-9439-000d3a731e3e | E42        | E13      | GT         |
| 852b5003-b002-11e7-9439-000d3a731e3e | E42        | M50      | GE         |
| 852b5017-b002-11e7-9439-000d3a731e3e | E42        | M40      | GT         |
| 852b5030-b002-11e7-9439-000d3a731e3e | E42        | M30      | GT         |
| 852b5045-b002-11e7-9439-000d3a731e3e | E42        | M20      | GT         |
| 852b5059-b002-11e7-9439-000d3a731e3e | E42        | M10      | GT         |
| 852b506f-b002-11e7-9439-000d3a731e3e | E42        | P60      | GT         |
| 852b5083-b002-11e7-9439-000d3a731e3e | E42        | P50      | GT         |
| 852b5097-b002-11e7-9439-000d3a731e3e | E42        | P40      | GT         |
| 852b50aa-b002-11e7-9439-000d3a731e3e | E42        | P30      | GT         |
| 852b50be-b002-11e7-9439-000d3a731e3e | E42        | P20      | GT         |
| 852b50d1-b002-11e7-9439-000d3a731e3e | E42        | P10      | GT         |
| 852b50e6-b002-11e7-9439-000d3a731e3e | E42        | S40      | GT         |
| 852b50fa-b002-11e7-9439-000d3a731e3e | E42        | S30      | GT         |
| 852b510d-b002-11e7-9439-000d3a731e3e | E42        | S20      | GT         |
| 852b5121-b002-11e7-9439-000d3a731e3e | E42        | S10      | GT         |
| 852b5136-b002-11e7-9439-000d3a731e3e | E43        | E30      | GT         |
| 852b514a-b002-11e7-9439-000d3a731e3e | E43        | E31      | GT         |
| 852b515e-b002-11e7-9439-000d3a731e3e | E43        | E32      | GT         |
| 852b5172-b002-11e7-9439-000d3a731e3e | E43        | E33      | GT         |
| 852b5186-b002-11e7-9439-000d3a731e3e | E43        | E34      | GT         |
| 852b519a-b002-11e7-9439-000d3a731e3e | E43        | E35      | GT         |
| 852b51af-b002-11e7-9439-000d3a731e3e | E43        | E36      | GT         |
| 852b51c3-b002-11e7-9439-000d3a731e3e | E43        | E37      | GT         |
| 852b51d8-b002-11e7-9439-000d3a731e3e | E43        | E38      | GT         |
| 852b51ec-b002-11e7-9439-000d3a731e3e | E43        | E39      | GT         |
| 852b5201-b002-11e7-9439-000d3a731e3e | E43        | E20      | GT         |
| 852b5215-b002-11e7-9439-000d3a731e3e | E43        | E21      | GT         |
| 852b5229-b002-11e7-9439-000d3a731e3e | E43        | E22      | GT         |
| 852b523d-b002-11e7-9439-000d3a731e3e | E43        | E23      | GT         |
| 852b5252-b002-11e7-9439-000d3a731e3e | E43        | E24      | GT         |
| 852b5265-b002-11e7-9439-000d3a731e3e | E43        | E25      | GT         |
| 852b5279-b002-11e7-9439-000d3a731e3e | E43        | E27      | GT         |
| 852b528d-b002-11e7-9439-000d3a731e3e | E43        | E28      | GT         |
| 852b52a0-b002-11e7-9439-000d3a731e3e | E43        | E29      | GT         |
| 852b52b4-b002-11e7-9439-000d3a731e3e | E43        | E10      | GT         |
| 852b52c7-b002-11e7-9439-000d3a731e3e | E43        | E11      | GT         |
| 852b52dd-b002-11e7-9439-000d3a731e3e | E43        | E12      | GT         |
| 852b52f1-b002-11e7-9439-000d3a731e3e | E43        | E13      | GT         |
| 852b5304-b002-11e7-9439-000d3a731e3e | E43        | M50      | GE         |
| 852b5318-b002-11e7-9439-000d3a731e3e | E43        | M40      | GT         |
| 852b532c-b002-11e7-9439-000d3a731e3e | E43        | M30      | GT         |
| 852b5341-b002-11e7-9439-000d3a731e3e | E43        | M20      | GT         |
| 852b5354-b002-11e7-9439-000d3a731e3e | E43        | M10      | GT         |
| 852b5367-b002-11e7-9439-000d3a731e3e | E43        | P60      | GT         |
| 852b537c-b002-11e7-9439-000d3a731e3e | E43        | P50      | GT         |
| 852b5390-b002-11e7-9439-000d3a731e3e | E43        | P40      | GT         |
| 852b53a4-b002-11e7-9439-000d3a731e3e | E43        | P30      | GT         |
| 852b5854-b002-11e7-9439-000d3a731e3e | E43        | P20      | GT         |
| 852b58e3-b002-11e7-9439-000d3a731e3e | E43        | P10      | GT         |
| 852b58f9-b002-11e7-9439-000d3a731e3e | E43        | S40      | GT         |
| 852b590c-b002-11e7-9439-000d3a731e3e | E43        | S30      | GT         |
| 852b5922-b002-11e7-9439-000d3a731e3e | E43        | S20      | GT         |
| 852b59ac-b002-11e7-9439-000d3a731e3e | E43        | S10      | GT         |
| 852b59c2-b002-11e7-9439-000d3a731e3e | E44        | E30      | GT         |
| 852b59d7-b002-11e7-9439-000d3a731e3e | E44        | E31      | GT         |
| 852b59ed-b002-11e7-9439-000d3a731e3e | E44        | E32      | GT         |
| 852b5a02-b002-11e7-9439-000d3a731e3e | E44        | E33      | GT         |
| 852b5a15-b002-11e7-9439-000d3a731e3e | E44        | E34      | GT         |
| 852b5a28-b002-11e7-9439-000d3a731e3e | E44        | E35      | GT         |
| 852b5a3d-b002-11e7-9439-000d3a731e3e | E44        | E36      | GT         |
| 852b5a51-b002-11e7-9439-000d3a731e3e | E44        | E37      | GT         |
| 852b5a65-b002-11e7-9439-000d3a731e3e | E44        | E38      | GT         |
| 852b5a79-b002-11e7-9439-000d3a731e3e | E44        | E39      | GT         |
| 852b5a8d-b002-11e7-9439-000d3a731e3e | E44        | E20      | GT         |
| 852b5aa2-b002-11e7-9439-000d3a731e3e | E44        | E21      | GT         |
| 852b5ab6-b002-11e7-9439-000d3a731e3e | E44        | E22      | GT         |
| 852b5ac9-b002-11e7-9439-000d3a731e3e | E44        | E23      | GT         |
| 852b5add-b002-11e7-9439-000d3a731e3e | E44        | E24      | GT         |
| 852b5af1-b002-11e7-9439-000d3a731e3e | E44        | E25      | GT         |
| 852b5b05-b002-11e7-9439-000d3a731e3e | E44        | E27      | GT         |
| 852b5b18-b002-11e7-9439-000d3a731e3e | E44        | E28      | GT         |
| 852b5b2c-b002-11e7-9439-000d3a731e3e | E44        | E29      | GT         |
| 852b5b3f-b002-11e7-9439-000d3a731e3e | E44        | E10      | GT         |
| 852b5b53-b002-11e7-9439-000d3a731e3e | E44        | E11      | GT         |
| 852b5b66-b002-11e7-9439-000d3a731e3e | E44        | E12      | GT         |
| 852b5b7a-b002-11e7-9439-000d3a731e3e | E44        | E13      | GT         |
| 852b5b8d-b002-11e7-9439-000d3a731e3e | E44        | M50      | GE         |
| 852b5ba1-b002-11e7-9439-000d3a731e3e | E44        | M40      | GT         |
| 852b5bb5-b002-11e7-9439-000d3a731e3e | E44        | M30      | GT         |
| 852b5bc8-b002-11e7-9439-000d3a731e3e | E44        | M20      | GT         |
| 852b5bdc-b002-11e7-9439-000d3a731e3e | E44        | M10      | GT         |
| 852b5bef-b002-11e7-9439-000d3a731e3e | E44        | P60      | GT         |
| 852b5c02-b002-11e7-9439-000d3a731e3e | E44        | P50      | GT         |
| 852b5c16-b002-11e7-9439-000d3a731e3e | E44        | P40      | GT         |
| 852b5c2b-b002-11e7-9439-000d3a731e3e | E44        | P30      | GT         |
| 852b5c3f-b002-11e7-9439-000d3a731e3e | E44        | P20      | GT         |
| 852b5c52-b002-11e7-9439-000d3a731e3e | E44        | P10      | GT         |
| 852b5c65-b002-11e7-9439-000d3a731e3e | E44        | S40      | GT         |
| 852b5c7a-b002-11e7-9439-000d3a731e3e | E44        | S30      | GT         |
| 852b5c8e-b002-11e7-9439-000d3a731e3e | E44        | S20      | GT         |
| 852b5ca1-b002-11e7-9439-000d3a731e3e | E44        | S10      | GT         |
| 852b5cb6-b002-11e7-9439-000d3a731e3e | E03        | E02      | GE         |
| 852b5cca-b002-11e7-9439-000d3a731e3e | E03        | E01      | GT         |
| 852b5cde-b002-11e7-9439-000d3a731e3e | E03        | M50      | GE         |
| 852b5cf0-b002-11e7-9439-000d3a731e3e | E03        | M40      | GE         |
| 852b5d03-b002-11e7-9439-000d3a731e3e | E03        | M30      | GT         |
| 852b5d17-b002-11e7-9439-000d3a731e3e | E03        | M20      | GT         |
| 852b5d2b-b002-11e7-9439-000d3a731e3e | E03        | M10      | GT         |
| 852b5d3e-b002-11e7-9439-000d3a731e3e | E03        | P60      | GT         |
| 852b5d51-b002-11e7-9439-000d3a731e3e | E03        | P50      | GT         |
| 852b5d64-b002-11e7-9439-000d3a731e3e | E03        | P40      | GT         |
| 852b5d78-b002-11e7-9439-000d3a731e3e | E03        | P30      | GT         |
| 852b5d8b-b002-11e7-9439-000d3a731e3e | E03        | P20      | GT         |
| 852b5d9f-b002-11e7-9439-000d3a731e3e | E03        | P10      | GT         |
| 852b5db3-b002-11e7-9439-000d3a731e3e | E03        | S40      | GT         |
| 852b5dc7-b002-11e7-9439-000d3a731e3e | E03        | S30      | GT         |
| 852b5dda-b002-11e7-9439-000d3a731e3e | E03        | S20      | GT         |
| 852b5dee-b002-11e7-9439-000d3a731e3e | E03        | S10      | GT         |
| 852b5e01-b002-11e7-9439-000d3a731e3e | E30        | E20      | GE         |
| 852b5e17-b002-11e7-9439-000d3a731e3e | E30        | E21      | GE         |
| 852b5e2a-b002-11e7-9439-000d3a731e3e | E30        | E22      | GE         |
| 852b5e3e-b002-11e7-9439-000d3a731e3e | E30        | E23      | GE         |
| 852b5e51-b002-11e7-9439-000d3a731e3e | E30        | E24      | GE         |
| 852b5e66-b002-11e7-9439-000d3a731e3e | E30        | E25      | GE         |
| 852b5e79-b002-11e7-9439-000d3a731e3e | E30        | E27      | GE         |
| 852b5e8d-b002-11e7-9439-000d3a731e3e | E30        | E28      | GE         |
| 852b5ea0-b002-11e7-9439-000d3a731e3e | E30        | E29      | GE         |
| 852b5eb6-b002-11e7-9439-000d3a731e3e | E30        | E10      | GT         |
| 852b5eca-b002-11e7-9439-000d3a731e3e | E30        | E11      | GT         |
| 852b5ede-b002-11e7-9439-000d3a731e3e | E30        | E12      | GT         |
| 852b5ef2-b002-11e7-9439-000d3a731e3e | E30        | E13      | GT         |
| 852b5f07-b002-11e7-9439-000d3a731e3e | E30        | M50      | GE         |
| 852b5f1a-b002-11e7-9439-000d3a731e3e | E30        | M40      | GE         |
| 852b5f2d-b002-11e7-9439-000d3a731e3e | E30        | M30      | GT         |
| 852b5f40-b002-11e7-9439-000d3a731e3e | E30        | M20      | GT         |
| 852b5f55-b002-11e7-9439-000d3a731e3e | E30        | M10      | GT         |
| 852b5f69-b002-11e7-9439-000d3a731e3e | E30        | P60      | GT         |
| 852b5f7c-b002-11e7-9439-000d3a731e3e | E30        | P50      | GT         |
| 852b5f8f-b002-11e7-9439-000d3a731e3e | E30        | P40      | GT         |
| 852b5fa3-b002-11e7-9439-000d3a731e3e | E30        | P30      | GT         |
| 852b5fb7-b002-11e7-9439-000d3a731e3e | E30        | P20      | GT         |
| 852b5fcb-b002-11e7-9439-000d3a731e3e | E30        | P10      | GT         |
| 852b5fdf-b002-11e7-9439-000d3a731e3e | E30        | S40      | GT         |
| 852b5ff3-b002-11e7-9439-000d3a731e3e | E30        | S30      | GT         |
| 852b6006-b002-11e7-9439-000d3a731e3e | E30        | S20      | GT         |
| 852b601a-b002-11e7-9439-000d3a731e3e | E30        | S10      | GT         |
| 852b602d-b002-11e7-9439-000d3a731e3e | E31        | E20      | GE         |
| 852b6041-b002-11e7-9439-000d3a731e3e | E31        | E21      | GE         |
| 852b6054-b002-11e7-9439-000d3a731e3e | E31        | E22      | GE         |
| 852b6067-b002-11e7-9439-000d3a731e3e | E31        | E23      | GE         |
| 852b607a-b002-11e7-9439-000d3a731e3e | E31        | E24      | GE         |
| 852b608d-b002-11e7-9439-000d3a731e3e | E31        | E25      | GE         |
| 852b60a1-b002-11e7-9439-000d3a731e3e | E31        | E27      | GE         |
| 852b60b4-b002-11e7-9439-000d3a731e3e | E31        | E28      | GE         |
| 852b60c7-b002-11e7-9439-000d3a731e3e | E31        | E29      | GE         |
| 852b60db-b002-11e7-9439-000d3a731e3e | E31        | E10      | GT         |
| 852b60ef-b002-11e7-9439-000d3a731e3e | E31        | E11      | GT         |
| 852b6103-b002-11e7-9439-000d3a731e3e | E31        | E12      | GT         |
| 852b6116-b002-11e7-9439-000d3a731e3e | E31        | E13      | GT         |
| 852b612a-b002-11e7-9439-000d3a731e3e | E31        | M50      | GE         |
| 852b613e-b002-11e7-9439-000d3a731e3e | E31        | M40      | GE         |
| 852b6152-b002-11e7-9439-000d3a731e3e | E31        | M30      | GT         |
| 852b6165-b002-11e7-9439-000d3a731e3e | E31        | M20      | GT         |
| 852b6178-b002-11e7-9439-000d3a731e3e | E31        | M10      | GT         |
| 852b618c-b002-11e7-9439-000d3a731e3e | E31        | P60      | GT         |
| 852b619f-b002-11e7-9439-000d3a731e3e | E31        | P50      | GT         |
| 852b61b3-b002-11e7-9439-000d3a731e3e | E31        | P40      | GT         |
| 852b61c7-b002-11e7-9439-000d3a731e3e | E31        | P30      | GT         |
| 852b61db-b002-11e7-9439-000d3a731e3e | E31        | P20      | GT         |
| 852b6267-b002-11e7-9439-000d3a731e3e | E31        | P10      | GT         |
| 852b6298-b002-11e7-9439-000d3a731e3e | E31        | S40      | GT         |
| 852b62b6-b002-11e7-9439-000d3a731e3e | E31        | S30      | GT         |
| 852b62d0-b002-11e7-9439-000d3a731e3e | E31        | S20      | GT         |
| 852b6359-b002-11e7-9439-000d3a731e3e | E31        | S10      | GT         |
| 852b636f-b002-11e7-9439-000d3a731e3e | E32        | E20      | GE         |
| 852b6384-b002-11e7-9439-000d3a731e3e | E32        | E21      | GE         |
| 852b639a-b002-11e7-9439-000d3a731e3e | E32        | E22      | GE         |
| 852b63ad-b002-11e7-9439-000d3a731e3e | E32        | E23      | GE         |
| 852b63c2-b002-11e7-9439-000d3a731e3e | E32        | E24      | GE         |
| 852b63d6-b002-11e7-9439-000d3a731e3e | E32        | E25      | GE         |
| 852b63ea-b002-11e7-9439-000d3a731e3e | E32        | E27      | GE         |
| 852b63fd-b002-11e7-9439-000d3a731e3e | E32        | E28      | GE         |
| 852b6410-b002-11e7-9439-000d3a731e3e | E32        | E29      | GE         |
| 852b6423-b002-11e7-9439-000d3a731e3e | E32        | E10      | GT         |
| 852b6438-b002-11e7-9439-000d3a731e3e | E32        | E11      | GT         |
| 852b644b-b002-11e7-9439-000d3a731e3e | E32        | E12      | GT         |
| 852b645f-b002-11e7-9439-000d3a731e3e | E32        | E13      | GT         |
| 852b6473-b002-11e7-9439-000d3a731e3e | E32        | M50      | GE         |
| 852b6487-b002-11e7-9439-000d3a731e3e | E32        | M40      | GE         |
| 852b649b-b002-11e7-9439-000d3a731e3e | E32        | M30      | GT         |
| 852b64af-b002-11e7-9439-000d3a731e3e | E32        | M20      | GT         |
| 852b64c2-b002-11e7-9439-000d3a731e3e | E32        | M10      | GT         |
| 852b6541-b002-11e7-9439-000d3a731e3e | E32        | P60      | GT         |
| 852b655a-b002-11e7-9439-000d3a731e3e | E32        | P50      | GT         |
| 852b6572-b002-11e7-9439-000d3a731e3e | E32        | P40      | GT         |
| 852b6588-b002-11e7-9439-000d3a731e3e | E32        | P30      | GT         |
| 852b659d-b002-11e7-9439-000d3a731e3e | E32        | P20      | GT         |
| 852b65b1-b002-11e7-9439-000d3a731e3e | E32        | P10      | GT         |
| 852b65c8-b002-11e7-9439-000d3a731e3e | E32        | S40      | GT         |
| 852b65df-b002-11e7-9439-000d3a731e3e | E32        | S30      | GT         |
| 852b65f3-b002-11e7-9439-000d3a731e3e | E32        | S20      | GT         |
| 852b6606-b002-11e7-9439-000d3a731e3e | E32        | S10      | GT         |
| 852b661a-b002-11e7-9439-000d3a731e3e | E33        | E20      | GE         |
| 852b662d-b002-11e7-9439-000d3a731e3e | E33        | E21      | GE         |
| 852b6641-b002-11e7-9439-000d3a731e3e | E33        | E22      | GE         |
| 852b6655-b002-11e7-9439-000d3a731e3e | E33        | E23      | GE         |
| 852b6668-b002-11e7-9439-000d3a731e3e | E33        | E24      | GE         |
| 852b667c-b002-11e7-9439-000d3a731e3e | E33        | E25      | GE         |
| 852b6690-b002-11e7-9439-000d3a731e3e | E33        | E27      | GE         |
| 852b66a4-b002-11e7-9439-000d3a731e3e | E33        | E28      | GE         |
| 852b66b8-b002-11e7-9439-000d3a731e3e | E33        | E29      | GE         |
| 852b66cb-b002-11e7-9439-000d3a731e3e | E33        | E10      | GT         |
| 852b66df-b002-11e7-9439-000d3a731e3e | E33        | E11      | GT         |
| 852b66f2-b002-11e7-9439-000d3a731e3e | E33        | E12      | GT         |
| 852b6705-b002-11e7-9439-000d3a731e3e | E33        | E13      | GT         |
| 852b6719-b002-11e7-9439-000d3a731e3e | E33        | M50      | GE         |
| 852b672d-b002-11e7-9439-000d3a731e3e | E33        | M40      | GE         |
| 852b6740-b002-11e7-9439-000d3a731e3e | E33        | M30      | GT         |
| 852b6753-b002-11e7-9439-000d3a731e3e | E33        | M20      | GT         |
| 852b6766-b002-11e7-9439-000d3a731e3e | E33        | M10      | GT         |
| 852b677a-b002-11e7-9439-000d3a731e3e | E33        | P60      | GT         |
| 852b678e-b002-11e7-9439-000d3a731e3e | E33        | P50      | GT         |
| 852b67a0-b002-11e7-9439-000d3a731e3e | E33        | P40      | GT         |
| 852b67b7-b002-11e7-9439-000d3a731e3e | E33        | P30      | GT         |
| 852b67cc-b002-11e7-9439-000d3a731e3e | E33        | P20      | GT         |
| 852b67e0-b002-11e7-9439-000d3a731e3e | E33        | P10      | GT         |
| 852b67f4-b002-11e7-9439-000d3a731e3e | E33        | S40      | GT         |
| 852b680a-b002-11e7-9439-000d3a731e3e | E33        | S30      | GT         |
| 852b681f-b002-11e7-9439-000d3a731e3e | E33        | S20      | GT         |
| 852b6832-b002-11e7-9439-000d3a731e3e | E33        | S10      | GT         |
| 852b6845-b002-11e7-9439-000d3a731e3e | E34        | E20      | GE         |
| 852b6858-b002-11e7-9439-000d3a731e3e | E34        | E21      | GE         |
| 852b686d-b002-11e7-9439-000d3a731e3e | E34        | E22      | GE         |
| 852b6881-b002-11e7-9439-000d3a731e3e | E34        | E23      | GE         |
| 852b6895-b002-11e7-9439-000d3a731e3e | E34        | E24      | GE         |
| 852b68a8-b002-11e7-9439-000d3a731e3e | E34        | E25      | GE         |
| 852b68bc-b002-11e7-9439-000d3a731e3e | E34        | E27      | GE         |
| 852b68d0-b002-11e7-9439-000d3a731e3e | E34        | E28      | GE         |
| 852b68e3-b002-11e7-9439-000d3a731e3e | E34        | E29      | GE         |
| 852b68f7-b002-11e7-9439-000d3a731e3e | E34        | E10      | GT         |
| 852b690b-b002-11e7-9439-000d3a731e3e | E34        | E11      | GT         |
| 852b691e-b002-11e7-9439-000d3a731e3e | E34        | E12      | GT         |
| 852b6931-b002-11e7-9439-000d3a731e3e | E34        | E13      | GT         |
| 852b6946-b002-11e7-9439-000d3a731e3e | E34        | M50      | GE         |
| 852b695a-b002-11e7-9439-000d3a731e3e | E34        | M40      | GE         |
| 852b696e-b002-11e7-9439-000d3a731e3e | E34        | M30      | GT         |
| 852b6981-b002-11e7-9439-000d3a731e3e | E34        | M20      | GT         |
| 852b6994-b002-11e7-9439-000d3a731e3e | E34        | M10      | GT         |
| 852b69aa-b002-11e7-9439-000d3a731e3e | E34        | P60      | GT         |
| 852b69be-b002-11e7-9439-000d3a731e3e | E34        | P50      | GT         |
| 852b69d1-b002-11e7-9439-000d3a731e3e | E34        | P40      | GT         |
| 852b69e4-b002-11e7-9439-000d3a731e3e | E34        | P30      | GT         |
| 852b69fa-b002-11e7-9439-000d3a731e3e | E34        | P20      | GT         |
| 852b6a0e-b002-11e7-9439-000d3a731e3e | E34        | P10      | GT         |
| 852b6a22-b002-11e7-9439-000d3a731e3e | E34        | S40      | GT         |
| 852b6a35-b002-11e7-9439-000d3a731e3e | E34        | S30      | GT         |
| 852b6aa8-b002-11e7-9439-000d3a731e3e | E34        | S20      | GT         |
| 852b6ac3-b002-11e7-9439-000d3a731e3e | E34        | S10      | GT         |
| 852b6ad8-b002-11e7-9439-000d3a731e3e | E35        | E20      | GE         |
| 852b6aec-b002-11e7-9439-000d3a731e3e | E35        | E21      | GE         |
| 852b6b03-b002-11e7-9439-000d3a731e3e | E35        | E22      | GE         |
| 852b6b18-b002-11e7-9439-000d3a731e3e | E35        | E23      | GE         |
| 852b6b70-b002-11e7-9439-000d3a731e3e | E35        | E24      | GE         |
| 852b6b85-b002-11e7-9439-000d3a731e3e | E35        | E25      | GE         |
| 852b6b99-b002-11e7-9439-000d3a731e3e | E35        | E27      | GE         |
| 852b6bad-b002-11e7-9439-000d3a731e3e | E35        | E28      | GE         |
| 852b6bc1-b002-11e7-9439-000d3a731e3e | E35        | E29      | GE         |
| 852b6bd6-b002-11e7-9439-000d3a731e3e | E35        | E10      | GT         |
| 852b6beb-b002-11e7-9439-000d3a731e3e | E35        | E11      | GT         |
| 852b6bff-b002-11e7-9439-000d3a731e3e | E35        | E12      | GT         |
| 852b6c12-b002-11e7-9439-000d3a731e3e | E35        | E13      | GT         |
| 852b6c26-b002-11e7-9439-000d3a731e3e | E35        | M50      | GE         |
| 852b6c3b-b002-11e7-9439-000d3a731e3e | E35        | M40      | GE         |
| 852b6c50-b002-11e7-9439-000d3a731e3e | E35        | M30      | GT         |
| 852b6c63-b002-11e7-9439-000d3a731e3e | E35        | M20      | GT         |
| 852b6c76-b002-11e7-9439-000d3a731e3e | E35        | M10      | GT         |
| 852b6c8a-b002-11e7-9439-000d3a731e3e | E35        | P60      | GT         |
| 852b6ca0-b002-11e7-9439-000d3a731e3e | E35        | P50      | GT         |
| 852b6cb3-b002-11e7-9439-000d3a731e3e | E35        | P40      | GT         |
| 852b6cc7-b002-11e7-9439-000d3a731e3e | E35        | P30      | GT         |
| 852b6cdb-b002-11e7-9439-000d3a731e3e | E35        | P20      | GT         |
| 852b6cf1-b002-11e7-9439-000d3a731e3e | E35        | P10      | GT         |
| 852b6d05-b002-11e7-9439-000d3a731e3e | E35        | S40      | GT         |
| 852b6d18-b002-11e7-9439-000d3a731e3e | E35        | S30      | GT         |
| 852b6d2d-b002-11e7-9439-000d3a731e3e | E35        | S20      | GT         |
| 852b6d41-b002-11e7-9439-000d3a731e3e | E35        | S10      | GT         |
| 852b6d56-b002-11e7-9439-000d3a731e3e | E36        | E20      | GE         |
| 852b6d6a-b002-11e7-9439-000d3a731e3e | E36        | E21      | GE         |
| 852b6d7e-b002-11e7-9439-000d3a731e3e | E36        | E22      | GE         |
| 852b6d95-b002-11e7-9439-000d3a731e3e | E36        | E23      | GE         |
| 852b6daa-b002-11e7-9439-000d3a731e3e | E36        | E24      | GE         |
| 852b6dbe-b002-11e7-9439-000d3a731e3e | E36        | E25      | GE         |
| 852b6dd2-b002-11e7-9439-000d3a731e3e | E36        | E27      | GE         |
| 852b6de7-b002-11e7-9439-000d3a731e3e | E36        | E28      | GE         |
| 852b6dfb-b002-11e7-9439-000d3a731e3e | E36        | E29      | GE         |
| 852b6e0e-b002-11e7-9439-000d3a731e3e | E36        | E10      | GT         |
| 852b6e22-b002-11e7-9439-000d3a731e3e | E36        | E11      | GT         |
| 852b6e37-b002-11e7-9439-000d3a731e3e | E36        | E12      | GT         |
| 852b6e4a-b002-11e7-9439-000d3a731e3e | E36        | E13      | GT         |
| 852b6e5d-b002-11e7-9439-000d3a731e3e | E36        | M50      | GE         |
| 852b6e72-b002-11e7-9439-000d3a731e3e | E36        | M40      | GE         |
| 852b6e86-b002-11e7-9439-000d3a731e3e | E36        | M30      | GT         |
| 852b6e99-b002-11e7-9439-000d3a731e3e | E36        | M20      | GT         |
| 852b6eac-b002-11e7-9439-000d3a731e3e | E36        | M10      | GT         |
| 852b6ec0-b002-11e7-9439-000d3a731e3e | E36        | P60      | GT         |
| 852b6ed4-b002-11e7-9439-000d3a731e3e | E36        | P50      | GT         |
| 852b6ee7-b002-11e7-9439-000d3a731e3e | E36        | P40      | GT         |
| 852b6ef9-b002-11e7-9439-000d3a731e3e | E36        | P30      | GT         |
| 852b6f0d-b002-11e7-9439-000d3a731e3e | E36        | P20      | GT         |
| 852b6f21-b002-11e7-9439-000d3a731e3e | E36        | P10      | GT         |
| 852b6f35-b002-11e7-9439-000d3a731e3e | E36        | S40      | GT         |
| 852b6f48-b002-11e7-9439-000d3a731e3e | E36        | S30      | GT         |
| 852b6f5b-b002-11e7-9439-000d3a731e3e | E36        | S20      | GT         |
| 852b6f6f-b002-11e7-9439-000d3a731e3e | E36        | S10      | GT         |
| 852b6f83-b002-11e7-9439-000d3a731e3e | E37        | E20      | GE         |
| 852b6f96-b002-11e7-9439-000d3a731e3e | E37        | E21      | GE         |
| 852b6faa-b002-11e7-9439-000d3a731e3e | E37        | E22      | GE         |
| 852b6fbd-b002-11e7-9439-000d3a731e3e | E37        | E23      | GE         |
| 852b6fd1-b002-11e7-9439-000d3a731e3e | E37        | E24      | GE         |
| 852b6fe4-b002-11e7-9439-000d3a731e3e | E37        | E25      | GE         |
| 852b6ff9-b002-11e7-9439-000d3a731e3e | E37        | E27      | GE         |
| 852b700d-b002-11e7-9439-000d3a731e3e | E37        | E28      | GE         |
| 852b7022-b002-11e7-9439-000d3a731e3e | E37        | E29      | GE         |
| 852b7035-b002-11e7-9439-000d3a731e3e | E37        | E10      | GT         |
| 852b7049-b002-11e7-9439-000d3a731e3e | E37        | E11      | GT         |
| 852b705d-b002-11e7-9439-000d3a731e3e | E37        | E12      | GT         |
| 852b7070-b002-11e7-9439-000d3a731e3e | E37        | E13      | GT         |
| 852b7083-b002-11e7-9439-000d3a731e3e | E37        | M50      | GE         |
| 852b7097-b002-11e7-9439-000d3a731e3e | E37        | M40      | GE         |
| 852b70aa-b002-11e7-9439-000d3a731e3e | E37        | M30      | GT         |
| 852b70be-b002-11e7-9439-000d3a731e3e | E37        | M20      | GT         |
| 852b70d1-b002-11e7-9439-000d3a731e3e | E37        | M10      | GT         |
| 852b70e4-b002-11e7-9439-000d3a731e3e | E37        | P60      | GT         |
| 852b70f8-b002-11e7-9439-000d3a731e3e | E37        | P50      | GT         |
| 852b710b-b002-11e7-9439-000d3a731e3e | E37        | P40      | GT         |
| 852b711f-b002-11e7-9439-000d3a731e3e | E37        | P30      | GT         |
| 852b7132-b002-11e7-9439-000d3a731e3e | E37        | P20      | GT         |
| 852b7145-b002-11e7-9439-000d3a731e3e | E37        | P10      | GT         |
| 852b7159-b002-11e7-9439-000d3a731e3e | E37        | S40      | GT         |
| 852b716d-b002-11e7-9439-000d3a731e3e | E37        | S30      | GT         |
| 852b7180-b002-11e7-9439-000d3a731e3e | E37        | S20      | GT         |
| 852b7194-b002-11e7-9439-000d3a731e3e | E37        | S10      | GT         |
| 852b71a6-b002-11e7-9439-000d3a731e3e | E38        | E20      | GE         |
| 852b71bb-b002-11e7-9439-000d3a731e3e | E38        | E21      | GE         |
| 852b71cf-b002-11e7-9439-000d3a731e3e | E38        | E22      | GE         |
| 852b71e2-b002-11e7-9439-000d3a731e3e | E38        | E23      | GE         |
| 852b71f5-b002-11e7-9439-000d3a731e3e | E38        | E24      | GE         |
| 852b7209-b002-11e7-9439-000d3a731e3e | E38        | E25      | GE         |
| 852b721d-b002-11e7-9439-000d3a731e3e | E38        | E27      | GE         |
| 852b7230-b002-11e7-9439-000d3a731e3e | E38        | E28      | GE         |
| 852b7243-b002-11e7-9439-000d3a731e3e | E38        | E29      | GE         |
| 852b7257-b002-11e7-9439-000d3a731e3e | E38        | E10      | GT         |
| 852b726b-b002-11e7-9439-000d3a731e3e | E38        | E11      | GT         |
| 852b727f-b002-11e7-9439-000d3a731e3e | E38        | E12      | GT         |
| 852b7293-b002-11e7-9439-000d3a731e3e | E38        | E13      | GT         |
| 852b72a8-b002-11e7-9439-000d3a731e3e | E38        | M50      | GE         |
| 852b72bc-b002-11e7-9439-000d3a731e3e | E38        | M40      | GE         |
| 852b72cf-b002-11e7-9439-000d3a731e3e | E38        | M30      | GT         |
| 852b72e2-b002-11e7-9439-000d3a731e3e | E38        | M20      | GT         |
| 852b72f6-b002-11e7-9439-000d3a731e3e | E38        | M10      | GT         |
| 852b730a-b002-11e7-9439-000d3a731e3e | E38        | P60      | GT         |
| 852b731d-b002-11e7-9439-000d3a731e3e | E38        | P50      | GT         |
| 852b7330-b002-11e7-9439-000d3a731e3e | E38        | P40      | GT         |
| 852b7344-b002-11e7-9439-000d3a731e3e | E38        | P30      | GT         |
| 852b7358-b002-11e7-9439-000d3a731e3e | E38        | P20      | GT         |
| 852b736c-b002-11e7-9439-000d3a731e3e | E38        | P10      | GT         |
| 852b737e-b002-11e7-9439-000d3a731e3e | E38        | S40      | GT         |
| 852b7392-b002-11e7-9439-000d3a731e3e | E38        | S30      | GT         |
| 852b73a6-b002-11e7-9439-000d3a731e3e | E38        | S20      | GT         |
| 852b73b9-b002-11e7-9439-000d3a731e3e | E38        | S10      | GT         |
| 852b73cc-b002-11e7-9439-000d3a731e3e | E39        | E20      | GE         |
| 852b73df-b002-11e7-9439-000d3a731e3e | E39        | E21      | GE         |
| 852b73f4-b002-11e7-9439-000d3a731e3e | E39        | E22      | GE         |
| 852b7407-b002-11e7-9439-000d3a731e3e | E39        | E23      | GE         |
| 852b741a-b002-11e7-9439-000d3a731e3e | E39        | E24      | GE         |
| 852b742d-b002-11e7-9439-000d3a731e3e | E39        | E25      | GE         |
| 852b7442-b002-11e7-9439-000d3a731e3e | E39        | E27      | GE         |
| 852b7456-b002-11e7-9439-000d3a731e3e | E39        | E28      | GE         |
| 852b7469-b002-11e7-9439-000d3a731e3e | E39        | E29      | GE         |
| 852b747d-b002-11e7-9439-000d3a731e3e | E39        | E10      | GT         |
| 852b7492-b002-11e7-9439-000d3a731e3e | E39        | E11      | GT         |
| 852b74a6-b002-11e7-9439-000d3a731e3e | E39        | E12      | GT         |
| 852b74b9-b002-11e7-9439-000d3a731e3e | E39        | E13      | GT         |
| 852b74cc-b002-11e7-9439-000d3a731e3e | E39        | M50      | GE         |
| 852b74e1-b002-11e7-9439-000d3a731e3e | E39        | M40      | GE         |
| 852b74f6-b002-11e7-9439-000d3a731e3e | E39        | M30      | GT         |
| 852b750a-b002-11e7-9439-000d3a731e3e | E39        | M20      | GT         |
| 852b751e-b002-11e7-9439-000d3a731e3e | E39        | M10      | GT         |
| 852b7534-b002-11e7-9439-000d3a731e3e | E39        | P60      | GT         |
| 852b7548-b002-11e7-9439-000d3a731e3e | E39        | P50      | GT         |
| 852b755c-b002-11e7-9439-000d3a731e3e | E39        | P40      | GT         |
| 852b7570-b002-11e7-9439-000d3a731e3e | E39        | P30      | GT         |
| 852b7585-b002-11e7-9439-000d3a731e3e | E39        | P20      | GT         |
| 852b7599-b002-11e7-9439-000d3a731e3e | E39        | P10      | GT         |
| 852b7623-b002-11e7-9439-000d3a731e3e | E39        | S40      | GT         |
| 852b7653-b002-11e7-9439-000d3a731e3e | E39        | S30      | GT         |
| 852b766e-b002-11e7-9439-000d3a731e3e | E39        | S20      | GT         |
| 852b7688-b002-11e7-9439-000d3a731e3e | E39        | S10      | GT         |
| 852b769d-b002-11e7-9439-000d3a731e3e | E02        | E01      | GE         |
| 852b76b1-b002-11e7-9439-000d3a731e3e | E02        | M50      | GE         |
| 852b76c4-b002-11e7-9439-000d3a731e3e | E02        | M40      | GE         |
| 852b76d9-b002-11e7-9439-000d3a731e3e | E02        | M30      | GE         |
| 852b76ed-b002-11e7-9439-000d3a731e3e | E02        | M20      | GT         |
| 852b7702-b002-11e7-9439-000d3a731e3e | E02        | M10      | GT         |
| 852b7717-b002-11e7-9439-000d3a731e3e | E02        | P60      | GE         |
| 852b772c-b002-11e7-9439-000d3a731e3e | E02        | P50      | GT         |
| 852b773f-b002-11e7-9439-000d3a731e3e | E02        | P40      | GT         |
| 852b7754-b002-11e7-9439-000d3a731e3e | E02        | P30      | GT         |
| 852b7768-b002-11e7-9439-000d3a731e3e | E02        | P20      | GT         |
| 852b777b-b002-11e7-9439-000d3a731e3e | E02        | P10      | GT         |
| 852b778e-b002-11e7-9439-000d3a731e3e | E02        | S40      | GT         |
| 852b77a2-b002-11e7-9439-000d3a731e3e | E02        | S30      | GT         |
| 852b77b7-b002-11e7-9439-000d3a731e3e | E02        | S20      | GT         |
| 852b77cc-b002-11e7-9439-000d3a731e3e | E02        | S10      | GT         |
| 852b77df-b002-11e7-9439-000d3a731e3e | E20        | E10      | GE         |
| 852b77f3-b002-11e7-9439-000d3a731e3e | E20        | E11      | GE         |
| 852b7807-b002-11e7-9439-000d3a731e3e | E20        | E12      | GE         |
| 852b781c-b002-11e7-9439-000d3a731e3e | E20        | E13      | GE         |
| 852b7830-b002-11e7-9439-000d3a731e3e | E20        | M50      | GE         |
| 852b7843-b002-11e7-9439-000d3a731e3e | E20        | M40      | GE         |
| 852b7859-b002-11e7-9439-000d3a731e3e | E20        | M30      | GE         |
| 852b786e-b002-11e7-9439-000d3a731e3e | E20        | M20      | GT         |
| 852b7881-b002-11e7-9439-000d3a731e3e | E20        | M10      | GT         |
| 852b7894-b002-11e7-9439-000d3a731e3e | E20        | P60      | GE         |
| 852b78a8-b002-11e7-9439-000d3a731e3e | E20        | P50      | GT         |
| 852b78bd-b002-11e7-9439-000d3a731e3e | E20        | P40      | GT         |
| 852b78d1-b002-11e7-9439-000d3a731e3e | E20        | P30      | GT         |
| 852b78e4-b002-11e7-9439-000d3a731e3e | E20        | P20      | GT         |
| 852b78f8-b002-11e7-9439-000d3a731e3e | E20        | P10      | GT         |
| 852b790d-b002-11e7-9439-000d3a731e3e | E20        | S40      | GT         |
| 852b7920-b002-11e7-9439-000d3a731e3e | E20        | S30      | GT         |
| 852b7933-b002-11e7-9439-000d3a731e3e | E20        | S20      | GT         |
| 852b7947-b002-11e7-9439-000d3a731e3e | E20        | S10      | GT         |
| 852b795b-b002-11e7-9439-000d3a731e3e | E21        | E10      | GE         |
| 852b796f-b002-11e7-9439-000d3a731e3e | E21        | E11      | GE         |
| 852b7982-b002-11e7-9439-000d3a731e3e | E21        | E12      | GE         |
| 852b7996-b002-11e7-9439-000d3a731e3e | E21        | E13      | GE         |
| 852b79aa-b002-11e7-9439-000d3a731e3e | E21        | M50      | GE         |
| 852b79bd-b002-11e7-9439-000d3a731e3e | E21        | M40      | GE         |
| 852b79d0-b002-11e7-9439-000d3a731e3e | E21        | M30      | GE         |
| 852b79e4-b002-11e7-9439-000d3a731e3e | E21        | M20      | GT         |
| 852b79f8-b002-11e7-9439-000d3a731e3e | E21        | M10      | GT         |
| 852b7a0b-b002-11e7-9439-000d3a731e3e | E21        | P60      | GE         |
| 852b7a1f-b002-11e7-9439-000d3a731e3e | E21        | P50      | GT         |
| 852b7a32-b002-11e7-9439-000d3a731e3e | E21        | P40      | GT         |
| 852b7a47-b002-11e7-9439-000d3a731e3e | E21        | P30      | GT         |
| 852b7a5a-b002-11e7-9439-000d3a731e3e | E21        | P20      | GT         |
| 852b7a6d-b002-11e7-9439-000d3a731e3e | E21        | P10      | GT         |
| 852b7a81-b002-11e7-9439-000d3a731e3e | E21        | S40      | GT         |
| 852b7a96-b002-11e7-9439-000d3a731e3e | E21        | S30      | GT         |
| 852b7aaa-b002-11e7-9439-000d3a731e3e | E21        | S20      | GT         |
| 852b7abd-b002-11e7-9439-000d3a731e3e | E21        | S10      | GT         |
| 852b7ad1-b002-11e7-9439-000d3a731e3e | E22        | E10      | GE         |
| 852b7ae6-b002-11e7-9439-000d3a731e3e | E22        | E11      | GE         |
| 852b7afa-b002-11e7-9439-000d3a731e3e | E22        | E12      | GE         |
| 852b7b0d-b002-11e7-9439-000d3a731e3e | E22        | E13      | GE         |
| 852b7b20-b002-11e7-9439-000d3a731e3e | E22        | M50      | GE         |
| 852b7b35-b002-11e7-9439-000d3a731e3e | E22        | M40      | GE         |
| 852b7b49-b002-11e7-9439-000d3a731e3e | E22        | M30      | GE         |
| 852b7b5c-b002-11e7-9439-000d3a731e3e | E22        | M20      | GT         |
| 852b7b70-b002-11e7-9439-000d3a731e3e | E22        | M10      | GT         |
| 852b7b84-b002-11e7-9439-000d3a731e3e | E22        | P60      | GE         |
| 852b7c89-b002-11e7-9439-000d3a731e3e | E22        | P50      | GT         |
| 852b7cad-b002-11e7-9439-000d3a731e3e | E22        | P40      | GT         |
| 852b7cc1-b002-11e7-9439-000d3a731e3e | E22        | P30      | GT         |
| 852b7cd8-b002-11e7-9439-000d3a731e3e | E22        | P20      | GT         |
| 852b7cec-b002-11e7-9439-000d3a731e3e | E22        | P10      | GT         |
| 852b7cff-b002-11e7-9439-000d3a731e3e | E22        | S40      | GT         |
| 852b7d11-b002-11e7-9439-000d3a731e3e | E22        | S30      | GT         |
| 852b7d26-b002-11e7-9439-000d3a731e3e | E22        | S20      | GT         |
| 852b7d3a-b002-11e7-9439-000d3a731e3e | E22        | S10      | GT         |
| 852b7d4e-b002-11e7-9439-000d3a731e3e | E23        | E10      | GE         |
| 852b7d61-b002-11e7-9439-000d3a731e3e | E23        | E11      | GE         |
| 852b7d76-b002-11e7-9439-000d3a731e3e | E23        | E12      | GE         |
| 852b7d8a-b002-11e7-9439-000d3a731e3e | E23        | E13      | GE         |
| 852b7d9d-b002-11e7-9439-000d3a731e3e | E23        | M50      | GE         |
| 852b7db0-b002-11e7-9439-000d3a731e3e | E23        | M40      | GE         |
| 852b7dc4-b002-11e7-9439-000d3a731e3e | E23        | M30      | GE         |
| 852b7dd8-b002-11e7-9439-000d3a731e3e | E23        | M20      | GT         |
| 852b7deb-b002-11e7-9439-000d3a731e3e | E23        | M10      | GT         |
| 852b7e00-b002-11e7-9439-000d3a731e3e | E23        | P60      | GE         |
| 852b7e15-b002-11e7-9439-000d3a731e3e | E23        | P50      | GT         |
| 852b7e29-b002-11e7-9439-000d3a731e3e | E23        | P40      | GT         |
| 852b7e3c-b002-11e7-9439-000d3a731e3e | E23        | P30      | GT         |
| 852b7e4f-b002-11e7-9439-000d3a731e3e | E23        | P20      | GT         |
| 852b7e64-b002-11e7-9439-000d3a731e3e | E23        | P10      | GT         |
| 852b7e7a-b002-11e7-9439-000d3a731e3e | E23        | S40      | GT         |
| 852b7e8f-b002-11e7-9439-000d3a731e3e | E23        | S30      | GT         |
| 852b7ea3-b002-11e7-9439-000d3a731e3e | E23        | S20      | GT         |
| 852b7eb8-b002-11e7-9439-000d3a731e3e | E23        | S10      | GT         |
| 852b7ed0-b002-11e7-9439-000d3a731e3e | E24        | E10      | GE         |
| 852b7ee4-b002-11e7-9439-000d3a731e3e | E24        | E11      | GE         |
| 852b7ef7-b002-11e7-9439-000d3a731e3e | E24        | E12      | GE         |
| 852b7f0b-b002-11e7-9439-000d3a731e3e | E24        | E13      | GE         |
| 852b7f1f-b002-11e7-9439-000d3a731e3e | E24        | M50      | GE         |
| 852b7f32-b002-11e7-9439-000d3a731e3e | E24        | M40      | GE         |
| 852b7f46-b002-11e7-9439-000d3a731e3e | E24        | M30      | GE         |
| 852b7f59-b002-11e7-9439-000d3a731e3e | E24        | M20      | GT         |
| 852b7f6e-b002-11e7-9439-000d3a731e3e | E24        | M10      | GT         |
| 852b7f81-b002-11e7-9439-000d3a731e3e | E24        | P60      | GE         |
| 852b7f94-b002-11e7-9439-000d3a731e3e | E24        | P50      | GT         |
| 852b7fa8-b002-11e7-9439-000d3a731e3e | E24        | P40      | GT         |
| 852b7fbc-b002-11e7-9439-000d3a731e3e | E24        | P30      | GT         |
| 852b7fd0-b002-11e7-9439-000d3a731e3e | E24        | P20      | GT         |
| 852b7fe2-b002-11e7-9439-000d3a731e3e | E24        | P10      | GT         |
| 852b7ff6-b002-11e7-9439-000d3a731e3e | E24        | S40      | GT         |
| 852b8008-b002-11e7-9439-000d3a731e3e | E24        | S30      | GT         |
| 852b801c-b002-11e7-9439-000d3a731e3e | E24        | S20      | GT         |
| 852b8030-b002-11e7-9439-000d3a731e3e | E24        | S10      | GT         |
| 852b8043-b002-11e7-9439-000d3a731e3e | E25        | E10      | GE         |
| 852b8056-b002-11e7-9439-000d3a731e3e | E25        | E11      | GE         |
| 852b806a-b002-11e7-9439-000d3a731e3e | E25        | E12      | GE         |
| 852b807d-b002-11e7-9439-000d3a731e3e | E25        | E13      | GE         |
| 852b8091-b002-11e7-9439-000d3a731e3e | E25        | M50      | GE         |
| 852b80a4-b002-11e7-9439-000d3a731e3e | E25        | M40      | GE         |
| 852b80b8-b002-11e7-9439-000d3a731e3e | E25        | M30      | GE         |
| 852b80cb-b002-11e7-9439-000d3a731e3e | E25        | M20      | GT         |
| 852b80df-b002-11e7-9439-000d3a731e3e | E25        | M10      | GT         |
| 852b80f2-b002-11e7-9439-000d3a731e3e | E25        | P60      | GE         |
| 852b8107-b002-11e7-9439-000d3a731e3e | E25        | P50      | GT         |
| 852b811a-b002-11e7-9439-000d3a731e3e | E25        | P40      | GT         |
| 852b812d-b002-11e7-9439-000d3a731e3e | E25        | P30      | GT         |
| 852b8140-b002-11e7-9439-000d3a731e3e | E25        | P20      | GT         |
| 852b8154-b002-11e7-9439-000d3a731e3e | E25        | P10      | GT         |
| 852b8167-b002-11e7-9439-000d3a731e3e | E25        | S40      | GT         |
| 852b817b-b002-11e7-9439-000d3a731e3e | E25        | S30      | GT         |
| 852b818e-b002-11e7-9439-000d3a731e3e | E25        | S20      | GT         |
| 852b81a2-b002-11e7-9439-000d3a731e3e | E25        | S10      | GT         |
| 852b81b5-b002-11e7-9439-000d3a731e3e | E26        | E10      | GE         |
| 852b81c8-b002-11e7-9439-000d3a731e3e | E26        | E11      | GE         |
| 852b81db-b002-11e7-9439-000d3a731e3e | E26        | E12      | GE         |
| 852b81ef-b002-11e7-9439-000d3a731e3e | E26        | E13      | GE         |
| 852b8203-b002-11e7-9439-000d3a731e3e | E26        | M50      | GE         |
| 852b8217-b002-11e7-9439-000d3a731e3e | E26        | M40      | GE         |
| 852b822b-b002-11e7-9439-000d3a731e3e | E26        | M30      | GE         |
| 852b823e-b002-11e7-9439-000d3a731e3e | E26        | M20      | GT         |
| 852b8252-b002-11e7-9439-000d3a731e3e | E26        | M10      | GT         |
| 852b8266-b002-11e7-9439-000d3a731e3e | E26        | P60      | GE         |
| 852b8279-b002-11e7-9439-000d3a731e3e | E26        | P50      | GT         |
| 852b828c-b002-11e7-9439-000d3a731e3e | E26        | P40      | GT         |
| 852b82a0-b002-11e7-9439-000d3a731e3e | E26        | P30      | GT         |
| 852b82b4-b002-11e7-9439-000d3a731e3e | E26        | P20      | GT         |
| 852b82c7-b002-11e7-9439-000d3a731e3e | E26        | P10      | GT         |
| 852b82db-b002-11e7-9439-000d3a731e3e | E26        | S40      | GT         |
| 852b82ef-b002-11e7-9439-000d3a731e3e | E26        | S30      | GT         |
| 852b8303-b002-11e7-9439-000d3a731e3e | E26        | S20      | GT         |
| 852b8317-b002-11e7-9439-000d3a731e3e | E26        | S10      | GT         |
| 852b832a-b002-11e7-9439-000d3a731e3e | E27        | E10      | GE         |
| 852b833e-b002-11e7-9439-000d3a731e3e | E27        | E11      | GE         |
| 852b8351-b002-11e7-9439-000d3a731e3e | E27        | E12      | GE         |
| 852b8364-b002-11e7-9439-000d3a731e3e | E27        | E13      | GE         |
| 852b8377-b002-11e7-9439-000d3a731e3e | E27        | M50      | GE         |
| 852b838d-b002-11e7-9439-000d3a731e3e | E27        | M40      | GE         |
| 852b83a1-b002-11e7-9439-000d3a731e3e | E27        | M30      | GE         |
| 852b8400-b002-11e7-9439-000d3a731e3e | E27        | M20      | GT         |
| 852b8416-b002-11e7-9439-000d3a731e3e | E27        | M10      | GT         |
| 852b842a-b002-11e7-9439-000d3a731e3e | E27        | P60      | GE         |
| 852b843e-b002-11e7-9439-000d3a731e3e | E27        | P50      | GT         |
| 852b8452-b002-11e7-9439-000d3a731e3e | E27        | P40      | GT         |
| 852b8465-b002-11e7-9439-000d3a731e3e | E27        | P30      | GT         |
| 852b8478-b002-11e7-9439-000d3a731e3e | E27        | P20      | GT         |
| 852b848d-b002-11e7-9439-000d3a731e3e | E27        | P10      | GT         |
| 852b84a1-b002-11e7-9439-000d3a731e3e | E27        | S40      | GT         |
| 852b84b6-b002-11e7-9439-000d3a731e3e | E27        | S30      | GT         |
| 852b84ca-b002-11e7-9439-000d3a731e3e | E27        | S20      | GT         |
| 852b84df-b002-11e7-9439-000d3a731e3e | E27        | S10      | GT         |
| 852b84f4-b002-11e7-9439-000d3a731e3e | E28        | E10      | GE         |
| 852b8508-b002-11e7-9439-000d3a731e3e | E28        | E11      | GE         |
| 852b851d-b002-11e7-9439-000d3a731e3e | E28        | E12      | GE         |
| 852b8531-b002-11e7-9439-000d3a731e3e | E28        | E13      | GE         |
| 852b8545-b002-11e7-9439-000d3a731e3e | E28        | M50      | GE         |
| 852b8559-b002-11e7-9439-000d3a731e3e | E28        | M40      | GE         |
| 852b856d-b002-11e7-9439-000d3a731e3e | E28        | M30      | GE         |
| 852b8581-b002-11e7-9439-000d3a731e3e | E28        | M20      | GT         |
| 852b8595-b002-11e7-9439-000d3a731e3e | E28        | M10      | GT         |
| 852b85a9-b002-11e7-9439-000d3a731e3e | E28        | P60      | GE         |
| 852b85bd-b002-11e7-9439-000d3a731e3e | E28        | P50      | GT         |
| 852b85d2-b002-11e7-9439-000d3a731e3e | E28        | P40      | GT         |
| 852b85e7-b002-11e7-9439-000d3a731e3e | E28        | P30      | GT         |
| 852b85fa-b002-11e7-9439-000d3a731e3e | E28        | P20      | GT         |
| 852b8610-b002-11e7-9439-000d3a731e3e | E28        | P10      | GT         |
| 852b8625-b002-11e7-9439-000d3a731e3e | E28        | S40      | GT         |
| 852b863a-b002-11e7-9439-000d3a731e3e | E28        | S30      | GT         |
| 852b864d-b002-11e7-9439-000d3a731e3e | E28        | S20      | GT         |
| 852b8662-b002-11e7-9439-000d3a731e3e | E28        | S10      | GT         |
| 852b867a-b002-11e7-9439-000d3a731e3e | E29        | E10      | GE         |
| 852b8690-b002-11e7-9439-000d3a731e3e | E29        | E11      | GE         |
| 852b86a5-b002-11e7-9439-000d3a731e3e | E29        | E12      | GE         |
| 852b86bb-b002-11e7-9439-000d3a731e3e | E29        | E13      | GE         |
| 852b86d0-b002-11e7-9439-000d3a731e3e | E29        | M50      | GE         |
| 852b86e4-b002-11e7-9439-000d3a731e3e | E29        | M40      | GE         |
| 852b86f8-b002-11e7-9439-000d3a731e3e | E29        | M30      | GE         |
| 852b870c-b002-11e7-9439-000d3a731e3e | E29        | M20      | GT         |
| 852b8720-b002-11e7-9439-000d3a731e3e | E29        | M10      | GT         |
| 852b8734-b002-11e7-9439-000d3a731e3e | E29        | P60      | GE         |
| 852b8748-b002-11e7-9439-000d3a731e3e | E29        | P50      | GT         |
| 852b875b-b002-11e7-9439-000d3a731e3e | E29        | P40      | GT         |
| 852b8770-b002-11e7-9439-000d3a731e3e | E29        | P30      | GT         |
| 852b8784-b002-11e7-9439-000d3a731e3e | E29        | P20      | GT         |
| 852b8798-b002-11e7-9439-000d3a731e3e | E29        | P10      | GT         |
| 852b87ab-b002-11e7-9439-000d3a731e3e | E29        | S40      | GT         |
| 852b87c0-b002-11e7-9439-000d3a731e3e | E29        | S30      | GT         |
| 852b87d4-b002-11e7-9439-000d3a731e3e | E29        | S20      | GT         |
| 852b87e7-b002-11e7-9439-000d3a731e3e | E29        | S10      | GT         |
| 852b87fb-b002-11e7-9439-000d3a731e3e | E01        | M50      | GE         |
| 852b880f-b002-11e7-9439-000d3a731e3e | E01        | M40      | GE         |
| 852b8823-b002-11e7-9439-000d3a731e3e | E01        | M30      | GE         |
| 852b8836-b002-11e7-9439-000d3a731e3e | E01        | M20      | GE         |
| 852b8849-b002-11e7-9439-000d3a731e3e | E01        | M10      | GT         |
| 852b885f-b002-11e7-9439-000d3a731e3e | E01        | P60      | GE         |
| 852b8873-b002-11e7-9439-000d3a731e3e | E01        | P50      | GE         |
| 852b8886-b002-11e7-9439-000d3a731e3e | E01        | P40      | GT         |
| 852b889a-b002-11e7-9439-000d3a731e3e | E01        | P30      | GT         |
| 852b88af-b002-11e7-9439-000d3a731e3e | E01        | P20      | GT         |
| 852b88c3-b002-11e7-9439-000d3a731e3e | E01        | P10      | GT         |
| 852b88d6-b002-11e7-9439-000d3a731e3e | E01        | S40      | GT         |
| 852b88ea-b002-11e7-9439-000d3a731e3e | E01        | S30      | GT         |
| 852b8900-b002-11e7-9439-000d3a731e3e | E01        | S20      | GT         |
| 852b8914-b002-11e7-9439-000d3a731e3e | E01        | S10      | GT         |
| 852b8990-b002-11e7-9439-000d3a731e3e | E10        | M50      | GE         |
| 852b89be-b002-11e7-9439-000d3a731e3e | E10        | M40      | GE         |
| 852b89da-b002-11e7-9439-000d3a731e3e | E10        | M30      | GE         |
| 852b89f5-b002-11e7-9439-000d3a731e3e | E10        | M20      | GE         |
| 852b8a0a-b002-11e7-9439-000d3a731e3e | E10        | M10      | GT         |
| 852b8a1e-b002-11e7-9439-000d3a731e3e | E10        | P60      | GE         |
| 852b8a32-b002-11e7-9439-000d3a731e3e | E10        | P50      | GE         |
| 852b8a49-b002-11e7-9439-000d3a731e3e | E10        | P40      | GT         |
| 852b8a5d-b002-11e7-9439-000d3a731e3e | E10        | P30      | GT         |
| 852b8a71-b002-11e7-9439-000d3a731e3e | E10        | P20      | GT         |
| 852b8a84-b002-11e7-9439-000d3a731e3e | E10        | P10      | GT         |
| 852b8a98-b002-11e7-9439-000d3a731e3e | E10        | S40      | GT         |
| 852b8aab-b002-11e7-9439-000d3a731e3e | E10        | S30      | GT         |
| 852b8abe-b002-11e7-9439-000d3a731e3e | E10        | S20      | GT         |
| 852b8ad1-b002-11e7-9439-000d3a731e3e | E10        | S10      | GT         |
| 852b8ae6-b002-11e7-9439-000d3a731e3e | E11        | M50      | GE         |
| 852b8af8-b002-11e7-9439-000d3a731e3e | E11        | M40      | GE         |
| 852b8b0c-b002-11e7-9439-000d3a731e3e | E11        | M30      | GE         |
| 852b8b21-b002-11e7-9439-000d3a731e3e | E11        | M20      | GE         |
| 852b8b34-b002-11e7-9439-000d3a731e3e | E11        | M10      | GT         |
| 852b8b48-b002-11e7-9439-000d3a731e3e | E11        | P60      | GE         |
| 852b8b5b-b002-11e7-9439-000d3a731e3e | E11        | P50      | GE         |
| 852b8b6f-b002-11e7-9439-000d3a731e3e | E11        | P40      | GT         |
| 852b8b83-b002-11e7-9439-000d3a731e3e | E11        | P30      | GT         |
| 852b8b97-b002-11e7-9439-000d3a731e3e | E11        | P20      | GT         |
| 852b8baa-b002-11e7-9439-000d3a731e3e | E11        | P10      | GT         |
| 852b8bbd-b002-11e7-9439-000d3a731e3e | E11        | S40      | GT         |
| 852b8bd0-b002-11e7-9439-000d3a731e3e | E11        | S30      | GT         |
| 852b8be4-b002-11e7-9439-000d3a731e3e | E11        | S20      | GT         |
| 852b8bf7-b002-11e7-9439-000d3a731e3e | E11        | S10      | GT         |
| 852b8c0c-b002-11e7-9439-000d3a731e3e | E12        | M50      | GE         |
| 852b8c20-b002-11e7-9439-000d3a731e3e | E12        | M40      | GE         |
| 852b8c32-b002-11e7-9439-000d3a731e3e | E12        | M30      | GE         |
| 852b8c46-b002-11e7-9439-000d3a731e3e | E12        | M20      | GE         |
| 852b8c5a-b002-11e7-9439-000d3a731e3e | E12        | M10      | GT         |
| 852b8c6e-b002-11e7-9439-000d3a731e3e | E12        | P60      | GE         |
| 852b8c81-b002-11e7-9439-000d3a731e3e | E12        | P50      | GE         |
| 852b8c93-b002-11e7-9439-000d3a731e3e | E12        | P40      | GT         |
| 852b8ca7-b002-11e7-9439-000d3a731e3e | E12        | P30      | GT         |
| 852b8cbb-b002-11e7-9439-000d3a731e3e | E12        | P20      | GT         |
| 852b8cce-b002-11e7-9439-000d3a731e3e | E12        | P10      | GT         |
| 852b8ce0-b002-11e7-9439-000d3a731e3e | E12        | S40      | GT         |
| 852b8cf3-b002-11e7-9439-000d3a731e3e | E12        | S30      | GT         |
| 852b8d07-b002-11e7-9439-000d3a731e3e | E12        | S20      | GT         |
| 852b8d1b-b002-11e7-9439-000d3a731e3e | E12        | S10      | GT         |
| 852b8d2e-b002-11e7-9439-000d3a731e3e | E13        | M50      | GE         |
| 852b8d41-b002-11e7-9439-000d3a731e3e | E13        | M40      | GE         |
| 852b8d55-b002-11e7-9439-000d3a731e3e | E13        | M30      | GE         |
| 852b8d68-b002-11e7-9439-000d3a731e3e | E13        | M20      | GE         |
| 852b8d7b-b002-11e7-9439-000d3a731e3e | E13        | M10      | GT         |
| 852b8d8d-b002-11e7-9439-000d3a731e3e | E13        | P60      | GE         |
| 852b8da1-b002-11e7-9439-000d3a731e3e | E13        | P50      | GE         |
| 852b8db5-b002-11e7-9439-000d3a731e3e | E13        | P40      | GT         |
| 852b8dc8-b002-11e7-9439-000d3a731e3e | E13        | P30      | GT         |
| 852b8ddc-b002-11e7-9439-000d3a731e3e | E13        | P20      | GT         |
| 852b8df0-b002-11e7-9439-000d3a731e3e | E13        | P10      | GT         |
| 852b8e02-b002-11e7-9439-000d3a731e3e | E13        | S40      | GT         |
| 852b8e16-b002-11e7-9439-000d3a731e3e | E13        | S30      | GT         |
| 852b8e29-b002-11e7-9439-000d3a731e3e | E13        | S20      | GT         |
| 852b8e3d-b002-11e7-9439-000d3a731e3e | E13        | S10      | GT         |
| 852b8e50-b002-11e7-9439-000d3a731e3e | M50        | M40      | GT         |
| 852b8e63-b002-11e7-9439-000d3a731e3e | M50        | M30      | GT         |
| 852b8e75-b002-11e7-9439-000d3a731e3e | M50        | M20      | GT         |
| 852b8e8b-b002-11e7-9439-000d3a731e3e | M50        | M10      | GT         |
| 852b8e9e-b002-11e7-9439-000d3a731e3e | M50        | P50      | GE         |
| 852b8eb0-b002-11e7-9439-000d3a731e3e | M50        | P40      | GT         |
| 852b8ec3-b002-11e7-9439-000d3a731e3e | M50        | P30      | GT         |
| 852b8ed7-b002-11e7-9439-000d3a731e3e | M50        | P20      | GT         |
| 852b8eeb-b002-11e7-9439-000d3a731e3e | M50        | P10      | GT         |
| 852b8eff-b002-11e7-9439-000d3a731e3e | M50        | S40      | GT         |
| 852b8f12-b002-11e7-9439-000d3a731e3e | M50        | S30      | GT         |
| 852b8f26-b002-11e7-9439-000d3a731e3e | M50        | S20      | GT         |
| 852b8f3a-b002-11e7-9439-000d3a731e3e | M50        | S10      | GT         |
| 852b8f4d-b002-11e7-9439-000d3a731e3e | M40        | M30      | GT         |
| 852b8f61-b002-11e7-9439-000d3a731e3e | M40        | M20      | GT         |
| 852b8f76-b002-11e7-9439-000d3a731e3e | M40        | M10      | GT         |
| 852b8f8a-b002-11e7-9439-000d3a731e3e | M40        | P40      | GT         |
| 852b8f9e-b002-11e7-9439-000d3a731e3e | M40        | P30      | GT         |
| 852b8fb1-b002-11e7-9439-000d3a731e3e | M40        | P20      | GT         |
| 852b8fc5-b002-11e7-9439-000d3a731e3e | M40        | P10      | GT         |
| 852b8fd9-b002-11e7-9439-000d3a731e3e | M40        | S40      | GT         |
| 852b8fec-b002-11e7-9439-000d3a731e3e | M40        | S30      | GT         |
| 852b9000-b002-11e7-9439-000d3a731e3e | M40        | S20      | GT         |
| 852b9014-b002-11e7-9439-000d3a731e3e | M40        | S10      | GT         |
| 852b9028-b002-11e7-9439-000d3a731e3e | M30        | M20      | GT         |
| 852b903b-b002-11e7-9439-000d3a731e3e | M30        | M10      | GT         |
| 852b904f-b002-11e7-9439-000d3a731e3e | M30        | P40      | GE         |
| 852b9063-b002-11e7-9439-000d3a731e3e | M30        | P30      | GT         |
| 852b9078-b002-11e7-9439-000d3a731e3e | M30        | P20      | GT         |
| 852b908b-b002-11e7-9439-000d3a731e3e | M30        | P10      | GT         |
| 852b909e-b002-11e7-9439-000d3a731e3e | M30        | S40      | GT         |
| 852b90b2-b002-11e7-9439-000d3a731e3e | M30        | S30      | GT         |
| 852b90c6-b002-11e7-9439-000d3a731e3e | M30        | S20      | GT         |
| 852b90d9-b002-11e7-9439-000d3a731e3e | M30        | S10      | GT         |
| 852b90ec-b002-11e7-9439-000d3a731e3e | M20        | M10      | GE         |
| 852b9100-b002-11e7-9439-000d3a731e3e | M20        | P60      | LT         |
| 852b9115-b002-11e7-9439-000d3a731e3e | M20        | P30      | GE         |
| 852b9128-b002-11e7-9439-000d3a731e3e | M20        | P20      | GT         |
| 852b913b-b002-11e7-9439-000d3a731e3e | M20        | P10      | GT         |
| 852b914e-b002-11e7-9439-000d3a731e3e | M20        | S40      | GT         |
| 852b9162-b002-11e7-9439-000d3a731e3e | M20        | S30      | GT         |
| 852b9175-b002-11e7-9439-000d3a731e3e | M20        | S20      | GT         |
| 852b9187-b002-11e7-9439-000d3a731e3e | M20        | S10      | GT         |
| 852b919b-b002-11e7-9439-000d3a731e3e | M10        | P60      | LT         |
| 852b91ae-b002-11e7-9439-000d3a731e3e | M10        | P20      | GE         |
| 852b91c1-b002-11e7-9439-000d3a731e3e | M10        | P10      | GT         |
| 852b91d4-b002-11e7-9439-000d3a731e3e | M10        | S40      | GE         |
| 852b91e7-b002-11e7-9439-000d3a731e3e | M10        | S30      | GT         |
| 852b91fb-b002-11e7-9439-000d3a731e3e | M10        | S20      | GT         |
| 852b920f-b002-11e7-9439-000d3a731e3e | M10        | S10      | GT         |
| 852b9221-b002-11e7-9439-000d3a731e3e | P60        | P50      | GT         |
| 852b9235-b002-11e7-9439-000d3a731e3e | P60        | P40      | GT         |
| 852b9247-b002-11e7-9439-000d3a731e3e | P60        | P30      | GT         |
| 852b925b-b002-11e7-9439-000d3a731e3e | P60        | P20      | GT         |
| 852b926e-b002-11e7-9439-000d3a731e3e | P60        | P10      | GT         |
| 852b9282-b002-11e7-9439-000d3a731e3e | P60        | S40      | GT         |
| 852b9295-b002-11e7-9439-000d3a731e3e | P60        | S30      | GT         |
| 852b92a9-b002-11e7-9439-000d3a731e3e | P60        | S20      | GT         |
| 852b92bc-b002-11e7-9439-000d3a731e3e | P60        | S10      | GT         |
| 852b92cf-b002-11e7-9439-000d3a731e3e | P50        | P40      | GT         |
| 852b92e2-b002-11e7-9439-000d3a731e3e | P50        | P30      | GT         |
| 852b92f6-b002-11e7-9439-000d3a731e3e | P50        | P20      | GT         |
| 852b9309-b002-11e7-9439-000d3a731e3e | P50        | P10      | GT         |
| 852b931c-b002-11e7-9439-000d3a731e3e | P50        | S40      | GT         |
| 852b932f-b002-11e7-9439-000d3a731e3e | P50        | S30      | GT         |
| 852b9343-b002-11e7-9439-000d3a731e3e | P50        | S20      | GT         |
| 852b9356-b002-11e7-9439-000d3a731e3e | P50        | S10      | GT         |
| 852b936a-b002-11e7-9439-000d3a731e3e | P40        | P30      | GT         |
| 852b937d-b002-11e7-9439-000d3a731e3e | P40        | P20      | GT         |
| 852b9393-b002-11e7-9439-000d3a731e3e | P40        | P10      | GT         |
| 852b93a6-b002-11e7-9439-000d3a731e3e | P40        | S40      | GT         |
| 852b93ba-b002-11e7-9439-000d3a731e3e | P40        | S30      | GT         |
| 852b93cd-b002-11e7-9439-000d3a731e3e | P40        | S20      | GT         |
| 852b93e0-b002-11e7-9439-000d3a731e3e | P40        | S10      | GT         |
| 852b93f3-b002-11e7-9439-000d3a731e3e | P30        | P20      | GT         |
| 852b9407-b002-11e7-9439-000d3a731e3e | P30        | P10      | GT         |
| 852b941a-b002-11e7-9439-000d3a731e3e | P30        | S40      | GT         |
| 852b942d-b002-11e7-9439-000d3a731e3e | P30        | S30      | GT         |
| 852b9440-b002-11e7-9439-000d3a731e3e | P30        | S20      | GT         |
| 852b9453-b002-11e7-9439-000d3a731e3e | P30        | S10      | GT         |
| 852b9466-b002-11e7-9439-000d3a731e3e | P20        | P10      | GT         |
| 852b947a-b002-11e7-9439-000d3a731e3e | P20        | S40      | GE         |
| 852b948d-b002-11e7-9439-000d3a731e3e | P20        | S30      | GE         |
| 852b94a0-b002-11e7-9439-000d3a731e3e | P20        | S20      | GT         |
| 852b94b3-b002-11e7-9439-000d3a731e3e | P20        | S10      | GT         |
| 852b94c6-b002-11e7-9439-000d3a731e3e | P10        | S20      | GT         |
| 852b94d9-b002-11e7-9439-000d3a731e3e | P10        | S10      | GT         |
| 852b94ec-b002-11e7-9439-000d3a731e3e | S40        | S30      | GT         |
| 852b9500-b002-11e7-9439-000d3a731e3e | S40        | S20      | GT         |
| 852b9513-b002-11e7-9439-000d3a731e3e | S40        | S10      | GT         |
| 852b9527-b002-11e7-9439-000d3a731e3e | S30        | S20      | GT         |
| 852b953b-b002-11e7-9439-000d3a731e3e | S30        | S10      | GT         |
| 852b954e-b002-11e7-9439-000d3a731e3e | S20        | S10      | GT         |
+--------------------------------------+------------+----------+------------+
941 rows in set (0.01 sec)
