timeStamp,elapsed,label,responseCode,threadName,success,bytes,grpThreads,allThreads,Latency,SampleCount,ErrorCount,Hostname,Connect
1512274646078,2810,NoFileUpload B17_PE7033_PE7314,200,Thread Group_Prod1 1-1,false,879,1,1,2797,1,1,INFPU07042,1372
1512274648898,1158,NoFileUpload B18_PE7033_PE7314,200,Thread Group_Prod1 1-1,false,521,1,1,1157,1,1,INFPU07042,497
1512274650059,565,FileUpload D10_PE5216,200,Thread Group_Prod1 1-1,true,1364,1,1,565,1,0,INFPU07042,0
1512274651732,1555,FileUpload D11_PE6030,200,Thread Group_Prod1 1-1,false,3265,1,1,1555,1,1,INFPU07042,325
1512274653361,745,FileUpload D12_PE6027,200,Thread Group_Prod1 1-1,false,741,1,1,745,1,1,INFPU07042,0
1512274654227,3166,FileUpload D13_PE5691_1Record,200,Thread Group_Prod1 1-1,true,3264,1,1,3158,1,0,INFPU07042,492
1512274657446,5671,FileUpload D15_PE5691_1Record,200,Thread Group_Prod1 1-1,true,3264,1,1,5671,1,0,INFPU07042,345
1512275616487,1399,NoFileUpload B17_PE7033_PE7314,200,Thread Group_Prod1 1-1,true,879,1,1,1399,1,0,INFPU07042,578
1512275617892,404,NoFileUpload B18_PE7033_PE7314,200,Thread Group_Prod1 1-1,true,521,1,1,403,1,0,INFPU07042,0
1512275618298,407,FileUpload D10_PE5216,200,Thread Group_Prod1 1-1,true,1364,1,1,406,1,0,INFPU07042,0
1512275618820,1730,FileUpload D11_PE6030,200,Thread Group_Prod1 1-1,false,3265,1,1,1730,1,1,INFPU07042,498
1512275620614,1063,FileUpload D12_PE6027,200,Thread Group_Prod1 1-1,false,741,1,1,1063,1,1,INFPU07042,0
1512275621789,3281,FileUpload D13_PE5691_1Record,200,Thread Group_Prod1 1-1,true,3264,1,1,3270,1,0,INFPU07042,396
1512275625110,3630,FileUpload D15_PE5691_1Record,200,Thread Group_Prod1 1-1,true,3264,1,1,3630,1,0,INFPU07042,334
1512280890381,1358,NoFileUpload B17_PE7033_PE7314,200,Thread Group_Prod1 1-1,true,879,1,1,1357,1,0,INFPU07042,573
1512280891741,366,NoFileUpload B18_PE7033_PE7314,200,Thread Group_Prod1 1-1,true,521,1,1,365,1,0,INFPU07042,0
1512280892109,385,FileUpload D10_PE5216,500,Thread Group_Prod1 1-1,false,372,1,1,385,1,1,INFPU07042,0
1512280892618,1519,FileUpload D11_PE6030,200,Thread Group_Prod1 1-1,false,3265,1,1,1518,1,1,INFPU07042,344
1512280894195,782,FileUpload D12_PE6027,200,Thread Group_Prod1 1-1,true,2163,1,1,782,1,0,INFPU07042,0
1512280895078,3076,FileUpload D13_PE5691_1Record,200,Thread Group_Prod1 1-1,true,3264,1,1,3073,1,0,INFPU07042,346
1512280898214,3029,FileUpload D15_PE5691_1Record,200,Thread Group_Prod1 1-1,true,3264,1,1,3022,1,0,INFPU07042,350
1512280991210,1391,NoFileUpload B17_PE7033_PE7314,200,Thread Group_Prod1 1-1,true,879,1,1,1391,1,0,INFPU07042,556
1512280992604,448,NoFileUpload B18_PE7033_PE7314,200,Thread Group_Prod1 1-1,true,521,1,1,447,1,0,INFPU07042,0
1512280993054,445,FileUpload D10_PE5216,200,Thread Group_Prod1 1-1,true,1364,1,1,445,1,0,INFPU07042,0
1512280993623,1494,FileUpload D11_PE6030,200,Thread Group_Prod1 1-1,false,3265,1,1,1494,1,1,INFPU07042,377
1512280995178,822,FileUpload D12_PE6027,200,Thread Group_Prod1 1-1,true,2163,1,1,822,1,0,INFPU07042,0
1512280996104,3011,FileUpload D13_PE5691_1Record,200,Thread Group_Prod1 1-1,true,3264,1,1,3011,1,0,INFPU07042,351
1512280999157,2997,FileUpload D15_PE5691_1Record,200,Thread Group_Prod1 1-1,true,3264,1,1,2981,1,0,INFPU07042,387
1512281401418,1339,NoFileUpload B17_PE7033_PE7314,200,Thread Group_Prod1 1-1,true,879,1,1,1339,1,0,INFPU07042,596
1512281402758,471,NoFileUpload B18_PE7033_PE7314,200,Thread Group_Prod1 1-1,true,521,1,1,471,1,0,INFPU07042,0
1512281403230,447,FileUpload D10_PE5216,200,Thread Group_Prod1 1-1,true,1364,1,1,446,1,0,INFPU07042,0
1512281403777,1504,FileUpload D11_PE6030,200,Thread Group_Prod1 1-1,false,3265,1,1,1501,1,1,INFPU07042,338
1512281405333,725,FileUpload D12_PE6027,200,Thread Group_Prod1 1-1,false,741,1,1,725,1,1,INFPU07042,0
1512281406118,2959,FileUpload D13_PE5691_1Record,200,Thread Group_Prod1 1-1,true,3264,1,1,2942,1,0,INFPU07042,346
1512281409094,3581,FileUpload D15_PE5691_1Record,200,Thread Group_Prod1 1-1,true,3264,1,1,3574,1,0,INFPU07042,344
1512281475964,2073,NoFileUpload B17_PE7033_PE7314,200,Thread Group_Prod1 1-1,true,879,1,1,2073,1,0,INFPU07042,1361
1512281478039,1048,NoFileUpload B18_PE7033_PE7314,200,Thread Group_Prod1 1-1,true,521,1,1,1047,1,0,INFPU07042,346
1512281479087,511,FileUpload D10_PE5216,200,Thread Group_Prod1 1-1,true,1364,1,1,511,1,0,INFPU07042,0
1512281479677,743,FileUpload D11_PE6030,200,Thread Group_Prod1 1-1,false,3265,1,1,732,1,1,INFPU07042,0
1512281480445,1428,FileUpload D12_PE6027,200,Thread Group_Prod1 1-1,true,2163,1,1,1428,1,0,INFPU07042,341
1512281481947,2203,FileUpload D13_PE5691_1Record,200,Thread Group_Prod1 1-1,true,3264,1,1,2191,1,0,INFPU07042,0
1512281484164,2822,FileUpload D15_PE5691_1Record,200,Thread Group_Prod1 1-1,true,3264,1,1,2820,1,0,INFPU07042,342
1512366730567,1118,NoFileUpload B17_PE7033_PE7314,200,Thread Group_Prod1 1-1,true,879,1,1,1091,1,0,INFPU07042,371
1512366731688,311,NoFileUpload B18_PE7033_PE7314,200,Thread Group_Prod1 1-1,true,521,1,1,311,1,0,INFPU07042,0
1512366731999,327,FileUpload D10_PE5216,200,Thread Group_Prod1 1-1,true,1364,1,1,326,1,0,INFPU07042,0
1512366732809,1111,FileUpload D12_PE6027,200,Thread Group_Prod1 1-1,true,2163,1,1,1110,1,0,INFPU07042,271
1512366733958,1719,FileUpload D13_PE5691_1Record,200,Thread Group_Prod1 1-1,true,3264,1,1,1718,1,0,INFPU07042,0
1512366735716,2068,FileUpload D15_PE5691_1Record,200,Thread Group_Prod1 1-1,true,3264,1,1,2067,1,0,INFPU07042,251
1512366737784,1028,FileUpload D22_NullValidationExcel,200,Thread Group_Prod1 1-1,false,1928,1,1,1027,1,1,INFPU07042,252
1512366738812,270,FileUpload D22_NullValidationCsv,200,Thread Group_Prod1 1-1,false,1930,1,1,269,1,1,INFPU07042,0
1512366739089,253,FileUpload D22_NullValidationJSON,200,Thread Group_Prod1 1-1,false,102,1,1,253,1,1,INFPU07042,0
1512380295529,0,NoFileUpload B17_PE7033_PE7314,Non HTTP response code: java.net.URISyntaxException,Thread Group_Prod1 1-1,false,1186,1,1,0,1,1,INFPU07042,0
1512380295557,0,NoFileUpload B18_PE7033_PE7314,Non HTTP response code: java.net.URISyntaxException,Thread Group_Prod1 1-1,false,1189,1,1,0,1,1,INFPU07042,0
1512380295558,0,FileUpload D10_PE5216,Non HTTP response code: java.net.URISyntaxException,Thread Group_Prod1 1-1,false,1186,1,1,0,1,1,INFPU07042,0
1512380295700,0,FileUpload D12_PE6027,Non HTTP response code: java.net.URISyntaxException,Thread Group_Prod1 1-1,false,1186,1,1,0,1,1,INFPU07042,0
1512380295758,0,FileUpload D13_PE5691_1Record,Non HTTP response code: java.net.URISyntaxException,Thread Group_Prod1 1-1,false,1186,1,1,0,1,1,INFPU07042,0
1512380295792,0,FileUpload D15_PE5691_1Record,Non HTTP response code: java.net.URISyntaxException,Thread Group_Prod1 1-1,false,1186,1,1,0,1,1,INFPU07042,0
1512380295792,0,FileUpload D16_PE7071_1Record,Non HTTP response code: java.net.URISyntaxException,Thread Group_Prod1 1-1,false,1186,1,1,0,1,1,INFPU07042,0
1512380295809,0,FileUpload D17_PE7071_1Record,Non HTTP response code: java.net.URISyntaxException,Thread Group_Prod1 1-1,false,1186,1,1,0,1,1,INFPU07042,0
1512380295824,0,FileUpload D18_PE7071_1Record,Non HTTP response code: java.net.URISyntaxException,Thread Group_Prod1 1-1,false,1186,1,1,0,1,1,INFPU07042,0
1512380295840,0,FileUpload D19_PE7071_1Record,Non HTTP response code: java.net.URISyntaxException,Thread Group_Prod1 1-1,false,1186,1,1,0,1,1,INFPU07042,0
1512380295855,0,FileUpload D20_PE7071_1Record,Non HTTP response code: java.net.URISyntaxException,Thread Group_Prod1 1-1,false,1186,1,1,0,1,1,INFPU07042,0
1512380329440,1813,NoFileUpload B17_PE7033_PE7314,200,Thread Group_Prod1 1-1,true,1569,1,1,1813,1,0,INFPU07042,42
1512380331256,46,NoFileUpload B18_PE7033_PE7314,200,Thread Group_Prod1 1-1,true,605,1,1,46,1,0,INFPU07042,0
1512380331307,592,FileUpload D10_PE5216,200,Thread Group_Prod1 1-1,false,1518,1,1,590,1,1,INFPU07042,0
1512380332103,1287,FileUpload D12_PE6027,400,Thread Group_Prod1 1-1,false,342,1,1,1286,1,1,INFPU07042,23
1512380333518,522,FileUpload D13_PE5691_1Record,200,Thread Group_Prod1 1-1,true,3241,1,1,521,1,0,INFPU07042,5
1512380334139,342,FileUpload D15_PE5691_1Record,200,Thread Group_Prod1 1-1,true,3241,1,1,342,1,0,INFPU07042,0
1512380334483,148439,FileUpload D16_PE7071_1Record,Non HTTP response code: java.net.SocketException,Thread Group_Prod1 1-1,false,2675,1,1,0,1,1,INFPU07042,0
1512380542519,65599,FileUpload D17_PE7071_1Record,Non HTTP response code: java.net.SocketException,Thread Group_Prod1 1-1,false,2675,1,1,0,1,1,INFPU07042,3
1512380626183,2220,FileUpload D17_PE7071_1Record,200,Thread Group_Prod1 1-1,false,6111,1,1,2218,1,1,INFPU07042,329
1512380628459,2100,FileUpload D18_PE7071_1Record,200,Thread Group_Prod1 1-1,true,6716,1,1,2097,1,0,INFPU07042,252
1512380630620,1797,FileUpload D19_PE7071_1Record,200,Thread Group_Prod1 1-1,true,6716,1,1,1795,1,0,INFPU07042,252
1512380632478,1318,FileUpload D20_PE7071_1Record,200,Thread Group_Prod1 1-1,true,5215,1,1,1317,1,0,INFPU07042,0
1512380995063,59661,FileUpload D17_PE7071_1Record,Non HTTP response code: java.net.SocketException,Thread Group_Prod1 1-1,false,2675,1,1,0,1,1,INFPU07042,6
1512381058296,109,NoFileUpload B17_PE7033_PE7314,200,Thread Group_Prod1 1-1,true,1569,1,1,109,1,0,INFPU07042,2
1512381058407,31,NoFileUpload B18_PE7033_PE7314,200,Thread Group_Prod1 1-1,true,605,1,1,30,1,0,INFPU07042,0
1512381058439,37,FileUpload D10_PE5216,200,Thread Group_Prod1 1-1,false,1518,1,1,36,1,1,INFPU07042,0
1512381058643,62,FileUpload D12_PE6027,200,Thread Group_Prod1 1-1,true,2140,1,1,62,1,0,INFPU07042,0
1512381058800,196,FileUpload D13_PE5691_1Record,200,Thread Group_Prod1 1-1,true,3241,1,1,195,1,0,INFPU07042,0
1512381059044,143,FileUpload D15_PE5691_1Record,200,Thread Group_Prod1 1-1,true,3241,1,1,142,1,0,INFPU07042,0
1512381096777,936,NoFileUpload B17_PE7033_PE7314,200,Thread Group_Prod1 1-1,true,879,1,1,935,1,0,INFPU07042,320
1512381097715,267,NoFileUpload B18_PE7033_PE7314,200,Thread Group_Prod1 1-1,true,521,1,1,267,1,0,INFPU07042,0
1512381097984,275,FileUpload D10_PE5216,200,Thread Group_Prod1 1-1,true,1364,1,1,274,1,0,INFPU07042,0
1512381098394,898,FileUpload D12_PE6027,200,Thread Group_Prod1 1-1,true,2163,1,1,898,1,0,INFPU07042,0
1512381099406,2217,FileUpload D13_PE5691_1Record,200,Thread Group_Prod1 1-1,true,3264,1,1,2217,1,0,INFPU07042,253
1512381101676,2068,FileUpload D15_PE5691_1Record,200,Thread Group_Prod1 1-1,true,3264,1,1,2067,1,0,INFPU07042,251
1512381160346,128,NoFileUpload B17_PE7033_PE7314,200,Thread Group_Prod1 1-1,true,1569,1,1,128,1,0,INFPU07042,4
1512381160477,31,NoFileUpload B18_PE7033_PE7314,200,Thread Group_Prod1 1-1,true,605,1,1,29,1,0,INFPU07042,0
1512381160510,46,FileUpload D10_PE5216,200,Thread Group_Prod1 1-1,false,1518,1,1,45,1,1,INFPU07042,0
1512381160871,51,FileUpload D12_PE6027,200,Thread Group_Prod1 1-1,true,2140,1,1,50,1,0,INFPU07042,0
1512381161045,126,FileUpload D13_PE5691_1Record,200,Thread Group_Prod1 1-1,true,3241,1,1,125,1,0,INFPU07042,0
1512381161216,106,FileUpload D15_PE5691_1Record,200,Thread Group_Prod1 1-1,true,3241,1,1,106,1,0,INFPU07042,0
1512381368316,2207,FileUpload D16_PE7071_1Record,200,Thread Group_Prod1 1-1,false,6111,1,1,2206,1,1,INFPU07042,354
1512381370589,1845,FileUpload D18_PE7071_1Record,200,Thread Group_Prod1 1-1,true,6716,1,1,1843,1,0,INFPU07042,250
1512381372495,1295,FileUpload D19_PE7071_1Record,200,Thread Group_Prod1 1-1,true,6716,1,1,1293,1,0,INFPU07042,0
1512381373820,2202,FileUpload D20_PE7071_1Record,200,Thread Group_Prod1 1-1,true,5215,1,1,2200,1,0,INFPU07042,252
1512381393914,2072,FileUpload D17_PE7071_1Record,200,Thread Group_Prod1 1-1,false,6111,1,1,2071,1,1,INFPU07042,249
1512381396049,2159,FileUpload D18_PE7071_1Record,200,Thread Group_Prod1 1-1,true,6716,1,1,2157,1,0,INFPU07042,248
1512381398267,1838,FileUpload D19_PE7071_1Record,200,Thread Group_Prod1 1-1,true,6716,1,1,1837,1,0,INFPU07042,250
1512381400165,1309,FileUpload D20_PE7071_1Record,200,Thread Group_Prod1 1-1,true,5215,1,1,1307,1,0,INFPU07042,0
1512381409758,2225,FileUpload D16_PE7071_1Record,200,Thread Group_Prod1 1-1,false,6111,1,1,2225,1,1,INFPU07042,429
1512381412029,1781,FileUpload D17_PE7071_1Record,200,Thread Group_Prod1 1-1,false,6111,1,1,1779,1,1,INFPU07042,247
1512381413864,1026,FileUpload D18_PE7071_1Record,200,Thread Group_Prod1 1-1,true,6716,1,1,1024,1,0,INFPU07042,0
1512381414953,2093,FileUpload D19_PE7071_1Record,200,Thread Group_Prod1 1-1,true,6716,1,1,2092,1,0,INFPU07042,251
1512381417103,2051,FileUpload D20_PE7071_1Record,200,Thread Group_Prod1 1-1,true,5215,1,1,2049,1,0,INFPU07042,250
1512381603593,0,FileUpload D10_PE5216,Non HTTP response code: java.lang.IllegalArgumentException,Thread Group_Prod1 1-1,false,1352,1,1,0,1,1,INFPU07042,0
1512381603647,0,FileUpload D16_PE7071_1Record,Non HTTP response code: java.lang.IllegalArgumentException,Thread Group_Prod1 1-1,false,1352,1,1,0,1,1,INFPU07042,0
1512381603661,0,FileUpload D17_PE7071_1Record,Non HTTP response code: java.lang.IllegalArgumentException,Thread Group_Prod1 1-1,false,1352,1,1,0,1,1,INFPU07042,0
1512381603673,0,FileUpload D18_PE7071_1Record,Non HTTP response code: java.lang.IllegalArgumentException,Thread Group_Prod1 1-1,false,1352,1,1,0,1,1,INFPU07042,0
1512381603688,0,FileUpload D19_PE7071_1Record,Non HTTP response code: java.lang.IllegalArgumentException,Thread Group_Prod1 1-1,false,1352,1,1,0,1,1,INFPU07042,0
1512381603701,0,FileUpload D20_PE7071_1Record,Non HTTP response code: java.lang.IllegalArgumentException,Thread Group_Prod1 1-1,false,1352,1,1,0,1,1,INFPU07042,0
1512381611287,0,FileUpload D10_PE5216,Non HTTP response code: java.lang.IllegalArgumentException,Thread Group_Prod1 1-1,false,1352,1,1,0,1,1,INFPU07042,0
1512381611350,0,FileUpload D16_PE7071_1Record,Non HTTP response code: java.lang.IllegalArgumentException,Thread Group_Prod1 1-1,false,1352,1,1,0,1,1,INFPU07042,0
1512381611365,0,FileUpload D17_PE7071_1Record,Non HTTP response code: java.lang.IllegalArgumentException,Thread Group_Prod1 1-1,false,1352,1,1,0,1,1,INFPU07042,0
1512381611379,0,FileUpload D18_PE7071_1Record,Non HTTP response code: java.lang.IllegalArgumentException,Thread Group_Prod1 1-1,false,1352,1,1,0,1,1,INFPU07042,0
1512381611391,0,FileUpload D19_PE7071_1Record,Non HTTP response code: java.lang.IllegalArgumentException,Thread Group_Prod1 1-1,false,1352,1,1,0,1,1,INFPU07042,0
1512381611403,0,FileUpload D20_PE7071_1Record,Non HTTP response code: java.lang.IllegalArgumentException,Thread Group_Prod1 1-1,false,1352,1,1,0,1,1,INFPU07042,0
1512381624262,0,FileUpload D10_PE5216,Non HTTP response code: java.lang.IllegalArgumentException,Thread Group_Prod1 1-1,false,1352,1,1,0,1,1,INFPU07042,0
1512381648987,940,FileUpload D10_PE5216,200,Thread Group_Prod1 1-1,false,1678,1,1,939,1,1,INFPU07042,5
1512382051050,1951,FileUpload D16_PE7071_1Record,200,Thread Group_Prod1 1-1,false,6111,1,1,1949,1,1,INFPU07042,343
1512382053066,2064,FileUpload D17_PE7071_1Record,200,Thread Group_Prod1 1-1,false,6111,1,1,2063,1,1,INFPU07042,257
1512382055195,1880,FileUpload D18_PE7071_1Record,200,Thread Group_Prod1 1-1,true,6716,1,1,1879,1,0,INFPU07042,252
1512382057141,1319,FileUpload D19_PE7071_1Record,200,Thread Group_Prod1 1-1,true,6716,1,1,1317,1,0,INFPU07042,0
1512382058523,2041,FileUpload D20_PE7071_1Record,200,Thread Group_Prod1 1-1,true,5215,1,1,2040,1,0,INFPU07042,248
1512385112246,2187,FileUpload D16_PE7071_1Record,200,Thread Group_Prod1 1-1,false,6111,1,1,2183,1,1,INFPU07042,362
1512385114449,2075,FileUpload D17_PE7071_1Record,200,Thread Group_Prod1 1-1,false,6111,1,1,2074,1,1,INFPU07042,255
1512385116564,1761,FileUpload D18_PE7071_1Record,200,Thread Group_Prod1 1-1,true,6716,1,1,1759,1,0,INFPU07042,247
1512385118391,1282,FileUpload D19_PE7071_1Record,200,Thread Group_Prod1 1-1,true,6716,1,1,1279,1,0,INFPU07042,0
1512385119715,2039,FileUpload D20_PE7071_1Record,200,Thread Group_Prod1 1-1,true,5215,1,1,2038,1,0,INFPU07042,250
1512385905210,18,FileUpload D12_PE6027,404,Thread Group_Prod1 1-1,false,1239,1,1,17,1,1,INFPU07042,5
1512385943842,1612,FileUpload D12_PE6027,200,Thread Group_Prod1 1-1,true,2163,1,1,1612,1,0,INFPU07042,371
1512386079419,1229,NoFileUpload B17_PE7033_PE7314,200,Thread Group_Prod1 1-1,true,879,1,1,1228,1,0,INFPU07042,321
1512386080649,302,NoFileUpload B18_PE7033_PE7314,200,Thread Group_Prod1 1-1,true,521,1,1,301,1,0,INFPU07042,0
1512386080952,276,FileUpload D10_PE5216,200,Thread Group_Prod1 1-1,false,1258,1,1,276,1,1,INFPU07042,0
1512386081334,575,FileUpload D12_PE6027,200,Thread Group_Prod1 1-1,true,2163,1,1,575,1,0,INFPU07042,0
1512386081978,2399,FileUpload D13_PE5691_1Record,200,Thread Group_Prod1 1-1,true,3264,1,1,2399,1,0,INFPU07042,256
1512386084395,2304,FileUpload D15_PE5691_1Record,200,Thread Group_Prod1 1-1,true,3264,1,1,2303,1,0,INFPU07042,251
1512386101571,786,NoFileUpload B17_PE7033_PE7314,200,Thread Group_Prod1 1-1,true,879,1,1,786,1,0,INFPU07042,252
1512386102357,264,NoFileUpload B18_PE7033_PE7314,200,Thread Group_Prod1 1-1,true,521,1,1,263,1,0,INFPU07042,0
1512386102622,269,FileUpload D10_PE5216,200,Thread Group_Prod1 1-1,false,1258,1,1,268,1,1,INFPU07042,0
1512386102952,537,FileUpload D12_PE6027,200,Thread Group_Prod1 1-1,true,2163,1,1,536,1,0,INFPU07042,0
1512386103645,2305,FileUpload D13_PE5691_1Record,200,Thread Group_Prod1 1-1,true,3264,1,1,2304,1,0,INFPU07042,248
1512386105985,2297,FileUpload D15_PE5691_1Record,200,Thread Group_Prod1 1-1,true,3264,1,1,2296,1,0,INFPU07042,254
1512386150617,887,NoFileUpload B17_PE7033_PE7314,200,Thread Group_Prod1 1-1,true,879,1,1,886,1,0,INFPU07042,355
1512386151505,261,NoFileUpload B18_PE7033_PE7314,200,Thread Group_Prod1 1-1,true,521,1,1,260,1,0,INFPU07042,0
1512386151767,347,FileUpload D10_PE5216,200,Thread Group_Prod1 1-1,true,1364,1,1,346,1,0,INFPU07042,0
1512386152213,1067,FileUpload D12_PE6027,200,Thread Group_Prod1 1-1,true,2163,1,1,1067,1,0,INFPU07042,0
1512386153350,2174,FileUpload D13_PE5691_1Record,200,Thread Group_Prod1 1-1,true,3264,1,1,2174,1,0,INFPU07042,251
1512386155569,2272,FileUpload D15_PE5691_1Record,200,Thread Group_Prod1 1-1,true,3264,1,1,2271,1,0,INFPU07042,260
1512386790911,856,NoFileUpload B17_PE7033_PE7314,200,Thread Group_Prod1 1-1,true,879,1,1,856,1,0,INFPU07042,323
1512386791768,260,NoFileUpload B18_PE7033_PE7314,200,Thread Group_Prod1 1-1,true,521,1,1,260,1,0,INFPU07042,0
1512386792030,272,FileUpload D10_PE5216,200,Thread Group_Prod1 1-1,false,1258,1,1,272,1,1,INFPU07042,0
1512386792369,553,FileUpload D12_PE6027,200,Thread Group_Prod1 1-1,true,2163,1,1,552,1,0,INFPU07042,0
1512386792977,2052,FileUpload D13_PE5691_1Record,200,Thread Group_Prod1 1-1,true,3264,1,1,2052,1,0,INFPU07042,250
1512386795072,2082,FileUpload D15_PE5691_1Record,200,Thread Group_Prod1 1-1,true,3264,1,1,2081,1,0,INFPU07042,249
1512387336685,1190,NoFileUpload B17_PE7033_PE7314,200,Thread Group_Prod1 1-1,true,879,1,1,1190,1,0,INFPU07042,331
1512387337877,448,NoFileUpload B18_PE7033_PE7314,200,Thread Group_Prod1 1-1,true,521,1,1,447,1,0,INFPU07042,0
1512387338325,487,FileUpload D10_PE5216,200,Thread Group_Prod1 1-1,false,1258,1,1,487,1,1,INFPU07042,0
1512387338901,1036,FileUpload D12_PE6027,200,Thread Group_Prod1 1-1,true,2163,1,1,1035,1,0,INFPU07042,246
1512387340019,1270,FileUpload D13_PE5691_1Record,200,Thread Group_Prod1 1-1,true,3264,1,1,1268,1,0,INFPU07042,0
1512387341327,2286,FileUpload D15_PE5691_1Record,200,Thread Group_Prod1 1-1,true,3264,1,1,2285,1,0,INFPU07042,247
1512387353774,773,NoFileUpload B17_PE7033_PE7314,200,Thread Group_Prod1 1-1,true,879,1,1,773,1,0,INFPU07042,249
1512387354549,256,NoFileUpload B18_PE7033_PE7314,200,Thread Group_Prod1 1-1,true,521,1,1,256,1,0,INFPU07042,0
1512387354806,263,FileUpload D10_PE5216,200,Thread Group_Prod1 1-1,false,1258,1,1,263,1,1,INFPU07042,0
1512387355158,510,FileUpload D11_PE6030,200,Thread Group_Prod1 1-1,false,3265,1,1,509,1,1,INFPU07042,0
1512387355808,1042,FileUpload D12_PE6027,200,Thread Group_Prod1 1-1,true,2163,1,1,1041,1,0,INFPU07042,250
1512387356922,1326,FileUpload D13_PE5691_1Record,200,Thread Group_Prod1 1-1,true,3264,1,1,1326,1,0,INFPU07042,0
1512387358286,2032,FileUpload D15_PE5691_1Record,200,Thread Group_Prod1 1-1,true,3264,1,1,2032,1,0,INFPU07042,246
1512387383379,928,NoFileUpload B17_PE7033_PE7314,200,Thread Group_Prod1 1-1,true,879,1,1,927,1,0,INFPU07042,367
1512387384308,266,NoFileUpload B18_PE7033_PE7314,200,Thread Group_Prod1 1-1,true,521,1,1,265,1,0,INFPU07042,0
1512387384575,265,FileUpload D10_PE5216,200,Thread Group_Prod1 1-1,false,1258,1,1,265,1,1,INFPU07042,0
1512387384939,514,FileUpload D11_PE6030,200,Thread Group_Prod1 1-1,false,3265,1,1,514,1,1,INFPU07042,0
1512387385533,1035,FileUpload D12_PE6027,200,Thread Group_Prod1 1-1,true,2163,1,1,1035,1,0,INFPU07042,248
1512387386659,1293,FileUpload D13_PE5691_1Record,200,Thread Group_Prod1 1-1,true,3264,1,1,1291,1,0,INFPU07042,0
1512387387996,2066,FileUpload D15_PE5691_1Record,200,Thread Group_Prod1 1-1,true,3264,1,1,2065,1,0,INFPU07042,255
1512387407630,787,NoFileUpload B17_PE7033_PE7314,200,Thread Group_Prod1 1-1,true,879,1,1,787,1,0,INFPU07042,257
1512387408420,272,NoFileUpload B18_PE7033_PE7314,200,Thread Group_Prod1 1-1,true,521,1,1,272,1,0,INFPU07042,0
1512387408693,289,FileUpload D10_PE5216,200,Thread Group_Prod1 1-1,false,1258,1,1,288,1,1,INFPU07042,0
1512387409066,526,FileUpload D11_PE6030,200,Thread Group_Prod1 1-1,true,3265,1,1,525,1,0,INFPU07042,0
1512387409669,1026,FileUpload D12_PE6027,200,Thread Group_Prod1 1-1,true,2163,1,1,1025,1,0,INFPU07042,251
1512387410768,1544,FileUpload D13_PE5691_1Record,200,Thread Group_Prod1 1-1,true,3264,1,1,1544,1,0,INFPU07042,0
1512387412345,2072,FileUpload D15_PE5691_1Record,200,Thread Group_Prod1 1-1,true,3264,1,1,2072,1,0,INFPU07042,248
1512397256554,0,NoFileUpload B17_PE7033_PE7314,Non HTTP response code: java.lang.IllegalArgumentException,Thread Group_Prod1 1-1,false,1352,1,1,0,1,1,INFPU07042,0
1512397256554,0,NoFileUpload B18_PE7033_PE7314,Non HTTP response code: java.lang.IllegalArgumentException,Thread Group_Prod1 1-1,false,1352,1,1,0,1,1,INFPU07042,0
1512397256555,0,FileUpload D10_PE5216,Non HTTP response code: java.lang.IllegalArgumentException,Thread Group_Prod1 1-1,false,1352,1,1,0,1,1,INFPU07042,0
1512397256619,0,FileUpload D11_PE6030,Non HTTP response code: java.lang.IllegalArgumentException,Thread Group_Prod1 1-1,false,1352,1,1,0,1,1,INFPU07042,0
1512397256662,0,FileUpload D12_PE6027,Non HTTP response code: java.lang.IllegalArgumentException,Thread Group_Prod1 1-1,false,1352,1,1,0,1,1,INFPU07042,0
1512397256699,0,FileUpload D13_PE5691_1Record,Non HTTP response code: java.lang.IllegalArgumentException,Thread Group_Prod1 1-1,false,1352,1,1,0,1,1,INFPU07042,0
1512397256721,0,FileUpload D15_PE5691_1Record,Non HTTP response code: java.lang.IllegalArgumentException,Thread Group_Prod1 1-1,false,1352,1,1,0,1,1,INFPU07042,0
1512397280223,375,NoFileUpload B17_PE7033_PE7314,500,Thread Group_Prod1 1-1,false,290,1,1,375,1,1,INFPU07042,4
1512397280599,32,NoFileUpload B18_PE7033_PE7314,200,Thread Group_Prod1 1-1,true,605,1,1,32,1,0,INFPU07042,1
1512397280631,160,FileUpload D10_PE5216,500,Thread Group_Prod1 1-1,false,438,1,1,159,1,1,INFPU07042,0
1512397280853,1003,FileUpload D11_PE6030,200,Thread Group_Prod1 1-1,true,3242,1,1,1003,1,0,INFPU07042,2
1512397281907,59,FileUpload D12_PE6027,500,Thread Group_Prod1 1-1,false,438,1,1,59,1,1,INFPU07042,0
1512397282013,347,FileUpload D13_PE5691_1Record,200,Thread Group_Prod1 1-1,true,3241,1,1,347,1,0,INFPU07042,2
1512397282389,199,FileUpload D15_PE5691_1Record,200,Thread Group_Prod1 1-1,true,3241,1,1,198,1,0,INFPU07042,0
1512397363932,949,NoFileUpload B17_PE7033_PE7314,200,Thread Group_Prod1 1-1,true,879,1,1,949,1,0,INFPU07042,374
1512397364881,264,NoFileUpload B18_PE7033_PE7314,200,Thread Group_Prod1 1-1,true,521,1,1,264,1,0,INFPU07042,0
1512397365145,635,FileUpload D10_PE5216,200,Thread Group_Prod1 1-1,true,1364,1,1,635,1,0,INFPU07042,0
1512397365838,961,FileUpload D11_PE6030,200,Thread Group_Prod1 1-1,true,3265,1,1,960,1,0,INFPU07042,0
1512397366850,1043,FileUpload D12_PE6027,200,Thread Group_Prod1 1-1,true,2163,1,1,1043,1,0,INFPU07042,247
1512397367947,1752,FileUpload D13_PE5691_1Record,200,Thread Group_Prod1 1-1,true,3264,1,1,1752,1,0,INFPU07042,0
1512397369713,2024,FileUpload D15_PE5691_1Record,200,Thread Group_Prod1 1-1,true,3264,1,1,2024,1,0,INFPU07042,243
1512399107606,857,NoFileUpload B17_PE7033_PE7314,200,Thread Group_Prod1 1-1,true,879,1,1,857,1,0,INFPU07042,340
1512399108468,253,NoFileUpload B18_PE7033_PE7314,200,Thread Group_Prod1 1-1,true,521,1,1,252,1,0,INFPU07042,0
1512399108722,281,FileUpload D10_PE5216,200,Thread Group_Prod1 1-1,true,1364,1,1,281,1,0,INFPU07042,0
1512399109068,548,FileUpload D11_PE6030,200,Thread Group_Prod1 1-1,true,3265,1,1,547,1,0,INFPU07042,0
1512399109665,1058,FileUpload D12_PE6027,200,Thread Group_Prod1 1-1,true,2163,1,1,1057,1,0,INFPU07042,244
1512399110783,1383,FileUpload D13_PE5691_1Record,200,Thread Group_Prod1 1-1,true,3264,1,1,1383,1,0,INFPU07042,0
1512399112194,2018,FileUpload D15_PE5691_1Record,200,Thread Group_Prod1 1-1,true,3264,1,1,2017,1,0,INFPU07042,248
1512399114212,3821,FileUpload D16_PE7071_1Record,200,Thread Group_Prod1 1-1,false,6111,1,1,3819,1,1,INFPU07042,251
1512399191985,833,NoFileUpload B17_PE7033_PE7314,200,Thread Group_Prod1 1-1,true,879,1,1,833,1,0,INFPU07042,314
1512399192818,252,NoFileUpload B18_PE7033_PE7314,200,Thread Group_Prod1 1-1,true,521,1,1,252,1,0,INFPU07042,0
1512399193071,268,FileUpload D10_PE5216,200,Thread Group_Prod1 1-1,true,1364,1,1,268,1,0,INFPU07042,0
1512399193405,522,FileUpload D11_PE6030,200,Thread Group_Prod1 1-1,true,3265,1,1,521,1,0,INFPU07042,0
1512399194018,1026,FileUpload D12_PE6027,200,Thread Group_Prod1 1-1,true,2163,1,1,1025,1,0,INFPU07042,249
1512399195109,1512,FileUpload D13_PE5691_1Record,200,Thread Group_Prod1 1-1,true,3264,1,1,1512,1,0,INFPU07042,0
1512399196644,2266,FileUpload D15_PE5691_1Record,200,Thread Group_Prod1 1-1,true,3264,1,1,2266,1,0,INFPU07042,246
1512399198912,2025,FileUpload D16_PE7071_1Record,200,Thread Group_Prod1 1-1,false,6111,1,1,2022,1,1,INFPU07042,245
1512399200974,2128,FileUpload D17_PE7071_1Record,200,Thread Group_Prod1 1-1,false,6865,1,1,2126,1,1,INFPU07042,250
1512399203141,1786,FileUpload D18_PE7071_1Record,200,Thread Group_Prod1 1-1,true,6716,1,1,1784,1,0,INFPU07042,245
1512399204966,1276,FileUpload D19_PE7071_1Record,200,Thread Group_Prod1 1-1,true,6716,1,1,1272,1,0,INFPU07042,0
1512399352260,832,NoFileUpload B17_PE7033_PE7314,200,Thread Group_Prod1 1-1,true,879,1,1,832,1,0,INFPU07042,317
1512399353094,252,NoFileUpload B18_PE7033_PE7314,200,Thread Group_Prod1 1-1,true,521,1,1,251,1,0,INFPU07042,0
1512399353346,262,FileUpload D10_PE5216,200,Thread Group_Prod1 1-1,true,1364,1,1,261,1,0,INFPU07042,0
1512399353667,895,FileUpload D11_PE6030,200,Thread Group_Prod1 1-1,true,3265,1,1,895,1,0,INFPU07042,0
1512399354633,1034,FileUpload D12_PE6027,200,Thread Group_Prod1 1-1,true,2163,1,1,1033,1,0,INFPU07042,247
1512399355743,1613,FileUpload D13_PE5691_1Record,200,Thread Group_Prod1 1-1,true,3264,1,1,1613,1,0,INFPU07042,0
1512399357394,2043,FileUpload D15_PE5691_1Record,200,Thread Group_Prod1 1-1,true,3264,1,1,2042,1,0,INFPU07042,248
1512399359437,2054,FileUpload D16_PE7071_1Record,200,Thread Group_Prod1 1-1,false,6111,1,1,2052,1,1,INFPU07042,252
1512399361524,2063,FileUpload D17_PE7071_1Record,200,Thread Group_Prod1 1-1,false,6111,1,1,2061,1,1,INFPU07042,252
1512399363620,1999,FileUpload D18_PE7071_1Record,200,Thread Group_Prod1 1-1,true,6716,1,1,1997,1,0,INFPU07042,246
1512399365652,2059,FileUpload D19_PE7071_1Record,200,Thread Group_Prod1 1-1,true,6716,1,1,2057,1,0,INFPU07042,252
1512400556044,875,NoFileUpload B17_PE7033_PE7314,200,Thread Group_Prod1 1-1,true,879,1,1,875,1,0,INFPU07042,349
1512400556920,258,NoFileUpload B18_PE7033_PE7314,200,Thread Group_Prod1 1-1,true,521,1,1,258,1,0,INFPU07042,0
1512400557179,266,FileUpload D10_PE5216,200,Thread Group_Prod1 1-1,true,1364,1,1,265,1,0,INFPU07042,0
1512400557527,528,FileUpload D11_PE6030,200,Thread Group_Prod1 1-1,true,3265,1,1,527,1,0,INFPU07042,0
1512400558138,1019,FileUpload D12_PE6027,200,Thread Group_Prod1 1-1,true,2163,1,1,1018,1,0,INFPU07042,247
1512400559211,1518,FileUpload D13_PE5691_1Record,200,Thread Group_Prod1 1-1,true,3264,1,1,1517,1,0,INFPU07042,0
1512400560756,2317,FileUpload D15_PE5691_1Record,200,Thread Group_Prod1 1-1,true,3264,1,1,2316,1,0,INFPU07042,254
1512400563074,1805,FileUpload D16_PE7071_1Record,200,Thread Group_Prod1 1-1,true,6111,1,1,1804,1,0,INFPU07042,249
1512400564906,1288,FileUpload D17_PE7071_1Record,200,Thread Group_Prod1 1-1,false,6111,1,1,1286,1,1,INFPU07042,0
1512400566224,1774,FileUpload D18_PE7071_1Record,200,Thread Group_Prod1 1-1,true,6716,1,1,1772,1,0,INFPU07042,248
1512400568035,1285,FileUpload D19_PE7071_1Record,200,Thread Group_Prod1 1-1,true,6716,1,1,1282,1,0,INFPU07042,0
1512400606567,847,NoFileUpload B17_PE7033_PE7314,200,Thread Group_Prod1 1-1,true,879,1,1,847,1,0,INFPU07042,322
1512400607415,257,NoFileUpload B18_PE7033_PE7314,200,Thread Group_Prod1 1-1,true,521,1,1,257,1,0,INFPU07042,0
1512400607673,266,FileUpload D10_PE5216,200,Thread Group_Prod1 1-1,true,1364,1,1,266,1,0,INFPU07042,0
1512400608033,519,FileUpload D11_PE6030,200,Thread Group_Prod1 1-1,true,3265,1,1,519,1,0,INFPU07042,0
1512400608621,1038,FileUpload D12_PE6027,200,Thread Group_Prod1 1-1,true,2163,1,1,1038,1,0,INFPU07042,253
1512400609721,1568,FileUpload D13_PE5691_1Record,200,Thread Group_Prod1 1-1,true,3264,1,1,1568,1,0,INFPU07042,0
1512400611327,2050,FileUpload D15_PE5691_1Record,200,Thread Group_Prod1 1-1,true,3264,1,1,2049,1,0,INFPU07042,253
1512400613378,2067,FileUpload D16_PE7071_1Record,200,Thread Group_Prod1 1-1,true,6111,1,1,2064,1,0,INFPU07042,253
1512400615495,2058,FileUpload D17_PE7071_1Record,200,Thread Group_Prod1 1-1,true,6111,1,1,2057,1,0,INFPU07042,253
1512400617584,2001,FileUpload D18_PE7071_1Record,200,Thread Group_Prod1 1-1,true,6716,1,1,1999,1,0,INFPU07042,246
1512400619624,2062,FileUpload D19_PE7071_1Record,200,Thread Group_Prod1 1-1,true,6716,1,1,2060,1,0,INFPU07042,253
1512401124983,855,NoFileUpload B17_PE7033_PE7314,200,Thread Group_Prod1 1-1,true,879,1,1,854,1,0,INFPU07042,322
1512401125843,260,NoFileUpload B18_PE7033_PE7314,200,Thread Group_Prod1 1-1,true,521,1,1,260,1,0,INFPU07042,0
1512401126105,270,FileUpload D10_PE5216,200,Thread Group_Prod1 1-1,true,1364,1,1,270,1,0,INFPU07042,0
1512401126450,530,FileUpload D11_PE6030,200,Thread Group_Prod1 1-1,true,3265,1,1,529,1,0,INFPU07042,0
1512401127034,1009,FileUpload D12_PE6027,200,Thread Group_Prod1 1-1,true,2163,1,1,1008,1,0,INFPU07042,246
1512401128105,1498,FileUpload D13_PE5691_1Record,200,Thread Group_Prod1 1-1,true,3264,1,1,1497,1,0,INFPU07042,0
1512401129624,2236,FileUpload D15_PE5691_1Record,200,Thread Group_Prod1 1-1,true,3264,1,1,2236,1,0,INFPU07042,244
1512401131861,2047,FileUpload D16_PE7071_1Record,200,Thread Group_Prod1 1-1,true,6396,1,1,2045,1,0,INFPU07042,252
1512401133923,1807,FileUpload D17_PE7071_1Record,200,Thread Group_Prod1 1-1,false,6396,1,1,1805,1,1,INFPU07042,253
1512401135746,1301,FileUpload D18_PE7071_1Record,200,Thread Group_Prod1 1-1,true,6995,1,1,1297,1,0,INFPU07042,0
1512401137086,2032,FileUpload D19_PE7071_1Record,200,Thread Group_Prod1 1-1,true,6995,1,1,2030,1,0,INFPU07042,250
1512454252836,1157,FileUpload D11_PE6030,200,Thread Group_Prod1 1-1,true,3265,1,1,1157,1,0,INFPU07042,368
1512454254116,1275,FileUpload D16_PE7071_1Record,200,Thread Group_Prod1 1-1,true,6396,1,1,1273,1,0,INFPU07042,0
1512454255430,2128,FileUpload D17_PE7071_1Record,200,Thread Group_Prod1 1-1,false,6396,1,1,2126,1,1,INFPU07042,260
1512454257604,2183,FileUpload D18_PE7071_1Record,200,Thread Group_Prod1 1-1,true,6995,1,1,2181,1,0,INFPU07042,268
1512454259848,2049,FileUpload D20_PE7071_1Record,200,Thread Group_Prod1 1-1,true,5215,1,1,2047,1,0,INFPU07042,250
1512454432446,829,NoFileUpload B17_PE7044_expression,200,Thread Group_Prod1 1-1,true,516,1,1,829,1,0,INFPU07042,320
1512454433277,518,NoFileUpload B17_PE7044_range,200,Thread Group_Prod1 1-1,true,934,1,1,518,1,0,INFPU07042,0
1512454433914,289,NoFileUpload B17_PE7044_rangeValidationRefTable,200,Thread Group_Prod1 1-1,true,928,1,1,282,1,0,INFPU07042,0
1512454434288,292,NoFileUpload B17_PE7044_rangeValidationRefTable_dimensions,200,Thread Group_Prod1 1-1,false,967,1,1,291,1,1,INFPU07042,0
1512454434581,2034,FileUpload D16_PE7071_1Record,200,Thread Group_Prod1 1-1,true,6396,1,1,2031,1,0,INFPU07042,251
1512454436659,2172,FileUpload D17_PE7071_1Record,200,Thread Group_Prod1 1-1,false,6396,1,1,2170,1,1,INFPU07042,263
1512454438885,2073,FileUpload D18_PE7071_1Record,200,Thread Group_Prod1 1-1,true,6995,1,1,2071,1,0,INFPU07042,254
1512454441015,2112,FileUpload D20_PE7071_1Record,200,Thread Group_Prod1 1-1,true,5215,1,1,2111,1,0,INFPU07042,260
1512455194132,831,NoFileUpload B17_PE7044_expression,200,Thread Group_Prod1 1-1,true,516,1,1,831,1,0,INFPU07042,324
1512455194964,505,NoFileUpload B17_PE7044_range,200,Thread Group_Prod1 1-1,true,934,1,1,505,1,0,INFPU07042,0
1512455195628,265,NoFileUpload B17_PE7044_rangeValidationRefTable,200,Thread Group_Prod1 1-1,true,928,1,1,265,1,0,INFPU07042,0
1512455195977,268,NoFileUpload B17_PE7044_rangeValidationRefTable_dimensions,200,Thread Group_Prod1 1-1,false,967,1,1,268,1,1,INFPU07042,0
1512455196254,1830,FileUpload D16_PE7071_1Record,200,Thread Group_Prod1 1-1,true,6396,1,1,1828,1,0,INFPU07042,255
1512455198142,1332,FileUpload D17_PE7071_1Record,200,Thread Group_Prod1 1-1,false,6396,1,1,1330,1,1,INFPU07042,0
1512455199519,2063,FileUpload D18_PE7071_1Record,200,Thread Group_Prod1 1-1,true,6995,1,1,2060,1,0,INFPU07042,254
1512455201622,2043,FileUpload D20_PE7071_1Record,200,Thread Group_Prod1 1-1,true,5215,1,1,2042,1,0,INFPU07042,249
1512455224154,785,NoFileUpload B17_PE7044_expression,200,Thread Group_Prod1 1-1,true,516,1,1,785,1,0,INFPU07042,261
1512455224940,528,NoFileUpload B17_PE7044_range,200,Thread Group_Prod1 1-1,true,934,1,1,528,1,0,INFPU07042,0
1512455225592,282,NoFileUpload B17_PE7044_rangeValidationRefTable,200,Thread Group_Prod1 1-1,true,928,1,1,281,1,0,INFPU07042,0
1512455225900,285,NoFileUpload B17_PE7044_rangeValidationRefTable_dimensions,200,Thread Group_Prod1 1-1,true,967,1,1,285,1,0,INFPU07042,0
1512455226249,2167,FileUpload D16_PE7071_1Record,200,Thread Group_Prod1 1-1,true,6396,1,1,2163,1,0,INFPU07042,323
1512455228459,2065,FileUpload D17_PE7071_1Record,200,Thread Group_Prod1 1-1,false,6396,1,1,2063,1,1,INFPU07042,254
1512455230578,2050,FileUpload D18_PE7071_1Record,200,Thread Group_Prod1 1-1,true,6995,1,1,2042,1,0,INFPU07042,250
1512455232669,2022,FileUpload D20_PE7071_1Record,200,Thread Group_Prod1 1-1,true,5215,1,1,2020,1,0,INFPU07042,248
1512457803728,842,NoFileUpload B17_PE7033_PE7314,200,Thread Group_Prod1 1-1,false,879,1,1,842,1,1,INFPU07042,320
1512457804572,256,NoFileUpload B18_PE7033_PE7314,200,Thread Group_Prod1 1-1,false,521,1,1,256,1,1,INFPU07042,0
1512457804829,260,NoFileUpload B17_PE7044_expression,200,Thread Group_Prod1 1-1,true,516,1,1,260,1,0,INFPU07042,0
1512457805090,260,NoFileUpload B17_PE7044_range,200,Thread Group_Prod1 1-1,true,934,1,1,260,1,0,INFPU07042,0
1512457805481,287,NoFileUpload B17_PE7044_rangeValidationRefTable,200,Thread Group_Prod1 1-1,true,928,1,1,287,1,0,INFPU07042,0
1512457805861,1059,NoFileUpload B17_PE7044_rangeValidationRefTable_dimensions,200,Thread Group_Prod1 1-1,true,967,1,1,1059,1,0,INFPU07042,257
1512457807031,290,FileUpload D10_PE5216,500,Thread Group_Prod1 1-1,false,372,1,1,289,1,1,INFPU07042,0
1512457807421,1034,FileUpload D11_PE6030,200,Thread Group_Prod1 1-1,true,3265,1,1,1034,1,0,INFPU07042,253
1512457808585,559,FileUpload D12_PE6027,200,Thread Group_Prod1 1-1,true,2163,1,1,558,1,0,INFPU07042,0
1512457809311,1355,FileUpload D13_PE5691_1Record,200,Thread Group_Prod1 1-1,true,3264,1,1,1354,1,0,INFPU07042,0
1512457810716,2033,FileUpload D15_PE5691_1Record,200,Thread Group_Prod1 1-1,true,3264,1,1,2032,1,0,INFPU07042,249
1512457812750,2100,FileUpload D16_PE7071_1Record,200,Thread Group_Prod1 1-1,true,6396,1,1,2097,1,0,INFPU07042,252
1512457814904,1787,FileUpload D17_PE7071_1Record,200,Thread Group_Prod1 1-1,false,7150,1,1,1785,1,1,INFPU07042,248
1512457816753,1302,FileUpload D18_PE7071_1Record,200,Thread Group_Prod1 1-1,true,6995,1,1,1300,1,0,INFPU07042,0
1512457818112,1785,FileUpload D20_PE7071_1Record,200,Thread Group_Prod1 1-1,true,5215,1,1,1784,1,0,INFPU07042,249
1512458229520,893,NoFileUpload B17_PE7033_PE7314,200,Thread Group_Prod1 1-1,false,879,1,1,893,1,1,INFPU07042,335
1512458230414,275,NoFileUpload B18_PE7033_PE7314,200,Thread Group_Prod1 1-1,false,521,1,1,275,1,1,INFPU07042,0
1512458230690,276,NoFileUpload B17_PE7044_expression,200,Thread Group_Prod1 1-1,true,516,1,1,275,1,0,INFPU07042,0
1512458230967,295,NoFileUpload B17_PE7044_range,200,Thread Group_Prod1 1-1,true,934,1,1,294,1,0,INFPU07042,0
1512458231406,286,NoFileUpload B17_PE7044_rangeValidationRefTable,200,Thread Group_Prod1 1-1,true,928,1,1,285,1,0,INFPU07042,0
1512458231770,1012,NoFileUpload B17_PE7044_rangeValidationRefTable_dimensions,200,Thread Group_Prod1 1-1,true,967,1,1,1012,1,0,INFPU07042,249
1512458232838,272,FileUpload D10_PE5216,200,Thread Group_Prod1 1-1,true,1364,1,1,271,1,0,INFPU07042,0
1512458233219,524,FileUpload D11_PE6030,200,Thread Group_Prod1 1-1,true,3265,1,1,523,1,0,INFPU07042,0
1512458233853,1043,FileUpload D12_PE6027,200,Thread Group_Prod1 1-1,true,2163,1,1,1043,1,0,INFPU07042,255
1512458235003,1569,FileUpload D13_PE5691_1Record,200,Thread Group_Prod1 1-1,true,3264,1,1,1568,1,0,INFPU07042,0
1512458236622,2311,FileUpload D15_PE5691_1Record,200,Thread Group_Prod1 1-1,true,3264,1,1,2310,1,0,INFPU07042,257
1512458238934,2080,FileUpload D16_PE7071_1Record,200,Thread Group_Prod1 1-1,true,6396,1,1,2077,1,0,INFPU07042,255
1512458241074,2042,FileUpload D17_PE7071_1Record,200,Thread Group_Prod1 1-1,false,7148,1,1,2040,1,1,INFPU07042,247
1512458243181,2207,FileUpload D18_PE7071_1Record,200,Thread Group_Prod1 1-1,true,6995,1,1,2205,1,0,INFPU07042,256
1512458245445,2080,FileUpload D20_PE7071_1Record,200,Thread Group_Prod1 1-1,true,5215,1,1,2078,1,0,INFPU07042,252
1512459532209,1213,NoFileUpload B17_PE7033_PE7314,200,Thread Group_Prod1 1-1,false,879,1,1,1212,1,1,INFPU07042,332
1512459533423,588,NoFileUpload B18_PE7033_PE7314,200,Thread Group_Prod1 1-1,false,521,1,1,587,1,1,INFPU07042,0
1512459534012,318,NoFileUpload B17_PE7044_expression,200,Thread Group_Prod1 1-1,true,516,1,1,318,1,0,INFPU07042,0
1512459534331,1687,NoFileUpload B17_PE7044_range,200,Thread Group_Prod1 1-1,true,934,1,1,1687,1,0,INFPU07042,249
1512459536186,301,NoFileUpload B17_PE7044_rangeValidationRefTable,200,Thread Group_Prod1 1-1,true,928,1,1,300,1,0,INFPU07042,0
1512459536564,1570,NoFileUpload B17_PE7044_rangeValidationRefTable_dimensions,200,Thread Group_Prod1 1-1,true,967,1,1,1570,1,0,INFPU07042,248
1512459538253,268,FileUpload D10_PE5216,200,Thread Group_Prod1 1-1,true,1364,1,1,268,1,0,INFPU07042,0
1512459538640,1398,FileUpload D11_PE6030,200,Thread Group_Prod1 1-1,true,3265,1,1,1397,1,0,INFPU07042,253
1512459540168,875,FileUpload D12_PE6027,200,Thread Group_Prod1 1-1,true,2163,1,1,875,1,0,INFPU07042,0
1512459541143,3833,FileUpload D13_PE5691_1Record,200,Thread Group_Prod1 1-1,true,3264,1,1,3832,1,0,INFPU07042,247
1512459545081,3232,FileUpload D15_PE5691_1Record,200,Thread Group_Prod1 1-1,true,3264,1,1,3231,1,0,INFPU07042,258
1512459548314,3012,FileUpload D16_PE7071_1Record,200,Thread Group_Prod1 1-1,true,6396,1,1,3009,1,0,INFPU07042,247
1512459551394,3102,FileUpload D17_PE7071_1Record,200,Thread Group_Prod1 1-1,false,7148,1,1,3099,1,1,INFPU07042,247
1512459554604,3269,FileUpload D18_PE7071_1Record,200,Thread Group_Prod1 1-1,true,6995,1,1,3267,1,0,INFPU07042,245
1512459557933,3280,FileUpload D20_PE7071_1Record,200,Thread Group_Prod1 1-1,true,5215,1,1,3277,1,0,INFPU07042,249
1512462045457,849,NoFileUpload B17_PE7033_PE7314,200,Thread Group_Prod1 1-1,false,879,1,1,849,1,1,INFPU07042,320
1512462046307,257,NoFileUpload B18_PE7033_PE7314,200,Thread Group_Prod1 1-1,false,521,1,1,257,1,1,INFPU07042,0
1512462046565,258,NoFileUpload B17_PE7044_expression,200,Thread Group_Prod1 1-1,true,516,1,1,257,1,0,INFPU07042,0
1512462046824,257,NoFileUpload B17_PE7044_range,200,Thread Group_Prod1 1-1,true,934,1,1,257,1,0,INFPU07042,0
1512462047171,267,NoFileUpload B17_PE7044_rangeValidationRefTable,200,Thread Group_Prod1 1-1,true,928,1,1,267,1,0,INFPU07042,0
1512462047490,1011,NoFileUpload B17_PE7044_rangeValidationRefTable_dimensions,200,Thread Group_Prod1 1-1,true,967,1,1,1011,1,0,INFPU07042,249
1512462048625,270,FileUpload D10_PE5216,200,Thread Group_Prod1 1-1,true,1364,1,1,270,1,0,INFPU07042,0
1512462049003,513,FileUpload D11_PE6030,200,Thread Group_Prod1 1-1,true,3265,1,1,512,1,0,INFPU07042,0
1512462049630,1006,FileUpload D12_PE6027,200,Thread Group_Prod1 1-1,true,2163,1,1,1006,1,0,INFPU07042,246
1512462050720,1499,FileUpload D13_PE5691_1Record,200,Thread Group_Prod1 1-1,true,3264,1,1,1499,1,0,INFPU07042,0
1512462052262,2013,FileUpload D15_PE5691_1Record,200,Thread Group_Prod1 1-1,true,3264,1,1,2012,1,0,INFPU07042,247
1512462054276,2051,FileUpload D16_PE7071_1Record,200,Thread Group_Prod1 1-1,true,6396,1,1,2051,1,0,INFPU07042,252
1512462056366,1997,FileUpload D17_PE7071_1Record,200,Thread Group_Prod1 1-1,false,7148,1,1,1995,1,1,INFPU07042,245
1512462058428,1804,FileUpload D18_PE7071_1Record,200,Thread Group_Prod1 1-1,true,6995,1,1,1803,1,0,INFPU07042,253
1512462060275,1303,FileUpload D20_PE7071_1Record,200,Thread Group_Prod1 1-1,true,5215,1,1,1302,1,0,INFPU07042,0
1512462190807,833,NoFileUpload B17_PE7033_PE7314,200,Thread Group_Prod1 1-1,false,879,1,1,833,1,1,INFPU07042,317
1512462191642,250,NoFileUpload B18_PE7033_PE7314,200,Thread Group_Prod1 1-1,false,521,1,1,250,1,1,INFPU07042,0
1512462191894,250,NoFileUpload B17_PE7044_expression,200,Thread Group_Prod1 1-1,true,516,1,1,250,1,0,INFPU07042,0
1512462192155,251,NoFileUpload B17_PE7044_range,200,Thread Group_Prod1 1-1,true,934,1,1,250,1,0,INFPU07042,0
1512462192537,270,NoFileUpload B17_PE7044_rangeValidationRefTable,200,Thread Group_Prod1 1-1,true,928,1,1,270,1,0,INFPU07042,0
1512462192871,1010,NoFileUpload B17_PE7044_rangeValidationRefTable_dimensions,200,Thread Group_Prod1 1-1,true,967,1,1,1010,1,0,INFPU07042,245
1512462194003,262,FileUpload D10_PE5216,200,Thread Group_Prod1 1-1,true,1364,1,1,261,1,0,INFPU07042,0
1512462194376,514,FileUpload D11_PE6030,200,Thread Group_Prod1 1-1,true,3265,1,1,513,1,0,INFPU07042,0
1512462194990,1017,FileUpload D12_PE6027,200,Thread Group_Prod1 1-1,true,2163,1,1,1016,1,0,INFPU07042,249
1512462196091,1513,FileUpload D13_PE5691_1Record,200,Thread Group_Prod1 1-1,true,3264,1,1,1512,1,0,INFPU07042,0
1512462197642,2303,FileUpload D15_PE5691_1Record,200,Thread Group_Prod1 1-1,true,3264,1,1,2302,1,0,INFPU07042,251
1512462199947,1785,FileUpload D16_PE7071_1Record,200,Thread Group_Prod1 1-1,true,6396,1,1,1782,1,0,INFPU07042,251
1512462201795,1287,FileUpload D17_PE7071_1Record,200,Thread Group_Prod1 1-1,false,7148,1,1,1285,1,1,INFPU07042,0
1512462203154,2033,FileUpload D18_PE7071_1Record,200,Thread Group_Prod1 1-1,true,6995,1,1,2031,1,0,INFPU07042,251
1512462205235,2020,FileUpload D20_PE7071_1Record,200,Thread Group_Prod1 1-1,true,5215,1,1,2018,1,0,INFPU07042,247
1512462259367,905,NoFileUpload B17_PE7033_PE7314,200,Thread Group_Prod1 1-1,false,879,1,1,905,1,1,INFPU07042,332
1512462260275,292,NoFileUpload B18_PE7033_PE7314,200,Thread Group_Prod1 1-1,false,521,1,1,289,1,1,INFPU07042,0
1512462260568,272,NoFileUpload B17_PE7044_expression,200,Thread Group_Prod1 1-1,true,516,1,1,271,1,0,INFPU07042,0
1512462260841,265,NoFileUpload B17_PE7044_range,200,Thread Group_Prod1 1-1,true,934,1,1,264,1,0,INFPU07042,0
1512462261211,275,NoFileUpload B17_PE7044_rangeValidationRefTable,200,Thread Group_Prod1 1-1,true,928,1,1,275,1,0,INFPU07042,0
1512462261576,1027,NoFileUpload B17_PE7044_rangeValidationRefTable_dimensions,200,Thread Group_Prod1 1-1,true,967,1,1,1026,1,0,INFPU07042,251
1512462262739,264,FileUpload D10_PE5216,200,Thread Group_Prod1 1-1,true,1364,1,1,264,1,0,INFPU07042,0
1512462263097,519,FileUpload D11_PE6030,200,Thread Group_Prod1 1-1,true,3265,1,1,518,1,0,INFPU07042,0
1512462263697,1095,FileUpload D12_PE6027,200,Thread Group_Prod1 1-1,true,2163,1,1,1094,1,0,INFPU07042,250
1512462264898,1597,FileUpload D13_PE5691_1Record,200,Thread Group_Prod1 1-1,true,3264,1,1,1596,1,0,INFPU07042,0
1512462266529,2381,FileUpload D15_PE5691_1Record,200,Thread Group_Prod1 1-1,true,3264,1,1,2380,1,0,INFPU07042,249
1512462268911,2135,FileUpload D16_PE7071_1Record,200,Thread Group_Prod1 1-1,true,6396,1,1,2133,1,0,INFPU07042,248
1512462271106,2202,FileUpload D17_PE7071_1Record,200,Thread Group_Prod1 1-1,true,7148,1,1,2200,1,0,INFPU07042,254
1512462273412,2249,FileUpload D18_PE7071_1Record,200,Thread Group_Prod1 1-1,true,6995,1,1,2247,1,0,INFPU07042,250
1512462275708,2230,FileUpload D20_PE7071_1Record,200,Thread Group_Prod1 1-1,true,5215,1,1,2228,1,0,INFPU07042,251
1512462310696,935,NoFileUpload B17_PE7033_PE7314,200,Thread Group_Prod1 1-1,false,879,1,1,935,1,1,INFPU07042,356
1512462311632,285,NoFileUpload B18_PE7033_PE7314,200,Thread Group_Prod1 1-1,false,521,1,1,284,1,1,INFPU07042,0
1512462311917,270,NoFileUpload B17_PE7044_expression,200,Thread Group_Prod1 1-1,true,516,1,1,270,1,0,INFPU07042,0
1512462312188,266,NoFileUpload B17_PE7044_range,200,Thread Group_Prod1 1-1,true,934,1,1,266,1,0,INFPU07042,0
1512462312573,290,NoFileUpload B17_PE7044_rangeValidationRefTable,200,Thread Group_Prod1 1-1,true,928,1,1,277,1,0,INFPU07042,0
1512462312905,1066,NoFileUpload B17_PE7044_rangeValidationRefTable_dimensions,200,Thread Group_Prod1 1-1,true,967,1,1,1066,1,0,INFPU07042,254
1512462314059,277,FileUpload D10_PE5216,200,Thread Group_Prod1 1-1,true,1364,1,1,277,1,0,INFPU07042,0
1512462314429,553,FileUpload D11_PE6030,200,Thread Group_Prod1 1-1,true,3265,1,1,552,1,0,INFPU07042,0
1512462315037,1039,FileUpload D12_PE6027,200,Thread Group_Prod1 1-1,true,2163,1,1,1038,1,0,INFPU07042,252
1512462316205,1694,FileUpload D13_PE5691_1Record,200,Thread Group_Prod1 1-1,true,3264,1,1,1694,1,0,INFPU07042,0
1512462317943,2409,FileUpload D15_PE5691_1Record,200,Thread Group_Prod1 1-1,true,3264,1,1,2408,1,0,INFPU07042,250
1512462320354,2138,FileUpload D16_PE7071_1Record,200,Thread Group_Prod1 1-1,true,6396,1,1,2136,1,0,INFPU07042,248
1512462322522,2437,FileUpload D17_PE7071_1Record,200,Thread Group_Prod1 1-1,true,6394,1,1,2435,1,0,INFPU07042,253
1512462325036,2400,FileUpload D18_PE7071_1Record,200,Thread Group_Prod1 1-1,true,6995,1,1,2399,1,0,INFPU07042,246
1512462327503,2231,FileUpload D20_PE7071_1Record,200,Thread Group_Prod1 1-1,true,5215,1,1,2229,1,0,INFPU07042,250
1512462348705,975,NoFileUpload B17_PE7033_PE7314,200,Thread Group_Prod1 1-1,false,879,1,1,974,1,1,INFPU07042,321
1512462349682,254,NoFileUpload B18_PE7033_PE7314,200,Thread Group_Prod1 1-1,false,521,1,1,254,1,1,INFPU07042,0
1512462349939,272,NoFileUpload B17_PE7044_expression,200,Thread Group_Prod1 1-1,true,516,1,1,272,1,0,INFPU07042,0
1512462350212,306,NoFileUpload B17_PE7044_range,200,Thread Group_Prod1 1-1,true,934,1,1,306,1,0,INFPU07042,0
1512462350665,308,NoFileUpload B17_PE7044_rangeValidationRefTable,200,Thread Group_Prod1 1-1,true,928,1,1,306,1,0,INFPU07042,0
1512462351060,1162,NoFileUpload B17_PE7044_rangeValidationRefTable_dimensions,200,Thread Group_Prod1 1-1,true,967,1,1,1156,1,0,INFPU07042,250
1512462352326,335,FileUpload D10_PE5216,200,Thread Group_Prod1 1-1,true,1364,1,1,335,1,0,INFPU07042,0
1512462352763,633,FileUpload D11_PE6030,200,Thread Group_Prod1 1-1,true,3265,1,1,632,1,0,INFPU07042,0
1512462353515,1184,FileUpload D12_PE6027,200,Thread Group_Prod1 1-1,true,2163,1,1,1183,1,0,INFPU07042,248
1512462354809,1780,FileUpload D13_PE5691_1Record,200,Thread Group_Prod1 1-1,true,3264,1,1,1779,1,0,INFPU07042,0
1512462356653,2441,FileUpload D15_PE5691_1Record,200,Thread Group_Prod1 1-1,true,3264,1,1,2440,1,0,INFPU07042,247
1512462359095,2203,FileUpload D16_PE7071_1Record,200,Thread Group_Prod1 1-1,true,6396,1,1,2202,1,0,INFPU07042,253
1512462361346,2299,FileUpload D17_PE7071_1Record,200,Thread Group_Prod1 1-1,true,6394,1,1,2297,1,0,INFPU07042,254
1512462363722,2406,FileUpload D18_PE7071_1Record,200,Thread Group_Prod1 1-1,true,6995,1,1,2401,1,0,INFPU07042,252
1512462366157,2286,FileUpload D20_PE7071_1Record,200,Thread Group_Prod1 1-1,true,5215,1,1,2284,1,0,INFPU07042,246
1512462377312,810,NoFileUpload B17_PE7033_PE7314,200,Thread Group_Prod1 1-1,false,879,1,1,810,1,1,INFPU07042,247
1512462378123,290,NoFileUpload B18_PE7033_PE7314,200,Thread Group_Prod1 1-1,false,521,1,1,290,1,1,INFPU07042,0
1512462378416,254,NoFileUpload B17_PE7044_expression,200,Thread Group_Prod1 1-1,true,516,1,1,253,1,0,INFPU07042,0
1512462378671,285,NoFileUpload B17_PE7044_range,200,Thread Group_Prod1 1-1,true,934,1,1,284,1,0,INFPU07042,0
1512462379061,268,NoFileUpload B17_PE7044_rangeValidationRefTable,200,Thread Group_Prod1 1-1,true,928,1,1,268,1,0,INFPU07042,0
1512462379408,1217,NoFileUpload B17_PE7044_rangeValidationRefTable_dimensions,200,Thread Group_Prod1 1-1,true,967,1,1,1217,1,0,INFPU07042,318
1512462380747,263,FileUpload D10_PE5216,200,Thread Group_Prod1 1-1,true,1364,1,1,263,1,0,INFPU07042,0
1512462381067,572,FileUpload D11_PE6030,200,Thread Group_Prod1 1-1,true,3265,1,1,571,1,0,INFPU07042,0
1512462381731,1149,FileUpload D12_PE6027,200,Thread Group_Prod1 1-1,true,2163,1,1,1149,1,0,INFPU07042,247
1512462382959,1771,FileUpload D13_PE5691_1Record,200,Thread Group_Prod1 1-1,true,3264,1,1,1770,1,0,INFPU07042,0
1512462384781,2558,FileUpload D15_PE5691_1Record,200,Thread Group_Prod1 1-1,true,3264,1,1,2557,1,0,INFPU07042,250
1512462387340,2345,FileUpload D16_PE7071_1Record,200,Thread Group_Prod1 1-1,true,6396,1,1,2325,1,0,INFPU07042,250
1512462389712,2201,FileUpload D17_PE7071_1Record,200,Thread Group_Prod1 1-1,true,6394,1,1,2199,1,0,INFPU07042,246
1512462391987,2230,FileUpload D18_PE7071_1Record,200,Thread Group_Prod1 1-1,true,6995,1,1,2228,1,0,INFPU07042,254
1512462394239,2278,FileUpload D20_PE7071_1Record,200,Thread Group_Prod1 1-1,true,5215,1,1,2276,1,0,INFPU07042,251
1512468196209,2227,FileUpload D12_PE7611,200,Thread Group_Prod1 1-1,true,12916,1,1,2220,1,0,INFPU07042,496
1512544253642,2142,FileUpload D12_PE7611,200,Thread Group_Prod1 1-1,true,2418,1,1,2142,1,0,INFPU07042,322
1512544255819,1816,FileUpload D12_PE7611,200,Thread Group_Prod1 1-1,true,1621,1,1,1816,1,0,INFPU07042,250
1512544257669,1296,FileUpload D12_PE7611,200,Thread Group_Prod1 1-1,true,1518,1,1,1296,1,0,INFPU07042,0
1512544258989,1816,FileUpload D12_PE7611,200,Thread Group_Prod1 1-1,true,1586,1,1,1814,1,0,INFPU07042,250
1512544260832,1298,FileUpload D12_PE7611,200,Thread Group_Prod1 1-1,true,2033,1,1,1297,1,0,INFPU07042,0
1512544262175,2066,FileUpload D12_PE7611,200,Thread Group_Prod1 1-1,true,1624,1,1,2066,1,0,INFPU07042,251
1512544264285,1845,FileUpload D12_PE7611,200,Thread Group_Prod1 1-1,true,1624,1,1,1844,1,0,INFPU07042,252
1512544266144,1340,FileUpload D12_PE7611,200,Thread Group_Prod1 1-1,true,2042,1,1,1340,1,0,INFPU07042,0
1512544267512,2051,FileUpload D12_PE7611,200,Thread Group_Prod1 1-1,true,1799,1,1,2050,1,0,INFPU07042,250
1512544269595,1856,FileUpload D12_PE7611,200,Thread Group_Prod1 1-1,true,1754,1,1,1856,1,0,INFPU07042,252
1512544288904,1864,FileUpload D12_PE7611,200,Thread Group_Prod1 1-1,true,2418,1,1,1863,1,0,INFPU07042,326
1512544290782,1034,FileUpload D12_PE7611,200,Thread Group_Prod1 1-1,true,1621,1,1,1034,1,0,INFPU07042,0
1512544291834,2022,FileUpload D12_PE7611,200,Thread Group_Prod1 1-1,true,1518,1,1,2021,1,0,INFPU07042,250
1512544293879,1781,FileUpload D12_PE7611,200,Thread Group_Prod1 1-1,true,1586,1,1,1781,1,0,INFPU07042,248
1512544295682,1031,FileUpload D12_PE7611,200,Thread Group_Prod1 1-1,true,2033,1,1,1030,1,0,INFPU07042,0
1512544296724,1824,FileUpload D12_PE7611,200,Thread Group_Prod1 1-1,true,1624,1,1,1823,1,0,INFPU07042,259
1512544298562,1104,FileUpload D12_PE7611,200,Thread Group_Prod1 1-1,true,1624,1,1,1103,1,0,INFPU07042,0
1512544299703,2045,FileUpload D12_PE7611,200,Thread Group_Prod1 1-1,true,2042,1,1,2044,1,0,INFPU07042,251
1512544301770,2027,FileUpload D12_PE7611,200,Thread Group_Prod1 1-1,true,1799,1,1,2027,1,0,INFPU07042,248
1512544303811,2065,FileUpload D12_PE7611,200,Thread Group_Prod1 1-1,true,1754,1,1,2064,1,0,INFPU07042,255
