{  
   "entities":[  
      {  
         "sectionStructure":{  
            "columns":[  
               {  
                  "code":"city1",
                  "displayLabel":"city1",
		  "dataType":"int",
                  "validations":[]
               },
               {   
                  "code":"COUNTRY_CODE1",
                  "displayLabel":"COUNTRY_CODE1",
                  "dataType":"int",
		  "validations":[  
                  ]
               }, {   
                  "code":"COUNTRY_CODE2",
                  "displayLabel":"COUNTRY_CODE2",
                  "dataType":"string",
		  "validations":[  
                  ]
               }
            ]
         },
         
         "contextData":{  
            "uniqueIdColumnCode":"ID",
            "campaignId":"11111",
			"companyName":"Company1",
			"entityNameColumnCode":"city1",
			 "ctryCode":"US",
            "sectionId":"22222",
            "grpCode":"3333",
            "cpyCode":"4444",
            "industry":{  
               "superSector":"CG",
               "sector":"100",
               "subSector":"101"
            },
            "orgSize":123
         }
      },
	  {  
         "sectionStructure":{  
            "columns":[  
               {  
                  "code":"city2",
                  "displayLabel":"city2",
				  "dataType":"string",
                  "validations":[  
                     {  
                        "errorType":"ERROR",
                        "validationType":"expression",
                        "expression":"DECODE(LENGTH(this.city2) > 0,true,false);",
                        "errorGroup":"Personal",
                        "message":"Length of Department"
                     }
                  ]
               },
               {   
                  "code":"COUNTRY_CODE2",
                  "displayLabel":"COUNTRY_CODE2",
                  "dataType":"string",
				  "validations":[  
                     {  
                        "errorType":"ERROR",
                        "validationType":"expression",
                        "expression":"DECODE(LENGTH(this.COUNTRY_CODE2) > 0,true,false);",
                        "errorGroup":"Personal",
                        "message":"Length of Department"
                     }
                  ]
               }
            ]
         },
         
         "contextData":{  
            "uniqueIdColumnCode":"ID",
            "campaignId":"11111",
			"companyName":"Company2",
			"entityNameColumnCode":"COUNTRY_CODE2",
			"sectionId":"22222",
            "grpCode":"3333",
            "cpyCode":"4444",
            "ctryCode":"PL",
            "industry":{  
               "superSector":"CG",
               "sector":"100",
               "subSector":"101"
            },
            "orgSize":123
         }
      }
   ]
}